(export (version D)
  (design
    (source /home/charlesrwest/cpp/hardware/pcbDesign/2021/STDrive101TestBoard/STDrive101TestBoard.sch)
    (date "Fri 08 Oct 2021 10:33:14 AM EDT")
    (tool "Eeschema 5.1.10")
    (sheet (number 1) (name /) (tstamps /)
      (title_block
        (title)
        (company)
        (rev)
        (date)
        (source STDrive101TestBoard.sch)
        (comment (number 1) (value ""))
        (comment (number 2) (value ""))
        (comment (number 3) (value ""))
        (comment (number 4) (value "")))))
  (components
    (comp (ref IC1)
      (value STDRIVE101)
      (footprint STDRIVE101:QFN50P400X400X100-25N-D)
      (fields
        (field (name Description) "Gate Drivers Low voltage gate driver for driving three-phase brushless motors")
        (field (name Height) 1)
        (field (name Manufacturer_Name) STMicroelectronics)
        (field (name Manufacturer_Part_Number) STDRIVE101)
        (field (name "Mouser Part Number") 511-STDRIVE101)
        (field (name "Mouser Price/Stock") https://www.mouser.co.uk/ProductDetail/STMicroelectronics/STDRIVE101?qs=xZ%2FP%252Ba9zWqYdY88AYx%252Blxg%3D%3D))
      (libsource (lib STDRIVE101) (part STDRIVE101) (description "Gate Drivers Low voltage gate driver for driving three-phase brushless motors"))
      (sheetpath (names /) (tstamps /))
      (tstamp 615BB90C))
    (comp (ref C3)
      (value UUG1H102MNQ1ZD)
      (footprint UUG1H102MNQ1ZD:CAPAE1910X2250N)
      (datasheet https://componentsearchengine.com/Datasheets/1/UUG1H102MNQ1ZD.pdf)
      (fields
        (field (name Description) UUG1H102MNQ1ZD)
        (field (name Height) 22.5)
        (field (name Manufacturer_Name) Nichicon)
        (field (name Manufacturer_Part_Number) UUG1H102MNQ1ZD)
        (field (name "Mouser Part Number") 647-UUG1H102MNQ1ZD)
        (field (name "Mouser Price/Stock") https://www.mouser.com/Search/Refine.aspx?Keyword=647-UUG1H102MNQ1ZD))
      (libsource (lib UUG1H102MNQ1ZD) (part UUG1H102MNQ1ZD) (description UUG1H102MNQ1ZD))
      (sheetpath (names /) (tstamps /))
      (tstamp 615BCC9C))
    (comp (ref C5)
      (value UUG1H102MNQ1ZD)
      (footprint UUG1H102MNQ1ZD:CAPAE1910X2250N)
      (datasheet https://componentsearchengine.com/Datasheets/1/UUG1H102MNQ1ZD.pdf)
      (fields
        (field (name Description) UUG1H102MNQ1ZD)
        (field (name Height) 22.5)
        (field (name Manufacturer_Name) Nichicon)
        (field (name Manufacturer_Part_Number) UUG1H102MNQ1ZD)
        (field (name "Mouser Part Number") 647-UUG1H102MNQ1ZD)
        (field (name "Mouser Price/Stock") https://www.mouser.com/Search/Refine.aspx?Keyword=647-UUG1H102MNQ1ZD))
      (libsource (lib UUG1H102MNQ1ZD) (part UUG1H102MNQ1ZD) (description UUG1H102MNQ1ZD))
      (sheetpath (names /) (tstamps /))
      (tstamp 615BD88E))
    (comp (ref C1)
      (value CL10B104KB8NNNC)
      (footprint CL10B104KB8NNNC:CAPC1608X90N)
      (datasheet http://www.samsungsem.com/kr/support/product-search/mlcc/CL10B104KB8NNNC.jsp)
      (fields
        (field (name Description) "Ceramic cap 0603 X7R 50V 100nF (Reel)")
        (field (name Height) 0.9)
        (field (name Manufacturer_Name) "Samsung Electro-Mechanics")
        (field (name Manufacturer_Part_Number) CL10B104KB8NNNC)
        (field (name "Mouser Part Number") 187-CL10B104KB8NNNC)
        (field (name "Mouser Price/Stock") https://www.mouser.co.uk/ProductDetail/Samsung-Electro-Mechanics/CL10B104KB8NNNC?qs=349EhDEZ59rvGc2rLwVOdA%3D%3D))
      (libsource (lib CL10B104KB8NNNC) (part CL10B104KB8NNNC) (description "Ceramic cap 0603 X7R 50V 100nF (Reel)"))
      (sheetpath (names /) (tstamps /))
      (tstamp 615C2DC8))
    (comp (ref C4)
      (value 885012207100)
      (footprint 885012207100:CAPC2012X135N)
      (datasheet https://katalog.we-online.com/pbs/datasheet/885012207100.pdf)
      (fields
        (field (name Description) "Multilayer Ceramic Chip Capacitor WCAP-CSGP Series 0805 220000pF X7R0805224K050DFCT10000")
        (field (name Height) 1.35)
        (field (name Manufacturer_Name) "Wurth Elektronik")
        (field (name Manufacturer_Part_Number) 885012207100)
        (field (name "Mouser Part Number") 710-885012207100)
        (field (name "Mouser Price/Stock") https://www.mouser.co.uk/ProductDetail/Wurth-Elektronik/885012207100?qs=0KOYDY2FL28gx73pQkeRCQ%3D%3D))
      (libsource (lib 885012207100) (part 885012207100) (description "Multilayer Ceramic Chip Capacitor WCAP-CSGP Series 0805 220000pF X7R0805224K050DFCT10000"))
      (sheetpath (names /) (tstamps /))
      (tstamp 615CBA20))
    (comp (ref R1)
      (value CRCW0603200KFKEAC)
      (footprint CRCW0603200KFKEAC:RESC1608X55N)
      (fields
        (field (name Description) "Thick Film Resistors - SMD 1/10Watt 200Kohms 1% Commercial Use")
        (field (name Height) 0.55)
        (field (name Manufacturer_Name) Vishay)
        (field (name Manufacturer_Part_Number) CRCW0603200KFKEAC)
        (field (name "Mouser Part Number") 71-CRCW0603200KFKEAC)
        (field (name "Mouser Price/Stock") https://www.mouser.co.uk/ProductDetail/Vishay-Dale/CRCW0603200KFKEAC?qs=E3Y5ESvWgWMPi4tlnnzi9Q%3D%3D))
      (libsource (lib CRCW0603200KFKEAC) (part CRCW0603200KFKEAC) (description "Thick Film Resistors - SMD 1/10Watt 200Kohms 1% Commercial Use"))
      (sheetpath (names /) (tstamps /))
      (tstamp 615CCB2E))
    (comp (ref C2)
      (value C3216X5R1V226M160AC)
      (footprint C3216X5R1V226M160AC:C3216_Commercial)
      (datasheet https://product.tdk.com/system/files/dam/doc/product/capacitor/ceramic/mlcc/catalog/mlcc_commercial_general_en.pdf)
      (fields
        (field (name Description) "MULTILAYER CERAMIC CHIP CAPACITORS, 3216, Commercial grade, general (Up to 75V)")
        (field (name Height) 0.75)
        (field (name Manufacturer_Name) TDK)
        (field (name Manufacturer_Part_Number) C3216X5R1V226M160AC)
        (field (name "Mouser Part Number") 810-C3216X5R1V226M)
        (field (name "Mouser Price/Stock") https://www.mouser.co.uk/ProductDetail/TDK/C3216X5R1V226M160AC?qs=NRhsANhppD8TwN31eZ1xGQ%3D%3D))
      (libsource (lib C3216X5R1V226M160AC) (part C3216X5R1V226M160AC) (description "MULTILAYER CERAMIC CHIP CAPACITORS, 3216, Commercial grade, general (Up to 75V)"))
      (sheetpath (names /) (tstamps /))
      (tstamp 615CFC02))
    (comp (ref R5)
      (value ESR03EZPJ220)
      (footprint ESR03EZPJ220:RESC1608X55N)
      (datasheet https://componentsearchengine.com/Datasheets/2/ESR03EZPJ220.pdf)
      (fields
        (field (name Description) "ROHM - ESR03EZPJ220 - RES, AEC-Q200, THICK FILM, 22R, 5%, 0603")
        (field (name Height) 0.55)
        (field (name Manufacturer_Name) "ROHM Semiconductor")
        (field (name Manufacturer_Part_Number) ESR03EZPJ220)
        (field (name "Mouser Part Number") 755-ESR03EZPJ220)
        (field (name "Mouser Price/Stock") https://www.mouser.co.uk/ProductDetail/ROHM-Semiconductor/ESR03EZPJ220?qs=DyUWGjl%252BcVu91Z0We5GZng%3D%3D))
      (libsource (lib ESR03EZPJ220) (part ESR03EZPJ220) (description "ROHM - ESR03EZPJ220 - RES, AEC-Q200, THICK FILM, 22R, 5%, 0603"))
      (sheetpath (names /) (tstamps /))
      (tstamp 615D1651))
    (comp (ref R4)
      (value ESR03EZPJ220)
      (footprint ESR03EZPJ220:RESC1608X55N)
      (datasheet https://componentsearchengine.com/Datasheets/2/ESR03EZPJ220.pdf)
      (fields
        (field (name Description) "ROHM - ESR03EZPJ220 - RES, AEC-Q200, THICK FILM, 22R, 5%, 0603")
        (field (name Height) 0.55)
        (field (name Manufacturer_Name) "ROHM Semiconductor")
        (field (name Manufacturer_Part_Number) ESR03EZPJ220)
        (field (name "Mouser Part Number") 755-ESR03EZPJ220)
        (field (name "Mouser Price/Stock") https://www.mouser.co.uk/ProductDetail/ROHM-Semiconductor/ESR03EZPJ220?qs=DyUWGjl%252BcVu91Z0We5GZng%3D%3D))
      (libsource (lib ESR03EZPJ220) (part ESR03EZPJ220) (description "ROHM - ESR03EZPJ220 - RES, AEC-Q200, THICK FILM, 22R, 5%, 0603"))
      (sheetpath (names /) (tstamps /))
      (tstamp 615D1D29))
    (comp (ref Q3)
      (value SIR500DP-T1-RE3)
      (footprint SIR500DP-T1-RE3:SIR500DPT1RE3)
      (datasheet https://www.vishay.com/docs/66840/sir500dp.pdf)
      (fields
        (field (name Description) "MOSFET N-CHANNEL 30-V (D-S)")
        (field (name Height) 1.17)
        (field (name Manufacturer_Name) Vishay)
        (field (name Manufacturer_Part_Number) SIR500DP-T1-RE3)
        (field (name "Mouser Part Number") 78-SIR500DP-T1-RE3)
        (field (name "Mouser Price/Stock") https://www.mouser.co.uk/ProductDetail/Vishay-Siliconix/SIR500DP-T1-RE3?qs=CiayqK2gdcKgJcjAZin73w%3D%3D))
      (libsource (lib SIR500DP-T1-RE3) (part SIR500DP-T1-RE3) (description "MOSFET N-CHANNEL 30-V (D-S)"))
      (sheetpath (names /) (tstamps /))
      (tstamp 615FB9BF))
    (comp (ref Q4)
      (value SIR500DP-T1-RE3)
      (footprint SIR500DP-T1-RE3:SIR500DPT1RE3)
      (datasheet https://www.vishay.com/docs/66840/sir500dp.pdf)
      (fields
        (field (name Description) "MOSFET N-CHANNEL 30-V (D-S)")
        (field (name Height) 1.17)
        (field (name Manufacturer_Name) Vishay)
        (field (name Manufacturer_Part_Number) SIR500DP-T1-RE3)
        (field (name "Mouser Part Number") 78-SIR500DP-T1-RE3)
        (field (name "Mouser Price/Stock") https://www.mouser.co.uk/ProductDetail/Vishay-Siliconix/SIR500DP-T1-RE3?qs=CiayqK2gdcKgJcjAZin73w%3D%3D))
      (libsource (lib SIR500DP-T1-RE3) (part SIR500DP-T1-RE3) (description "MOSFET N-CHANNEL 30-V (D-S)"))
      (sheetpath (names /) (tstamps /))
      (tstamp 616380EC))
    (comp (ref C7)
      (value GRM188R6YA225MA12D)
      (footprint GRM188R6YA225MA12D:CAPC1608X90N)
      (datasheet http://componentsearchengine.com/Datasheets/1/GRM188R6YA225MA12D.pdf)
      (fields
        (field (name Description) "Multilayer Ceramic Capacitors MLCC - SMD/SMT 0603 2.2uF 35volts *Derate Voltage/Temp")
        (field (name Height) 0.9)
        (field (name Manufacturer_Name) "Murata Electronics")
        (field (name Manufacturer_Part_Number) GRM188R6YA225MA12D)
        (field (name "Mouser Part Number") 81-GRM188R6YA225MA2D)
        (field (name "Mouser Price/Stock") https://www.mouser.co.uk/ProductDetail/Murata-Electronics/GRM188R6YA225MA12D?qs=eeBpzGFlv%252B%2FmnWIdXKs6Gw%3D%3D))
      (libsource (lib GRM188R6YA225MA12D) (part GRM188R6YA225MA12D) (description "Multilayer Ceramic Capacitors MLCC - SMD/SMT 0603 2.2uF 35volts *Derate Voltage/Temp"))
      (sheetpath (names /) (tstamps /))
      (tstamp 6164C4A2))
    (comp (ref R7)
      (value ESR03EZPJ220)
      (footprint ESR03EZPJ220:RESC1608X55N)
      (datasheet https://componentsearchengine.com/Datasheets/2/ESR03EZPJ220.pdf)
      (fields
        (field (name Description) "ROHM - ESR03EZPJ220 - RES, AEC-Q200, THICK FILM, 22R, 5%, 0603")
        (field (name Height) 0.55)
        (field (name Manufacturer_Name) "ROHM Semiconductor")
        (field (name Manufacturer_Part_Number) ESR03EZPJ220)
        (field (name "Mouser Part Number") 755-ESR03EZPJ220)
        (field (name "Mouser Price/Stock") https://www.mouser.co.uk/ProductDetail/ROHM-Semiconductor/ESR03EZPJ220?qs=DyUWGjl%252BcVu91Z0We5GZng%3D%3D))
      (libsource (lib ESR03EZPJ220) (part ESR03EZPJ220) (description "ROHM - ESR03EZPJ220 - RES, AEC-Q200, THICK FILM, 22R, 5%, 0603"))
      (sheetpath (names /) (tstamps /))
      (tstamp 61663703))
    (comp (ref R6)
      (value ESR03EZPJ220)
      (footprint ESR03EZPJ220:RESC1608X55N)
      (datasheet https://componentsearchengine.com/Datasheets/2/ESR03EZPJ220.pdf)
      (fields
        (field (name Description) "ROHM - ESR03EZPJ220 - RES, AEC-Q200, THICK FILM, 22R, 5%, 0603")
        (field (name Height) 0.55)
        (field (name Manufacturer_Name) "ROHM Semiconductor")
        (field (name Manufacturer_Part_Number) ESR03EZPJ220)
        (field (name "Mouser Part Number") 755-ESR03EZPJ220)
        (field (name "Mouser Price/Stock") https://www.mouser.co.uk/ProductDetail/ROHM-Semiconductor/ESR03EZPJ220?qs=DyUWGjl%252BcVu91Z0We5GZng%3D%3D))
      (libsource (lib ESR03EZPJ220) (part ESR03EZPJ220) (description "ROHM - ESR03EZPJ220 - RES, AEC-Q200, THICK FILM, 22R, 5%, 0603"))
      (sheetpath (names /) (tstamps /))
      (tstamp 616638F1))
    (comp (ref Q5)
      (value SIR500DP-T1-RE3)
      (footprint SIR500DP-T1-RE3:SIR500DPT1RE3)
      (datasheet https://www.vishay.com/docs/66840/sir500dp.pdf)
      (fields
        (field (name Description) "MOSFET N-CHANNEL 30-V (D-S)")
        (field (name Height) 1.17)
        (field (name Manufacturer_Name) Vishay)
        (field (name Manufacturer_Part_Number) SIR500DP-T1-RE3)
        (field (name "Mouser Part Number") 78-SIR500DP-T1-RE3)
        (field (name "Mouser Price/Stock") https://www.mouser.co.uk/ProductDetail/Vishay-Siliconix/SIR500DP-T1-RE3?qs=CiayqK2gdcKgJcjAZin73w%3D%3D))
      (libsource (lib SIR500DP-T1-RE3) (part SIR500DP-T1-RE3) (description "MOSFET N-CHANNEL 30-V (D-S)"))
      (sheetpath (names /) (tstamps /))
      (tstamp 61663903))
    (comp (ref Q6)
      (value SIR500DP-T1-RE3)
      (footprint SIR500DP-T1-RE3:SIR500DPT1RE3)
      (datasheet https://www.vishay.com/docs/66840/sir500dp.pdf)
      (fields
        (field (name Description) "MOSFET N-CHANNEL 30-V (D-S)")
        (field (name Height) 1.17)
        (field (name Manufacturer_Name) Vishay)
        (field (name Manufacturer_Part_Number) SIR500DP-T1-RE3)
        (field (name "Mouser Part Number") 78-SIR500DP-T1-RE3)
        (field (name "Mouser Price/Stock") https://www.mouser.co.uk/ProductDetail/Vishay-Siliconix/SIR500DP-T1-RE3?qs=CiayqK2gdcKgJcjAZin73w%3D%3D))
      (libsource (lib SIR500DP-T1-RE3) (part SIR500DP-T1-RE3) (description "MOSFET N-CHANNEL 30-V (D-S)"))
      (sheetpath (names /) (tstamps /))
      (tstamp 61663933))
    (comp (ref C8)
      (value GRM188R6YA225MA12D)
      (footprint GRM188R6YA225MA12D:CAPC1608X90N)
      (datasheet http://componentsearchengine.com/Datasheets/1/GRM188R6YA225MA12D.pdf)
      (fields
        (field (name Description) "Multilayer Ceramic Capacitors MLCC - SMD/SMT 0603 2.2uF 35volts *Derate Voltage/Temp")
        (field (name Height) 0.9)
        (field (name Manufacturer_Name) "Murata Electronics")
        (field (name Manufacturer_Part_Number) GRM188R6YA225MA12D)
        (field (name "Mouser Part Number") 81-GRM188R6YA225MA2D)
        (field (name "Mouser Price/Stock") https://www.mouser.co.uk/ProductDetail/Murata-Electronics/GRM188R6YA225MA12D?qs=eeBpzGFlv%252B%2FmnWIdXKs6Gw%3D%3D))
      (libsource (lib GRM188R6YA225MA12D) (part GRM188R6YA225MA12D) (description "Multilayer Ceramic Capacitors MLCC - SMD/SMT 0603 2.2uF 35volts *Derate Voltage/Temp"))
      (sheetpath (names /) (tstamps /))
      (tstamp 61663963))
    (comp (ref R3)
      (value ESR03EZPJ220)
      (footprint ESR03EZPJ220:RESC1608X55N)
      (datasheet https://componentsearchengine.com/Datasheets/2/ESR03EZPJ220.pdf)
      (fields
        (field (name Description) "ROHM - ESR03EZPJ220 - RES, AEC-Q200, THICK FILM, 22R, 5%, 0603")
        (field (name Height) 0.55)
        (field (name Manufacturer_Name) "ROHM Semiconductor")
        (field (name Manufacturer_Part_Number) ESR03EZPJ220)
        (field (name "Mouser Part Number") 755-ESR03EZPJ220)
        (field (name "Mouser Price/Stock") https://www.mouser.co.uk/ProductDetail/ROHM-Semiconductor/ESR03EZPJ220?qs=DyUWGjl%252BcVu91Z0We5GZng%3D%3D))
      (libsource (lib ESR03EZPJ220) (part ESR03EZPJ220) (description "ROHM - ESR03EZPJ220 - RES, AEC-Q200, THICK FILM, 22R, 5%, 0603"))
      (sheetpath (names /) (tstamps /))
      (tstamp 6167AB7D))
    (comp (ref R2)
      (value ESR03EZPJ220)
      (footprint ESR03EZPJ220:RESC1608X55N)
      (datasheet https://componentsearchengine.com/Datasheets/2/ESR03EZPJ220.pdf)
      (fields
        (field (name Description) "ROHM - ESR03EZPJ220 - RES, AEC-Q200, THICK FILM, 22R, 5%, 0603")
        (field (name Height) 0.55)
        (field (name Manufacturer_Name) "ROHM Semiconductor")
        (field (name Manufacturer_Part_Number) ESR03EZPJ220)
        (field (name "Mouser Part Number") 755-ESR03EZPJ220)
        (field (name "Mouser Price/Stock") https://www.mouser.co.uk/ProductDetail/ROHM-Semiconductor/ESR03EZPJ220?qs=DyUWGjl%252BcVu91Z0We5GZng%3D%3D))
      (libsource (lib ESR03EZPJ220) (part ESR03EZPJ220) (description "ROHM - ESR03EZPJ220 - RES, AEC-Q200, THICK FILM, 22R, 5%, 0603"))
      (sheetpath (names /) (tstamps /))
      (tstamp 6167AE01))
    (comp (ref Q1)
      (value SIR500DP-T1-RE3)
      (footprint SIR500DP-T1-RE3:SIR500DPT1RE3)
      (datasheet https://www.vishay.com/docs/66840/sir500dp.pdf)
      (fields
        (field (name Description) "MOSFET N-CHANNEL 30-V (D-S)")
        (field (name Height) 1.17)
        (field (name Manufacturer_Name) Vishay)
        (field (name Manufacturer_Part_Number) SIR500DP-T1-RE3)
        (field (name "Mouser Part Number") 78-SIR500DP-T1-RE3)
        (field (name "Mouser Price/Stock") https://www.mouser.co.uk/ProductDetail/Vishay-Siliconix/SIR500DP-T1-RE3?qs=CiayqK2gdcKgJcjAZin73w%3D%3D))
      (libsource (lib SIR500DP-T1-RE3) (part SIR500DP-T1-RE3) (description "MOSFET N-CHANNEL 30-V (D-S)"))
      (sheetpath (names /) (tstamps /))
      (tstamp 6167AE13))
    (comp (ref Q2)
      (value SIR500DP-T1-RE3)
      (footprint SIR500DP-T1-RE3:SIR500DPT1RE3)
      (datasheet https://www.vishay.com/docs/66840/sir500dp.pdf)
      (fields
        (field (name Description) "MOSFET N-CHANNEL 30-V (D-S)")
        (field (name Height) 1.17)
        (field (name Manufacturer_Name) Vishay)
        (field (name Manufacturer_Part_Number) SIR500DP-T1-RE3)
        (field (name "Mouser Part Number") 78-SIR500DP-T1-RE3)
        (field (name "Mouser Price/Stock") https://www.mouser.co.uk/ProductDetail/Vishay-Siliconix/SIR500DP-T1-RE3?qs=CiayqK2gdcKgJcjAZin73w%3D%3D))
      (libsource (lib SIR500DP-T1-RE3) (part SIR500DP-T1-RE3) (description "MOSFET N-CHANNEL 30-V (D-S)"))
      (sheetpath (names /) (tstamps /))
      (tstamp 6167AE43))
    (comp (ref C6)
      (value GRM188R6YA225MA12D)
      (footprint GRM188R6YA225MA12D:CAPC1608X90N)
      (datasheet http://componentsearchengine.com/Datasheets/1/GRM188R6YA225MA12D.pdf)
      (fields
        (field (name Description) "Multilayer Ceramic Capacitors MLCC - SMD/SMT 0603 2.2uF 35volts *Derate Voltage/Temp")
        (field (name Height) 0.9)
        (field (name Manufacturer_Name) "Murata Electronics")
        (field (name Manufacturer_Part_Number) GRM188R6YA225MA12D)
        (field (name "Mouser Part Number") 81-GRM188R6YA225MA2D)
        (field (name "Mouser Price/Stock") https://www.mouser.co.uk/ProductDetail/Murata-Electronics/GRM188R6YA225MA12D?qs=eeBpzGFlv%252B%2FmnWIdXKs6Gw%3D%3D))
      (libsource (lib GRM188R6YA225MA12D) (part GRM188R6YA225MA12D) (description "Multilayer Ceramic Capacitors MLCC - SMD/SMT 0603 2.2uF 35volts *Derate Voltage/Temp"))
      (sheetpath (names /) (tstamps /))
      (tstamp 6167AE73))
    (comp (ref J4)
      (value Conn_01x01_Male)
      (footprint Connector_PinHeader_2.54mm:PinHeader_1x01_P2.54mm_Vertical)
      (datasheet ~)
      (libsource (lib Connector) (part Conn_01x01_Male) (description "Generic connector, single row, 01x01, script generated (kicad-library-utils/schlib/autogen/connector/)"))
      (sheetpath (names /) (tstamps /))
      (tstamp 616B004C))
    (comp (ref J5)
      (value Conn_01x01_Male)
      (footprint Connector_PinHeader_2.54mm:PinHeader_1x01_P2.54mm_Vertical)
      (datasheet ~)
      (libsource (lib Connector) (part Conn_01x01_Male) (description "Generic connector, single row, 01x01, script generated (kicad-library-utils/schlib/autogen/connector/)"))
      (sheetpath (names /) (tstamps /))
      (tstamp 616B0D21))
    (comp (ref J1)
      (value 1985975)
      (footprint 1985975:SHDR3W100P0X500_1X3_1500X1120X1820P)
      (datasheet https://componentsearchengine.com/Datasheets/1/1985975.pdf)
      (fields
        (field (name Description) "Fixed Terminal Blocks MKDS 3/ 3 HT BK")
        (field (name Height) 18.2)
        (field (name Manufacturer_Name) "Phoenix Contact")
        (field (name Manufacturer_Part_Number) 1985975)
        (field (name "Mouser Part Number") 651-1985975)
        (field (name "Mouser Price/Stock") https://www.mouser.com/Search/Refine.aspx?Keyword=651-1985975))
      (libsource (lib 1985975) (part 1985975) (description "Fixed Terminal Blocks MKDS 3/ 3 HT BK"))
      (sheetpath (names /) (tstamps /))
      (tstamp 616BA74D))
    (comp (ref J2)
      (value 1985975)
      (footprint 1985975:SHDR3W100P0X500_1X3_1500X1120X1820P)
      (datasheet https://componentsearchengine.com/Datasheets/1/1985975.pdf)
      (fields
        (field (name Description) "Fixed Terminal Blocks MKDS 3/ 3 HT BK")
        (field (name Height) 18.2)
        (field (name Manufacturer_Name) "Phoenix Contact")
        (field (name Manufacturer_Part_Number) 1985975)
        (field (name "Mouser Part Number") 651-1985975)
        (field (name "Mouser Price/Stock") https://www.mouser.com/Search/Refine.aspx?Keyword=651-1985975))
      (libsource (lib 1985975) (part 1985975) (description "Fixed Terminal Blocks MKDS 3/ 3 HT BK"))
      (sheetpath (names /) (tstamps /))
      (tstamp 616BF5AC))
    (comp (ref J3)
      (value Conn_01x01_Male)
      (footprint Connector_PinHeader_2.54mm:PinHeader_1x01_P2.54mm_Vertical)
      (datasheet ~)
      (libsource (lib Connector) (part Conn_01x01_Male) (description "Generic connector, single row, 01x01, script generated (kicad-library-utils/schlib/autogen/connector/)"))
      (sheetpath (names /) (tstamps /))
      (tstamp 6161D629))
    (comp (ref J7)
      (value Conn_01x07_Male)
      (footprint Connector_PinHeader_2.54mm:PinHeader_1x07_P2.54mm_Vertical)
      (datasheet ~)
      (libsource (lib Connector) (part Conn_01x07_Male) (description "Generic connector, single row, 01x07, script generated (kicad-library-utils/schlib/autogen/connector/)"))
      (sheetpath (names /) (tstamps /))
      (tstamp 616282EE))
    (comp (ref J6)
      (value Conn_01x01_Male)
      (footprint Connector_PinHeader_2.54mm:PinHeader_1x01_P2.54mm_Vertical)
      (datasheet ~)
      (libsource (lib Connector) (part Conn_01x01_Male) (description "Generic connector, single row, 01x01, script generated (kicad-library-utils/schlib/autogen/connector/)"))
      (sheetpath (names /) (tstamps /))
      (tstamp 61668102)))
  (libparts
    (libpart (lib 1985975) (part 1985975)
      (description "Fixed Terminal Blocks MKDS 3/ 3 HT BK")
      (docs https://componentsearchengine.com/Datasheets/1/1985975.pdf)
      (fields
        (field (name Reference) J)
        (field (name Value) 1985975)
        (field (name Footprint) SHDR3W100P0X500_1X3_1500X1120X1820P)
        (field (name Datasheet) https://componentsearchengine.com/Datasheets/1/1985975.pdf)
        (field (name Description) "Fixed Terminal Blocks MKDS 3/ 3 HT BK")
        (field (name Height) 18.2)
        (field (name "Mouser Part Number") 651-1985975)
        (field (name "Mouser Price/Stock") https://www.mouser.com/Search/Refine.aspx?Keyword=651-1985975)
        (field (name Manufacturer_Name) "Phoenix Contact")
        (field (name Manufacturer_Part_Number) 1985975))
      (pins
        (pin (num 1) (name 1) (type unspc))
        (pin (num 2) (name 2) (type unspc))
        (pin (num 3) (name 3) (type unspc))))
    (libpart (lib 885012207100) (part 885012207100)
      (description "Multilayer Ceramic Chip Capacitor WCAP-CSGP Series 0805 220000pF X7R0805224K050DFCT10000")
      (docs https://katalog.we-online.com/pbs/datasheet/885012207100.pdf)
      (fields
        (field (name Reference) C)
        (field (name Value) 885012207100)
        (field (name Footprint) CAPC2012X135N)
        (field (name Datasheet) https://katalog.we-online.com/pbs/datasheet/885012207100.pdf)
        (field (name Description) "Multilayer Ceramic Chip Capacitor WCAP-CSGP Series 0805 220000pF X7R0805224K050DFCT10000")
        (field (name Height) 1.35)
        (field (name "Mouser Part Number") 710-885012207100)
        (field (name "Mouser Price/Stock") https://www.mouser.co.uk/ProductDetail/Wurth-Elektronik/885012207100?qs=0KOYDY2FL28gx73pQkeRCQ%3D%3D)
        (field (name Manufacturer_Name) "Wurth Elektronik")
        (field (name Manufacturer_Part_Number) 885012207100))
      (pins
        (pin (num 1) (name ~) (type passive))
        (pin (num 2) (name ~) (type passive))))
    (libpart (lib C3216X5R1V226M160AC) (part C3216X5R1V226M160AC)
      (description "MULTILAYER CERAMIC CHIP CAPACITORS, 3216, Commercial grade, general (Up to 75V)")
      (docs https://product.tdk.com/system/files/dam/doc/product/capacitor/ceramic/mlcc/catalog/mlcc_commercial_general_en.pdf)
      (fields
        (field (name Reference) C)
        (field (name Value) C3216X5R1V226M160AC)
        (field (name Footprint) C3216_Commercial)
        (field (name Datasheet) https://product.tdk.com/system/files/dam/doc/product/capacitor/ceramic/mlcc/catalog/mlcc_commercial_general_en.pdf)
        (field (name Description) "MULTILAYER CERAMIC CHIP CAPACITORS, 3216, Commercial grade, general (Up to 75V)")
        (field (name Height) 0.75)
        (field (name "Mouser Part Number") 810-C3216X5R1V226M)
        (field (name "Mouser Price/Stock") https://www.mouser.co.uk/ProductDetail/TDK/C3216X5R1V226M160AC?qs=NRhsANhppD8TwN31eZ1xGQ%3D%3D)
        (field (name Manufacturer_Name) TDK)
        (field (name Manufacturer_Part_Number) C3216X5R1V226M160AC))
      (pins
        (pin (num 1) (name ~) (type passive))
        (pin (num 2) (name ~) (type passive))))
    (libpart (lib CL10B104KB8NNNC) (part CL10B104KB8NNNC)
      (description "Ceramic cap 0603 X7R 50V 100nF (Reel)")
      (docs http://www.samsungsem.com/kr/support/product-search/mlcc/CL10B104KB8NNNC.jsp)
      (fields
        (field (name Reference) C)
        (field (name Value) CL10B104KB8NNNC)
        (field (name Footprint) CAPC1608X90N)
        (field (name Datasheet) http://www.samsungsem.com/kr/support/product-search/mlcc/CL10B104KB8NNNC.jsp)
        (field (name Description) "Ceramic cap 0603 X7R 50V 100nF (Reel)")
        (field (name Height) 0.9)
        (field (name "Mouser Part Number") 187-CL10B104KB8NNNC)
        (field (name "Mouser Price/Stock") https://www.mouser.co.uk/ProductDetail/Samsung-Electro-Mechanics/CL10B104KB8NNNC?qs=349EhDEZ59rvGc2rLwVOdA%3D%3D)
        (field (name Manufacturer_Name) "Samsung Electro-Mechanics")
        (field (name Manufacturer_Part_Number) CL10B104KB8NNNC))
      (pins
        (pin (num 1) (name ~) (type passive))
        (pin (num 2) (name ~) (type passive))))
    (libpart (lib CRCW0603200KFKEAC) (part CRCW0603200KFKEAC)
      (description "Thick Film Resistors - SMD 1/10Watt 200Kohms 1% Commercial Use")
      (fields
        (field (name Reference) R)
        (field (name Value) CRCW0603200KFKEAC)
        (field (name Footprint) RESC1608X55N)
        (field (name Description) "Thick Film Resistors - SMD 1/10Watt 200Kohms 1% Commercial Use")
        (field (name Height) 0.55)
        (field (name "Mouser Part Number") 71-CRCW0603200KFKEAC)
        (field (name "Mouser Price/Stock") https://www.mouser.co.uk/ProductDetail/Vishay-Dale/CRCW0603200KFKEAC?qs=E3Y5ESvWgWMPi4tlnnzi9Q%3D%3D)
        (field (name Manufacturer_Name) Vishay)
        (field (name Manufacturer_Part_Number) CRCW0603200KFKEAC))
      (pins
        (pin (num 1) (name ~) (type passive))
        (pin (num 2) (name ~) (type passive))))
    (libpart (lib Connector) (part Conn_01x01_Male)
      (description "Generic connector, single row, 01x01, script generated (kicad-library-utils/schlib/autogen/connector/)")
      (docs ~)
      (footprints
        (fp Connector*:*))
      (fields
        (field (name Reference) J)
        (field (name Value) Conn_01x01_Male))
      (pins
        (pin (num 1) (name Pin_1) (type passive))))
    (libpart (lib Connector) (part Conn_01x07_Male)
      (description "Generic connector, single row, 01x07, script generated (kicad-library-utils/schlib/autogen/connector/)")
      (docs ~)
      (footprints
        (fp Connector*:*_1x??_*))
      (fields
        (field (name Reference) J)
        (field (name Value) Conn_01x07_Male))
      (pins
        (pin (num 1) (name Pin_1) (type passive))
        (pin (num 2) (name Pin_2) (type passive))
        (pin (num 3) (name Pin_3) (type passive))
        (pin (num 4) (name Pin_4) (type passive))
        (pin (num 5) (name Pin_5) (type passive))
        (pin (num 6) (name Pin_6) (type passive))
        (pin (num 7) (name Pin_7) (type passive))))
    (libpart (lib ESR03EZPJ220) (part ESR03EZPJ220)
      (description "ROHM - ESR03EZPJ220 - RES, AEC-Q200, THICK FILM, 22R, 5%, 0603")
      (docs https://componentsearchengine.com/Datasheets/2/ESR03EZPJ220.pdf)
      (fields
        (field (name Reference) R)
        (field (name Value) ESR03EZPJ220)
        (field (name Footprint) RESC1608X55N)
        (field (name Datasheet) https://componentsearchengine.com/Datasheets/2/ESR03EZPJ220.pdf)
        (field (name Description) "ROHM - ESR03EZPJ220 - RES, AEC-Q200, THICK FILM, 22R, 5%, 0603")
        (field (name Height) 0.55)
        (field (name "Mouser Part Number") 755-ESR03EZPJ220)
        (field (name "Mouser Price/Stock") https://www.mouser.co.uk/ProductDetail/ROHM-Semiconductor/ESR03EZPJ220?qs=DyUWGjl%252BcVu91Z0We5GZng%3D%3D)
        (field (name Manufacturer_Name) "ROHM Semiconductor")
        (field (name Manufacturer_Part_Number) ESR03EZPJ220))
      (pins
        (pin (num 1) (name ~) (type passive))
        (pin (num 2) (name ~) (type passive))))
    (libpart (lib GRM188R6YA225MA12D) (part GRM188R6YA225MA12D)
      (description "Multilayer Ceramic Capacitors MLCC - SMD/SMT 0603 2.2uF 35volts *Derate Voltage/Temp")
      (docs http://componentsearchengine.com/Datasheets/1/GRM188R6YA225MA12D.pdf)
      (fields
        (field (name Reference) C)
        (field (name Value) GRM188R6YA225MA12D)
        (field (name Footprint) CAPC1608X90N)
        (field (name Datasheet) http://componentsearchengine.com/Datasheets/1/GRM188R6YA225MA12D.pdf)
        (field (name Description) "Multilayer Ceramic Capacitors MLCC - SMD/SMT 0603 2.2uF 35volts *Derate Voltage/Temp")
        (field (name Height) 0.9)
        (field (name "Mouser Part Number") 81-GRM188R6YA225MA2D)
        (field (name "Mouser Price/Stock") https://www.mouser.co.uk/ProductDetail/Murata-Electronics/GRM188R6YA225MA12D?qs=eeBpzGFlv%252B%2FmnWIdXKs6Gw%3D%3D)
        (field (name Manufacturer_Name) "Murata Electronics")
        (field (name Manufacturer_Part_Number) GRM188R6YA225MA12D))
      (pins
        (pin (num 1) (name ~) (type passive))
        (pin (num 2) (name ~) (type passive))))
    (libpart (lib SIR500DP-T1-RE3) (part SIR500DP-T1-RE3)
      (description "MOSFET N-CHANNEL 30-V (D-S)")
      (docs https://www.vishay.com/docs/66840/sir500dp.pdf)
      (fields
        (field (name Reference) Q)
        (field (name Value) SIR500DP-T1-RE3)
        (field (name Footprint) SIR500DPT1RE3)
        (field (name Datasheet) https://www.vishay.com/docs/66840/sir500dp.pdf)
        (field (name Description) "MOSFET N-CHANNEL 30-V (D-S)")
        (field (name Height) 1.17)
        (field (name "Mouser Part Number") 78-SIR500DP-T1-RE3)
        (field (name "Mouser Price/Stock") https://www.mouser.co.uk/ProductDetail/Vishay-Siliconix/SIR500DP-T1-RE3?qs=CiayqK2gdcKgJcjAZin73w%3D%3D)
        (field (name Manufacturer_Name) Vishay)
        (field (name Manufacturer_Part_Number) SIR500DP-T1-RE3))
      (pins
        (pin (num 1) (name S_1) (type passive))
        (pin (num 2) (name S_2) (type passive))
        (pin (num 3) (name S_3) (type passive))
        (pin (num 4) (name G) (type passive))
        (pin (num 5) (name D_1) (type passive))
        (pin (num 6) (name D_2) (type passive))
        (pin (num 7) (name D_3) (type passive))
        (pin (num 8) (name D_4) (type passive))
        (pin (num 9) (name D_5) (type passive))
        (pin (num 10) (name D_6) (type passive))
        (pin (num 11) (name D_7) (type passive))))
    (libpart (lib STDRIVE101) (part STDRIVE101)
      (description "Gate Drivers Low voltage gate driver for driving three-phase brushless motors")
      (fields
        (field (name Reference) IC)
        (field (name Value) STDRIVE101)
        (field (name Footprint) QFN50P400X400X100-25N-D)
        (field (name Description) "Gate Drivers Low voltage gate driver for driving three-phase brushless motors")
        (field (name Height) 1)
        (field (name "Mouser Part Number") 511-STDRIVE101)
        (field (name "Mouser Price/Stock") https://www.mouser.co.uk/ProductDetail/STMicroelectronics/STDRIVE101?qs=xZ%2FP%252Ba9zWqYdY88AYx%252Blxg%3D%3D)
        (field (name Manufacturer_Name) STMicroelectronics)
        (field (name Manufacturer_Part_Number) STDRIVE101))
      (pins
        (pin (num 1) (name CP) (type passive))
        (pin (num 2) (name DT/MODE) (type passive))
        (pin (num 3) (name SCREF) (type passive))
        (pin (num 4) (name VS) (type passive))
        (pin (num 5) (name REG12) (type passive))
        (pin (num 6) (name NFAULT) (type passive))
        (pin (num 7) (name INH1/IN1) (type passive))
        (pin (num 8) (name INH2/IN2) (type passive))
        (pin (num 9) (name INH3/IN3) (type passive))
        (pin (num 10) (name INL1/EN1) (type passive))
        (pin (num 11) (name INL2/EN2) (type passive))
        (pin (num 12) (name INL3/EN3) (type passive))
        (pin (num 13) (name BOOT3) (type passive))
        (pin (num 14) (name GHS3) (type passive))
        (pin (num 15) (name OUT3) (type passive))
        (pin (num 16) (name GLS3) (type passive))
        (pin (num 17) (name BOOT2) (type passive))
        (pin (num 18) (name GHS2) (type passive))
        (pin (num 19) (name OUT2) (type passive))
        (pin (num 20) (name GLS2) (type passive))
        (pin (num 21) (name BOOT1) (type passive))
        (pin (num 22) (name GHS1) (type passive))
        (pin (num 23) (name OUT1) (type passive))
        (pin (num 24) (name GLS1) (type passive))
        (pin (num 25) (name GND) (type passive))))
    (libpart (lib UUG1H102MNQ1ZD) (part UUG1H102MNQ1ZD)
      (description UUG1H102MNQ1ZD)
      (docs https://componentsearchengine.com/Datasheets/1/UUG1H102MNQ1ZD.pdf)
      (fields
        (field (name Reference) C)
        (field (name Value) UUG1H102MNQ1ZD)
        (field (name Footprint) CAPAE1910X2250N)
        (field (name Datasheet) https://componentsearchengine.com/Datasheets/1/UUG1H102MNQ1ZD.pdf)
        (field (name Description) UUG1H102MNQ1ZD)
        (field (name Height) 22.5)
        (field (name "Mouser Part Number") 647-UUG1H102MNQ1ZD)
        (field (name "Mouser Price/Stock") https://www.mouser.com/Search/Refine.aspx?Keyword=647-UUG1H102MNQ1ZD)
        (field (name Manufacturer_Name) Nichicon)
        (field (name Manufacturer_Part_Number) UUG1H102MNQ1ZD))
      (pins
        (pin (num 1) (name ~) (type passive))
        (pin (num 2) (name ~) (type passive)))))
  (libraries
    (library (logical 1985975)
      (uri /home/charlesrwest/cpp/hardware/pcbDesign/2021/STDrive101TestBoard/SamacSysLibrary/1985975.lib))
    (library (logical 885012207100)
      (uri /home/charlesrwest/cpp/hardware/pcbDesign/2021/STDrive101TestBoard/SamacSysLibrary/885012207100.lib))
    (library (logical C3216X5R1V226M160AC)
      (uri /home/charlesrwest/cpp/hardware/pcbDesign/2021/STDrive101TestBoard/SamacSysLibrary/C3216X5R1V226M160AC.lib))
    (library (logical CL10B104KB8NNNC)
      (uri /home/charlesrwest/cpp/hardware/pcbDesign/2021/STDrive101TestBoard/SamacSysLibrary/CL10B104KB8NNNC.lib))
    (library (logical CRCW0603200KFKEAC)
      (uri /home/charlesrwest/cpp/hardware/pcbDesign/2021/STDrive101TestBoard/SamacSysLibrary/CRCW0603200KFKEAC.lib))
    (library (logical Connector)
      (uri /usr/share/kicad/library/Connector.lib))
    (library (logical ESR03EZPJ220)
      (uri /home/charlesrwest/cpp/hardware/pcbDesign/2021/STDrive101TestBoard/SamacSysLibrary/ESR03EZPJ220.lib))
    (library (logical GRM188R6YA225MA12D)
      (uri /home/charlesrwest/cpp/hardware/pcbDesign/2021/STDrive101TestBoard/SamacSysLibrary/GRM188R6YA225MA12D.lib))
    (library (logical SIR500DP-T1-RE3)
      (uri /home/charlesrwest/cpp/hardware/pcbDesign/2021/STDrive101TestBoard/SamacSysLibrary/SIR500DP-T1-RE3.lib))
    (library (logical STDRIVE101)
      (uri /home/charlesrwest/cpp/hardware/pcbDesign/2021/STDrive101TestBoard/SamacSysLibrary/STDRIVE101.lib))
    (library (logical UUG1H102MNQ1ZD)
      (uri /home/charlesrwest/cpp/hardware/pcbDesign/2021/STDrive101TestBoard/SamacSysLibrary/UUG1H102MNQ1ZD.lib)))
  (nets
    (net (code 1) (name GHS3)
      (node (ref R2) (pin 1))
      (node (ref IC1) (pin 14)))
    (net (code 2) (name "Net-(Q1-Pad4)")
      (node (ref R2) (pin 2))
      (node (ref Q1) (pin 4)))
    (net (code 3) (name "Net-(Q2-Pad4)")
      (node (ref Q2) (pin 4))
      (node (ref R3) (pin 2)))
    (net (code 4) (name GLS3)
      (node (ref IC1) (pin 16))
      (node (ref R3) (pin 1)))
    (net (code 5) (name BOOT2)
      (node (ref IC1) (pin 17))
      (node (ref C8) (pin 1)))
    (net (code 6) (name +28V)
      (node (ref Q5) (pin 10))
      (node (ref Q5) (pin 6))
      (node (ref Q5) (pin 11))
      (node (ref Q5) (pin 9))
      (node (ref Q5) (pin 8))
      (node (ref Q5) (pin 7))
      (node (ref Q5) (pin 5))
      (node (ref J2) (pin 1))
      (node (ref Q3) (pin 9))
      (node (ref Q3) (pin 11))
      (node (ref Q3) (pin 10))
      (node (ref Q3) (pin 8))
      (node (ref Q3) (pin 7))
      (node (ref Q3) (pin 6))
      (node (ref Q3) (pin 5))
      (node (ref IC1) (pin 4))
      (node (ref C1) (pin 1))
      (node (ref C5) (pin 1))
      (node (ref C3) (pin 1))
      (node (ref Q1) (pin 10))
      (node (ref Q1) (pin 11))
      (node (ref Q1) (pin 9))
      (node (ref Q1) (pin 5))
      (node (ref Q1) (pin 6))
      (node (ref Q1) (pin 7))
      (node (ref Q1) (pin 8)))
    (net (code 7) (name "Net-(Q6-Pad4)")
      (node (ref R7) (pin 2))
      (node (ref Q6) (pin 4)))
    (net (code 8) (name MOTOR_V)
      (node (ref C8) (pin 2))
      (node (ref Q5) (pin 2))
      (node (ref Q6) (pin 7))
      (node (ref Q6) (pin 8))
      (node (ref Q6) (pin 9))
      (node (ref Q6) (pin 10))
      (node (ref Q6) (pin 6))
      (node (ref Q6) (pin 5))
      (node (ref Q5) (pin 3))
      (node (ref Q5) (pin 1))
      (node (ref Q6) (pin 11))
      (node (ref IC1) (pin 19))
      (node (ref J1) (pin 2)))
    (net (code 9) (name GND)
      (node (ref Q4) (pin 1))
      (node (ref C4) (pin 2))
      (node (ref R1) (pin 1))
      (node (ref Q4) (pin 3))
      (node (ref C2) (pin 2))
      (node (ref Q4) (pin 2))
      (node (ref C3) (pin 2))
      (node (ref C5) (pin 2))
      (node (ref IC1) (pin 1))
      (node (ref IC1) (pin 25))
      (node (ref C1) (pin 2))
      (node (ref J2) (pin 2))
      (node (ref J2) (pin 3))
      (node (ref J6) (pin 1))
      (node (ref Q6) (pin 2))
      (node (ref Q2) (pin 2))
      (node (ref Q2) (pin 3))
      (node (ref Q2) (pin 1))
      (node (ref J7) (pin 7))
      (node (ref Q6) (pin 3))
      (node (ref Q6) (pin 1)))
    (net (code 10) (name "Net-(IC1-Pad3)")
      (node (ref J4) (pin 1))
      (node (ref IC1) (pin 3)))
    (net (code 11) (name MOTOR_W)
      (node (ref Q2) (pin 6))
      (node (ref Q2) (pin 11))
      (node (ref Q2) (pin 10))
      (node (ref Q2) (pin 9))
      (node (ref Q2) (pin 7))
      (node (ref Q2) (pin 8))
      (node (ref J1) (pin 3))
      (node (ref Q1) (pin 1))
      (node (ref Q1) (pin 2))
      (node (ref Q1) (pin 3))
      (node (ref C6) (pin 2))
      (node (ref Q2) (pin 5))
      (node (ref IC1) (pin 15)))
    (net (code 12) (name MOTOR_U)
      (node (ref Q4) (pin 5))
      (node (ref Q4) (pin 6))
      (node (ref Q4) (pin 7))
      (node (ref Q4) (pin 8))
      (node (ref J1) (pin 1))
      (node (ref IC1) (pin 23))
      (node (ref C7) (pin 2))
      (node (ref Q3) (pin 3))
      (node (ref Q4) (pin 9))
      (node (ref Q4) (pin 11))
      (node (ref Q4) (pin 10))
      (node (ref Q3) (pin 2))
      (node (ref Q3) (pin 1)))
    (net (code 13) (name "Net-(IC1-Pad6)")
      (node (ref IC1) (pin 6))
      (node (ref J5) (pin 1)))
    (net (code 14) (name "Net-(IC1-Pad12)")
      (node (ref IC1) (pin 12))
      (node (ref J7) (pin 6)))
    (net (code 15) (name "Net-(IC1-Pad11)")
      (node (ref J7) (pin 5))
      (node (ref IC1) (pin 11)))
    (net (code 16) (name "Net-(IC1-Pad10)")
      (node (ref IC1) (pin 10))
      (node (ref J7) (pin 4)))
    (net (code 17) (name "Net-(IC1-Pad9)")
      (node (ref IC1) (pin 9))
      (node (ref J7) (pin 3)))
    (net (code 18) (name "Net-(IC1-Pad8)")
      (node (ref IC1) (pin 8))
      (node (ref J7) (pin 2)))
    (net (code 19) (name "Net-(IC1-Pad7)")
      (node (ref IC1) (pin 7))
      (node (ref J7) (pin 1)))
    (net (code 20) (name "Net-(IC1-Pad2)")
      (node (ref R1) (pin 2))
      (node (ref J3) (pin 1))
      (node (ref IC1) (pin 2)))
    (net (code 21) (name BOOT3)
      (node (ref C6) (pin 1))
      (node (ref IC1) (pin 13)))
    (net (code 22) (name "Net-(Q3-Pad4)")
      (node (ref R4) (pin 2))
      (node (ref Q3) (pin 4)))
    (net (code 23) (name "Net-(C2-Pad1)")
      (node (ref C2) (pin 1))
      (node (ref C4) (pin 1))
      (node (ref IC1) (pin 5)))
    (net (code 24) (name GHS1)
      (node (ref R4) (pin 1))
      (node (ref IC1) (pin 22)))
    (net (code 25) (name GLS1)
      (node (ref IC1) (pin 24))
      (node (ref R5) (pin 1)))
    (net (code 26) (name GHS2)
      (node (ref IC1) (pin 18))
      (node (ref R6) (pin 1)))
    (net (code 27) (name GLS2)
      (node (ref IC1) (pin 20))
      (node (ref R7) (pin 1)))
    (net (code 28) (name "Net-(Q5-Pad4)")
      (node (ref R6) (pin 2))
      (node (ref Q5) (pin 4)))
    (net (code 29) (name BOOT1)
      (node (ref IC1) (pin 21))
      (node (ref C7) (pin 1)))
    (net (code 30) (name "Net-(Q4-Pad4)")
      (node (ref Q4) (pin 4))
      (node (ref R5) (pin 2)))))