EESchema Schematic File Version 4
EELAYER 30 0
EELAYER END
$Descr A4 11693 8268
encoding utf-8
Sheet 1 1
Title ""
Date ""
Rev ""
Comp ""
Comment1 ""
Comment2 ""
Comment3 ""
Comment4 ""
$EndDescr
$Comp
L STDRIVE101:STDRIVE101 IC1
U 1 1 615BB90C
P 4350 2900
F 0 "IC1" H 5050 3050 50  0000 L CNN
F 1 "STDRIVE101" H 4850 2950 50  0000 L CNN
F 2 "STDRIVE101:QFN50P400X400X100-25N-D" H 5600 3400 50  0001 L CNN
F 3 "" H 5600 3300 50  0001 L CNN
F 4 "Gate Drivers Low voltage gate driver for driving three-phase brushless motors" H 5600 3200 50  0001 L CNN "Description"
F 5 "1" H 5600 3100 50  0001 L CNN "Height"
F 6 "511-STDRIVE101" H 5600 3000 50  0001 L CNN "Mouser Part Number"
F 7 "https://www.mouser.co.uk/ProductDetail/STMicroelectronics/STDRIVE101?qs=xZ%2FP%252Ba9zWqYdY88AYx%252Blxg%3D%3D" H 5600 2900 50  0001 L CNN "Mouser Price/Stock"
F 8 "STMicroelectronics" H 5600 2800 50  0001 L CNN "Manufacturer_Name"
F 9 "STDRIVE101" H 5600 2700 50  0001 L CNN "Manufacturer_Part_Number"
	1    4350 2900
	1    0    0    -1  
$EndComp
$Comp
L UUG1H102MNQ1ZD:UUG1H102MNQ1ZD C3
U 1 1 615BCC9C
P 2050 1500
F 0 "C3" V 2254 1630 50  0000 L CNN
F 1 "UUG1H102MNQ1ZD" V 2345 1630 50  0000 L CNN
F 2 "UUG1H102MNQ1ZD:CAPAE1910X2250N" H 2400 1550 50  0001 L CNN
F 3 "https://componentsearchengine.com/Datasheets/1/UUG1H102MNQ1ZD.pdf" H 2400 1450 50  0001 L CNN
F 4 "UUG1H102MNQ1ZD" H 2400 1350 50  0001 L CNN "Description"
F 5 "22.5" H 2400 1250 50  0001 L CNN "Height"
F 6 "647-UUG1H102MNQ1ZD" H 2400 1150 50  0001 L CNN "Mouser Part Number"
F 7 "https://www.mouser.com/Search/Refine.aspx?Keyword=647-UUG1H102MNQ1ZD" H 2400 1050 50  0001 L CNN "Mouser Price/Stock"
F 8 "Nichicon" H 2400 950 50  0001 L CNN "Manufacturer_Name"
F 9 "UUG1H102MNQ1ZD" H 2400 850 50  0001 L CNN "Manufacturer_Part_Number"
	1    2050 1500
	0    1    1    0   
$EndComp
$Comp
L UUG1H102MNQ1ZD:UUG1H102MNQ1ZD C5
U 1 1 615BD88E
P 3050 1500
F 0 "C5" V 3254 1630 50  0000 L CNN
F 1 "UUG1H102MNQ1ZD" V 3345 1630 50  0000 L CNN
F 2 "UUG1H102MNQ1ZD:CAPAE1910X2250N" H 3400 1550 50  0001 L CNN
F 3 "https://componentsearchengine.com/Datasheets/1/UUG1H102MNQ1ZD.pdf" H 3400 1450 50  0001 L CNN
F 4 "UUG1H102MNQ1ZD" H 3400 1350 50  0001 L CNN "Description"
F 5 "22.5" H 3400 1250 50  0001 L CNN "Height"
F 6 "647-UUG1H102MNQ1ZD" H 3400 1150 50  0001 L CNN "Mouser Part Number"
F 7 "https://www.mouser.com/Search/Refine.aspx?Keyword=647-UUG1H102MNQ1ZD" H 3400 1050 50  0001 L CNN "Mouser Price/Stock"
F 8 "Nichicon" H 3400 950 50  0001 L CNN "Manufacturer_Name"
F 9 "UUG1H102MNQ1ZD" H 3400 850 50  0001 L CNN "Manufacturer_Part_Number"
	1    3050 1500
	0    1    1    0   
$EndComp
$Comp
L power:+28V #PWR0101
U 1 1 615BE525
P 2050 1500
F 0 "#PWR0101" H 2050 1350 50  0001 C CNN
F 1 "+28V" H 2065 1673 50  0000 C CNN
F 2 "" H 2300 1550 50  0001 C CNN
F 3 "" H 2300 1550 50  0001 C CNN
	1    2050 1500
	1    0    0    -1  
$EndComp
$Comp
L power:+28V #PWR0102
U 1 1 615BE74D
P 3050 1500
F 0 "#PWR0102" H 3050 1350 50  0001 C CNN
F 1 "+28V" H 3065 1673 50  0000 C CNN
F 2 "" H 3300 1550 50  0001 C CNN
F 3 "" H 3300 1550 50  0001 C CNN
	1    3050 1500
	1    0    0    -1  
$EndComp
$Comp
L power:GND #PWR0103
U 1 1 615BEB20
P 2050 2000
F 0 "#PWR0103" H 2050 1750 50  0001 C CNN
F 1 "GND" H 2055 1827 50  0000 C CNN
F 2 "" H 2050 2000 50  0001 C CNN
F 3 "" H 2050 2000 50  0001 C CNN
	1    2050 2000
	1    0    0    -1  
$EndComp
$Comp
L power:GND #PWR0104
U 1 1 615BEE13
P 3050 2000
F 0 "#PWR0104" H 3050 1750 50  0001 C CNN
F 1 "GND" H 3055 1827 50  0000 C CNN
F 2 "" H 3050 2000 50  0001 C CNN
F 3 "" H 3050 2000 50  0001 C CNN
	1    3050 2000
	1    0    0    -1  
$EndComp
$Comp
L power:GND #PWR0105
U 1 1 615C0E2E
P 2950 3800
F 0 "#PWR0105" H 2950 3550 50  0001 C CNN
F 1 "GND" H 2955 3627 50  0000 C CNN
F 2 "" H 2950 3800 50  0001 C CNN
F 3 "" H 2950 3800 50  0001 C CNN
	1    2950 3800
	1    0    0    -1  
$EndComp
$Comp
L power:GND #PWR0106
U 1 1 615C2779
P 1950 3800
F 0 "#PWR0106" H 1950 3550 50  0001 C CNN
F 1 "GND" H 1955 3627 50  0000 C CNN
F 2 "" H 1950 3800 50  0001 C CNN
F 3 "" H 1950 3800 50  0001 C CNN
	1    1950 3800
	1    0    0    -1  
$EndComp
$Comp
L CL10B104KB8NNNC:CL10B104KB8NNNC C1
U 1 1 615C2DC8
P 850 3200
F 0 "C1" V 1054 3328 50  0000 L CNN
F 1 "CL10B104KB8NNNC" V 1145 3328 50  0000 L CNN
F 2 "CL10B104KB8NNNC:CAPC1608X90N" H 1200 3250 50  0001 L CNN
F 3 "http://www.samsungsem.com/kr/support/product-search/mlcc/CL10B104KB8NNNC.jsp" H 1200 3150 50  0001 L CNN
F 4 "Ceramic cap 0603 X7R 50V 100nF (Reel)" H 1200 3050 50  0001 L CNN "Description"
F 5 "0.9" H 1200 2950 50  0001 L CNN "Height"
F 6 "187-CL10B104KB8NNNC" H 1200 2850 50  0001 L CNN "Mouser Part Number"
F 7 "https://www.mouser.co.uk/ProductDetail/Samsung-Electro-Mechanics/CL10B104KB8NNNC?qs=349EhDEZ59rvGc2rLwVOdA%3D%3D" H 1200 2750 50  0001 L CNN "Mouser Price/Stock"
F 8 "Samsung Electro-Mechanics" H 1200 2650 50  0001 L CNN "Manufacturer_Name"
F 9 "CL10B104KB8NNNC" H 1200 2550 50  0001 L CNN "Manufacturer_Part_Number"
	1    850  3200
	0    1    1    0   
$EndComp
Wire Wire Line
	4350 3200 850  3200
$Comp
L power:GND #PWR0107
U 1 1 615CA47B
P 850 3700
F 0 "#PWR0107" H 850 3450 50  0001 C CNN
F 1 "GND" H 855 3527 50  0000 C CNN
F 2 "" H 850 3700 50  0001 C CNN
F 3 "" H 850 3700 50  0001 C CNN
	1    850  3700
	1    0    0    -1  
$EndComp
$Comp
L power:+28V #PWR0108
U 1 1 615CB0D0
P 850 3200
F 0 "#PWR0108" H 850 3050 50  0001 C CNN
F 1 "+28V" H 865 3373 50  0000 C CNN
F 2 "" H 1100 3250 50  0001 C CNN
F 3 "" H 1100 3250 50  0001 C CNN
	1    850  3200
	1    0    0    -1  
$EndComp
Connection ~ 850  3200
Wire Wire Line
	1950 3300 2950 3300
$Comp
L 885012207100:885012207100 C4
U 1 1 615CBA20
P 2950 3300
F 0 "C4" V 3154 3428 50  0000 L CNN
F 1 "885012207100" V 3245 3428 50  0000 L CNN
F 2 "885012207100:CAPC2012X135N" H 3300 3350 50  0001 L CNN
F 3 "https://katalog.we-online.com/pbs/datasheet/885012207100.pdf" H 3300 3250 50  0001 L CNN
F 4 "Multilayer Ceramic Chip Capacitor WCAP-CSGP Series 0805 220000pF X7R0805224K050DFCT10000" H 3300 3150 50  0001 L CNN "Description"
F 5 "1.35" H 3300 3050 50  0001 L CNN "Height"
F 6 "710-885012207100" H 3300 2950 50  0001 L CNN "Mouser Part Number"
F 7 "https://www.mouser.co.uk/ProductDetail/Wurth-Elektronik/885012207100?qs=0KOYDY2FL28gx73pQkeRCQ%3D%3D" H 3300 2850 50  0001 L CNN "Mouser Price/Stock"
F 8 "Wurth Elektronik" H 3300 2750 50  0001 L CNN "Manufacturer_Name"
F 9 "885012207100" H 3300 2650 50  0001 L CNN "Manufacturer_Part_Number"
	1    2950 3300
	0    1    1    0   
$EndComp
Connection ~ 2950 3300
Wire Wire Line
	2950 3300 4350 3300
$Comp
L CRCW0603200KFKEAC:CRCW0603200KFKEAC R1
U 1 1 615CCB2E
P 1950 3000
F 0 "R1" H 2300 3225 50  0000 C CNN
F 1 "CRCW0603200KFKEAC" H 2300 3134 50  0000 C CNN
F 2 "CRCW0603200KFKEAC:RESC1608X55N" H 2500 3050 50  0001 L CNN
F 3 "" H 2500 2950 50  0001 L CNN
F 4 "Thick Film Resistors - SMD 1/10Watt 200Kohms 1% Commercial Use" H 2500 2850 50  0001 L CNN "Description"
F 5 "0.55" H 2500 2750 50  0001 L CNN "Height"
F 6 "71-CRCW0603200KFKEAC" H 2500 2650 50  0001 L CNN "Mouser Part Number"
F 7 "https://www.mouser.co.uk/ProductDetail/Vishay-Dale/CRCW0603200KFKEAC?qs=E3Y5ESvWgWMPi4tlnnzi9Q%3D%3D" H 2500 2550 50  0001 L CNN "Mouser Price/Stock"
F 8 "Vishay" H 2500 2450 50  0001 L CNN "Manufacturer_Name"
F 9 "CRCW0603200KFKEAC" H 2500 2350 50  0001 L CNN "Manufacturer_Part_Number"
	1    1950 3000
	1    0    0    -1  
$EndComp
Wire Wire Line
	4350 3000 3200 3000
$Comp
L power:GND #PWR0109
U 1 1 615CD4BE
P 1950 3000
F 0 "#PWR0109" H 1950 2750 50  0001 C CNN
F 1 "GND" H 1955 2827 50  0000 C CNN
F 2 "" H 1950 3000 50  0001 C CNN
F 3 "" H 1950 3000 50  0001 C CNN
	1    1950 3000
	1    0    0    -1  
$EndComp
$Comp
L C3216X5R1V226M160AC:C3216X5R1V226M160AC C2
U 1 1 615CFC02
P 1950 3300
F 0 "C2" V 2650 3050 50  0000 L CNN
F 1 "C3216X5R1V226M160AC" V 2750 2800 50  0000 L CNN
F 2 "C3216X5R1V226M160AC:C3216_Commercial" H 2300 3350 50  0001 L CNN
F 3 "https://product.tdk.com/system/files/dam/doc/product/capacitor/ceramic/mlcc/catalog/mlcc_commercial_general_en.pdf" H 2300 3250 50  0001 L CNN
F 4 "MULTILAYER CERAMIC CHIP CAPACITORS, 3216, Commercial grade, general (Up to 75V)" H 2300 3150 50  0001 L CNN "Description"
F 5 "0.75" H 2300 3050 50  0001 L CNN "Height"
F 6 "810-C3216X5R1V226M" H 2300 2950 50  0001 L CNN "Mouser Part Number"
F 7 "https://www.mouser.co.uk/ProductDetail/TDK/C3216X5R1V226M160AC?qs=NRhsANhppD8TwN31eZ1xGQ%3D%3D" H 2300 2850 50  0001 L CNN "Mouser Price/Stock"
F 8 "TDK" H 2300 2750 50  0001 L CNN "Manufacturer_Name"
F 9 "C3216X5R1V226M160AC" H 2300 2650 50  0001 L CNN "Manufacturer_Part_Number"
	1    1950 3300
	0    1    1    0   
$EndComp
$Comp
L ESR03EZPJ220:ESR03EZPJ220 R5
U 1 1 615D1651
P 7400 2400
F 0 "R5" H 7750 2625 50  0000 C CNN
F 1 "ESR03EZPJ220" H 7750 2534 50  0000 C CNN
F 2 "ESR03EZPJ220:RESC1608X55N" H 7950 2450 50  0001 L CNN
F 3 "https://componentsearchengine.com/Datasheets/2/ESR03EZPJ220.pdf" H 7950 2350 50  0001 L CNN
F 4 "ROHM - ESR03EZPJ220 - RES, AEC-Q200, THICK FILM, 22R, 5%, 0603" H 7950 2250 50  0001 L CNN "Description"
F 5 "0.55" H 7950 2150 50  0001 L CNN "Height"
F 6 "755-ESR03EZPJ220" H 7950 2050 50  0001 L CNN "Mouser Part Number"
F 7 "https://www.mouser.co.uk/ProductDetail/ROHM-Semiconductor/ESR03EZPJ220?qs=DyUWGjl%252BcVu91Z0We5GZng%3D%3D" H 7950 1950 50  0001 L CNN "Mouser Price/Stock"
F 8 "ROHM Semiconductor" H 7950 1850 50  0001 L CNN "Manufacturer_Name"
F 9 "ESR03EZPJ220" H 7950 1750 50  0001 L CNN "Manufacturer_Part_Number"
	1    7400 2400
	1    0    0    -1  
$EndComp
$Comp
L ESR03EZPJ220:ESR03EZPJ220 R4
U 1 1 615D1D29
P 7400 1350
F 0 "R4" H 7750 1575 50  0000 C CNN
F 1 "ESR03EZPJ220" H 7750 1484 50  0000 C CNN
F 2 "ESR03EZPJ220:RESC1608X55N" H 7950 1400 50  0001 L CNN
F 3 "https://componentsearchengine.com/Datasheets/2/ESR03EZPJ220.pdf" H 7950 1300 50  0001 L CNN
F 4 "ROHM - ESR03EZPJ220 - RES, AEC-Q200, THICK FILM, 22R, 5%, 0603" H 7950 1200 50  0001 L CNN "Description"
F 5 "0.55" H 7950 1100 50  0001 L CNN "Height"
F 6 "755-ESR03EZPJ220" H 7950 1000 50  0001 L CNN "Mouser Part Number"
F 7 "https://www.mouser.co.uk/ProductDetail/ROHM-Semiconductor/ESR03EZPJ220?qs=DyUWGjl%252BcVu91Z0We5GZng%3D%3D" H 7950 900 50  0001 L CNN "Mouser Price/Stock"
F 8 "ROHM Semiconductor" H 7950 800 50  0001 L CNN "Manufacturer_Name"
F 9 "ESR03EZPJ220" H 7950 700 50  0001 L CNN "Manufacturer_Part_Number"
	1    7400 1350
	1    0    0    -1  
$EndComp
Text GLabel 4850 2200 1    50   Input ~ 0
GLS1
Text GLabel 5050 2200 1    50   Input ~ 0
GHS1
Text GLabel 5250 2200 1    50   Input ~ 0
GLS2
Text GLabel 5750 2900 2    50   Input ~ 0
GHS2
Text GLabel 5750 3100 2    50   Input ~ 0
GLS3
Text GLabel 5750 3300 2    50   Input ~ 0
GHS3
Text GLabel 7400 2400 0    50   Input ~ 0
GLS1
Text GLabel 7400 1350 0    50   Input ~ 0
GHS1
$Comp
L SIR500DP-T1-RE3:SIR500DP-T1-RE3 Q3
U 1 1 615FB9BF
P 8750 1050
F 0 "Q3" H 9250 1315 50  0000 C CNN
F 1 "SIR500DP-T1-RE3" H 9250 1224 50  0000 C CNN
F 2 "SIR500DP-T1-RE3:SIR500DPT1RE3" H 9600 1150 50  0001 L CNN
F 3 "https://www.vishay.com/docs/66840/sir500dp.pdf" H 9600 1050 50  0001 L CNN
F 4 "MOSFET N-CHANNEL 30-V (D-S)" H 9600 950 50  0001 L CNN "Description"
F 5 "1.17" H 9600 850 50  0001 L CNN "Height"
F 6 "78-SIR500DP-T1-RE3" H 9600 750 50  0001 L CNN "Mouser Part Number"
F 7 "https://www.mouser.co.uk/ProductDetail/Vishay-Siliconix/SIR500DP-T1-RE3?qs=CiayqK2gdcKgJcjAZin73w%3D%3D" H 9600 650 50  0001 L CNN "Mouser Price/Stock"
F 8 "Vishay" H 9600 550 50  0001 L CNN "Manufacturer_Name"
F 9 "SIR500DP-T1-RE3" H 9600 450 50  0001 L CNN "Manufacturer_Part_Number"
	1    8750 1050
	1    0    0    -1  
$EndComp
Wire Wire Line
	8100 1350 8750 1350
$Comp
L power:+28V #PWR0110
U 1 1 616273EB
P 10250 1050
F 0 "#PWR0110" H 10250 900 50  0001 C CNN
F 1 "+28V" H 10265 1223 50  0000 C CNN
F 2 "" H 10500 1100 50  0001 C CNN
F 3 "" H 10500 1100 50  0001 C CNN
	1    10250 1050
	1    0    0    -1  
$EndComp
Wire Wire Line
	8550 1050 8750 1050
Wire Wire Line
	8750 1250 8750 1150
Connection ~ 8750 1050
Connection ~ 8750 1150
Wire Wire Line
	8750 1150 8750 1050
Wire Wire Line
	8750 1450 8750 1550
Wire Wire Line
	8750 1550 8750 1700
Wire Wire Line
	8750 1700 9750 1700
Wire Wire Line
	9750 1700 9750 1450
Connection ~ 8750 1550
Wire Wire Line
	9750 1450 9750 1350
Connection ~ 9750 1450
Wire Wire Line
	9750 1250 9750 1350
Connection ~ 9750 1350
Wire Wire Line
	9750 1250 9750 1150
Connection ~ 9750 1250
Wire Wire Line
	9750 1150 9750 1050
Connection ~ 9750 1150
Text GLabel 8550 1050 0    50   Input ~ 0
MOTOR_U
Wire Wire Line
	9750 1050 10250 1050
Connection ~ 9750 1050
$Comp
L SIR500DP-T1-RE3:SIR500DP-T1-RE3 Q4
U 1 1 616380EC
P 8750 2100
F 0 "Q4" H 9250 2365 50  0000 C CNN
F 1 "SIR500DP-T1-RE3" H 9250 2274 50  0000 C CNN
F 2 "SIR500DP-T1-RE3:SIR500DPT1RE3" H 9600 2200 50  0001 L CNN
F 3 "https://www.vishay.com/docs/66840/sir500dp.pdf" H 9600 2100 50  0001 L CNN
F 4 "MOSFET N-CHANNEL 30-V (D-S)" H 9600 2000 50  0001 L CNN "Description"
F 5 "1.17" H 9600 1900 50  0001 L CNN "Height"
F 6 "78-SIR500DP-T1-RE3" H 9600 1800 50  0001 L CNN "Mouser Part Number"
F 7 "https://www.mouser.co.uk/ProductDetail/Vishay-Siliconix/SIR500DP-T1-RE3?qs=CiayqK2gdcKgJcjAZin73w%3D%3D" H 9600 1700 50  0001 L CNN "Mouser Price/Stock"
F 8 "Vishay" H 9600 1600 50  0001 L CNN "Manufacturer_Name"
F 9 "SIR500DP-T1-RE3" H 9600 1500 50  0001 L CNN "Manufacturer_Part_Number"
	1    8750 2100
	1    0    0    -1  
$EndComp
Wire Wire Line
	8100 2400 8750 2400
Text GLabel 10250 2100 2    50   Input ~ 0
MOTOR_U
Wire Wire Line
	8400 2100 8750 2100
Wire Wire Line
	8750 2100 8750 2200
Connection ~ 8750 2100
Wire Wire Line
	8750 2200 8750 2300
Connection ~ 8750 2200
$Comp
L power:GND #PWR0111
U 1 1 6164585E
P 8400 2100
F 0 "#PWR0111" H 8400 1850 50  0001 C CNN
F 1 "GND" H 8405 1927 50  0000 C CNN
F 2 "" H 8400 2100 50  0001 C CNN
F 3 "" H 8400 2100 50  0001 C CNN
	1    8400 2100
	1    0    0    -1  
$EndComp
Wire Wire Line
	8750 2500 8750 2600
Wire Wire Line
	8750 2600 8750 2750
Wire Wire Line
	8750 2750 9750 2750
Wire Wire Line
	9750 2750 9750 2500
Connection ~ 8750 2600
Wire Wire Line
	9750 2500 9750 2400
Connection ~ 9750 2500
Wire Wire Line
	9750 2400 9750 2300
Connection ~ 9750 2400
Wire Wire Line
	9750 2300 9750 2200
Connection ~ 9750 2300
Wire Wire Line
	9750 2200 9750 2100
Connection ~ 9750 2200
Wire Wire Line
	9750 2100 10250 2100
Connection ~ 9750 2100
$Comp
L GRM188R6YA225MA12D:GRM188R6YA225MA12D C7
U 1 1 6164C4A2
P 8100 850
F 0 "C7" H 8050 1100 50  0000 C CNN
F 1 "GRM188R6YA225MA12D" H 8050 1000 50  0000 C CNN
F 2 "GRM188R6YA225MA12D:CAPC1608X90N" H 8450 900 50  0001 L CNN
F 3 "http://componentsearchengine.com/Datasheets/1/GRM188R6YA225MA12D.pdf" H 8450 800 50  0001 L CNN
F 4 "Multilayer Ceramic Capacitors MLCC - SMD/SMT 0603 2.2uF 35volts *Derate Voltage/Temp" H 8450 700 50  0001 L CNN "Description"
F 5 "0.9" H 8450 600 50  0001 L CNN "Height"
F 6 "81-GRM188R6YA225MA2D" H 8450 500 50  0001 L CNN "Mouser Part Number"
F 7 "https://www.mouser.co.uk/ProductDetail/Murata-Electronics/GRM188R6YA225MA12D?qs=eeBpzGFlv%252B%2FmnWIdXKs6Gw%3D%3D" H 8450 400 50  0001 L CNN "Mouser Price/Stock"
F 8 "Murata Electronics" H 8450 300 50  0001 L CNN "Manufacturer_Name"
F 9 "GRM188R6YA225MA12D" H 8450 200 50  0001 L CNN "Manufacturer_Part_Number"
	1    8100 850 
	1    0    0    -1  
$EndComp
Text GLabel 4950 2200 1    50   Input ~ 0
OUT1
Text GLabel 5150 2200 1    50   Input ~ 0
BOOT1
Text GLabel 5350 2200 1    50   Input ~ 0
OUT2
Text GLabel 5750 3000 2    50   Input ~ 0
BOOT2
Text GLabel 5750 3200 2    50   Input ~ 0
OUT3
Text GLabel 5750 3400 2    50   Input ~ 0
BOOT3
Text GLabel 8750 800  1    50   Input ~ 0
OUT1
Text GLabel 8100 850  0    50   Input ~ 0
BOOT1
Wire Wire Line
	8750 1050 8750 850 
Wire Wire Line
	8600 850  8750 850 
Connection ~ 8750 850 
Wire Wire Line
	8750 850  8750 800 
$Comp
L ESR03EZPJ220:ESR03EZPJ220 R7
U 1 1 61663703
P 7400 4700
F 0 "R7" H 7750 4925 50  0000 C CNN
F 1 "ESR03EZPJ220" H 7750 4834 50  0000 C CNN
F 2 "ESR03EZPJ220:RESC1608X55N" H 7950 4750 50  0001 L CNN
F 3 "https://componentsearchengine.com/Datasheets/2/ESR03EZPJ220.pdf" H 7950 4650 50  0001 L CNN
F 4 "ROHM - ESR03EZPJ220 - RES, AEC-Q200, THICK FILM, 22R, 5%, 0603" H 7950 4550 50  0001 L CNN "Description"
F 5 "0.55" H 7950 4450 50  0001 L CNN "Height"
F 6 "755-ESR03EZPJ220" H 7950 4350 50  0001 L CNN "Mouser Part Number"
F 7 "https://www.mouser.co.uk/ProductDetail/ROHM-Semiconductor/ESR03EZPJ220?qs=DyUWGjl%252BcVu91Z0We5GZng%3D%3D" H 7950 4250 50  0001 L CNN "Mouser Price/Stock"
F 8 "ROHM Semiconductor" H 7950 4150 50  0001 L CNN "Manufacturer_Name"
F 9 "ESR03EZPJ220" H 7950 4050 50  0001 L CNN "Manufacturer_Part_Number"
	1    7400 4700
	1    0    0    -1  
$EndComp
$Comp
L ESR03EZPJ220:ESR03EZPJ220 R6
U 1 1 616638F1
P 7400 3650
F 0 "R6" H 7750 3875 50  0000 C CNN
F 1 "ESR03EZPJ220" H 7750 3784 50  0000 C CNN
F 2 "ESR03EZPJ220:RESC1608X55N" H 7950 3700 50  0001 L CNN
F 3 "https://componentsearchengine.com/Datasheets/2/ESR03EZPJ220.pdf" H 7950 3600 50  0001 L CNN
F 4 "ROHM - ESR03EZPJ220 - RES, AEC-Q200, THICK FILM, 22R, 5%, 0603" H 7950 3500 50  0001 L CNN "Description"
F 5 "0.55" H 7950 3400 50  0001 L CNN "Height"
F 6 "755-ESR03EZPJ220" H 7950 3300 50  0001 L CNN "Mouser Part Number"
F 7 "https://www.mouser.co.uk/ProductDetail/ROHM-Semiconductor/ESR03EZPJ220?qs=DyUWGjl%252BcVu91Z0We5GZng%3D%3D" H 7950 3200 50  0001 L CNN "Mouser Price/Stock"
F 8 "ROHM Semiconductor" H 7950 3100 50  0001 L CNN "Manufacturer_Name"
F 9 "ESR03EZPJ220" H 7950 3000 50  0001 L CNN "Manufacturer_Part_Number"
	1    7400 3650
	1    0    0    -1  
$EndComp
Text GLabel 7400 4700 0    50   Input ~ 0
GLS2
Text GLabel 7400 3650 0    50   Input ~ 0
GHS2
$Comp
L SIR500DP-T1-RE3:SIR500DP-T1-RE3 Q5
U 1 1 61663903
P 8750 3350
F 0 "Q5" H 9250 3615 50  0000 C CNN
F 1 "SIR500DP-T1-RE3" H 9250 3524 50  0000 C CNN
F 2 "SIR500DP-T1-RE3:SIR500DPT1RE3" H 9600 3450 50  0001 L CNN
F 3 "https://www.vishay.com/docs/66840/sir500dp.pdf" H 9600 3350 50  0001 L CNN
F 4 "MOSFET N-CHANNEL 30-V (D-S)" H 9600 3250 50  0001 L CNN "Description"
F 5 "1.17" H 9600 3150 50  0001 L CNN "Height"
F 6 "78-SIR500DP-T1-RE3" H 9600 3050 50  0001 L CNN "Mouser Part Number"
F 7 "https://www.mouser.co.uk/ProductDetail/Vishay-Siliconix/SIR500DP-T1-RE3?qs=CiayqK2gdcKgJcjAZin73w%3D%3D" H 9600 2950 50  0001 L CNN "Mouser Price/Stock"
F 8 "Vishay" H 9600 2850 50  0001 L CNN "Manufacturer_Name"
F 9 "SIR500DP-T1-RE3" H 9600 2750 50  0001 L CNN "Manufacturer_Part_Number"
	1    8750 3350
	1    0    0    -1  
$EndComp
Wire Wire Line
	8100 3650 8750 3650
$Comp
L power:+28V #PWR0112
U 1 1 6166390E
P 10250 3350
F 0 "#PWR0112" H 10250 3200 50  0001 C CNN
F 1 "+28V" H 10265 3523 50  0000 C CNN
F 2 "" H 10500 3400 50  0001 C CNN
F 3 "" H 10500 3400 50  0001 C CNN
	1    10250 3350
	1    0    0    -1  
$EndComp
Wire Wire Line
	8550 3350 8750 3350
Wire Wire Line
	8750 3550 8750 3450
Connection ~ 8750 3350
Connection ~ 8750 3450
Wire Wire Line
	8750 3450 8750 3350
Wire Wire Line
	8750 3750 8750 3850
Wire Wire Line
	8750 3850 8750 4000
Wire Wire Line
	8750 4000 9750 4000
Wire Wire Line
	9750 4000 9750 3750
Connection ~ 8750 3850
Wire Wire Line
	9750 3750 9750 3650
Connection ~ 9750 3750
Wire Wire Line
	9750 3550 9750 3650
Connection ~ 9750 3650
Wire Wire Line
	9750 3550 9750 3450
Connection ~ 9750 3550
Wire Wire Line
	9750 3450 9750 3350
Connection ~ 9750 3450
Text GLabel 8550 3350 0    50   Input ~ 0
MOTOR_V
Wire Wire Line
	9750 3350 10250 3350
Connection ~ 9750 3350
$Comp
L SIR500DP-T1-RE3:SIR500DP-T1-RE3 Q6
U 1 1 61663933
P 8750 4400
F 0 "Q6" H 9250 4665 50  0000 C CNN
F 1 "SIR500DP-T1-RE3" H 9250 4574 50  0000 C CNN
F 2 "SIR500DP-T1-RE3:SIR500DPT1RE3" H 9600 4500 50  0001 L CNN
F 3 "https://www.vishay.com/docs/66840/sir500dp.pdf" H 9600 4400 50  0001 L CNN
F 4 "MOSFET N-CHANNEL 30-V (D-S)" H 9600 4300 50  0001 L CNN "Description"
F 5 "1.17" H 9600 4200 50  0001 L CNN "Height"
F 6 "78-SIR500DP-T1-RE3" H 9600 4100 50  0001 L CNN "Mouser Part Number"
F 7 "https://www.mouser.co.uk/ProductDetail/Vishay-Siliconix/SIR500DP-T1-RE3?qs=CiayqK2gdcKgJcjAZin73w%3D%3D" H 9600 4000 50  0001 L CNN "Mouser Price/Stock"
F 8 "Vishay" H 9600 3900 50  0001 L CNN "Manufacturer_Name"
F 9 "SIR500DP-T1-RE3" H 9600 3800 50  0001 L CNN "Manufacturer_Part_Number"
	1    8750 4400
	1    0    0    -1  
$EndComp
Wire Wire Line
	8100 4700 8750 4700
Text GLabel 10250 4400 2    50   Input ~ 0
MOTOR_V
Wire Wire Line
	8400 4400 8750 4400
Wire Wire Line
	8750 4400 8750 4500
Connection ~ 8750 4400
Wire Wire Line
	8750 4500 8750 4600
Connection ~ 8750 4500
$Comp
L power:GND #PWR0113
U 1 1 61663944
P 8400 4400
F 0 "#PWR0113" H 8400 4150 50  0001 C CNN
F 1 "GND" H 8405 4227 50  0000 C CNN
F 2 "" H 8400 4400 50  0001 C CNN
F 3 "" H 8400 4400 50  0001 C CNN
	1    8400 4400
	1    0    0    -1  
$EndComp
Wire Wire Line
	8750 4800 8750 4900
Wire Wire Line
	8750 4900 8750 5050
Wire Wire Line
	8750 5050 9750 5050
Wire Wire Line
	9750 5050 9750 4800
Connection ~ 8750 4900
Wire Wire Line
	9750 4800 9750 4700
Connection ~ 9750 4800
Wire Wire Line
	9750 4700 9750 4600
Connection ~ 9750 4700
Wire Wire Line
	9750 4600 9750 4500
Connection ~ 9750 4600
Wire Wire Line
	9750 4500 9750 4400
Connection ~ 9750 4500
Wire Wire Line
	9750 4400 10250 4400
Connection ~ 9750 4400
$Comp
L GRM188R6YA225MA12D:GRM188R6YA225MA12D C8
U 1 1 61663963
P 8100 3150
F 0 "C8" H 8050 3400 50  0000 C CNN
F 1 "GRM188R6YA225MA12D" H 8050 3300 50  0000 C CNN
F 2 "GRM188R6YA225MA12D:CAPC1608X90N" H 8450 3200 50  0001 L CNN
F 3 "http://componentsearchengine.com/Datasheets/1/GRM188R6YA225MA12D.pdf" H 8450 3100 50  0001 L CNN
F 4 "Multilayer Ceramic Capacitors MLCC - SMD/SMT 0603 2.2uF 35volts *Derate Voltage/Temp" H 8450 3000 50  0001 L CNN "Description"
F 5 "0.9" H 8450 2900 50  0001 L CNN "Height"
F 6 "81-GRM188R6YA225MA2D" H 8450 2800 50  0001 L CNN "Mouser Part Number"
F 7 "https://www.mouser.co.uk/ProductDetail/Murata-Electronics/GRM188R6YA225MA12D?qs=eeBpzGFlv%252B%2FmnWIdXKs6Gw%3D%3D" H 8450 2700 50  0001 L CNN "Mouser Price/Stock"
F 8 "Murata Electronics" H 8450 2600 50  0001 L CNN "Manufacturer_Name"
F 9 "GRM188R6YA225MA12D" H 8450 2500 50  0001 L CNN "Manufacturer_Part_Number"
	1    8100 3150
	1    0    0    -1  
$EndComp
Text GLabel 8750 3100 1    50   Input ~ 0
OUT2
Text GLabel 8100 3150 0    50   Input ~ 0
BOOT2
Wire Wire Line
	8750 3350 8750 3150
Wire Wire Line
	8600 3150 8750 3150
Connection ~ 8750 3150
Wire Wire Line
	8750 3150 8750 3100
$Comp
L ESR03EZPJ220:ESR03EZPJ220 R3
U 1 1 6167AB7D
P 3600 7050
F 0 "R3" H 3950 7275 50  0000 C CNN
F 1 "ESR03EZPJ220" H 3950 7184 50  0000 C CNN
F 2 "ESR03EZPJ220:RESC1608X55N" H 4150 7100 50  0001 L CNN
F 3 "https://componentsearchengine.com/Datasheets/2/ESR03EZPJ220.pdf" H 4150 7000 50  0001 L CNN
F 4 "ROHM - ESR03EZPJ220 - RES, AEC-Q200, THICK FILM, 22R, 5%, 0603" H 4150 6900 50  0001 L CNN "Description"
F 5 "0.55" H 4150 6800 50  0001 L CNN "Height"
F 6 "755-ESR03EZPJ220" H 4150 6700 50  0001 L CNN "Mouser Part Number"
F 7 "https://www.mouser.co.uk/ProductDetail/ROHM-Semiconductor/ESR03EZPJ220?qs=DyUWGjl%252BcVu91Z0We5GZng%3D%3D" H 4150 6600 50  0001 L CNN "Mouser Price/Stock"
F 8 "ROHM Semiconductor" H 4150 6500 50  0001 L CNN "Manufacturer_Name"
F 9 "ESR03EZPJ220" H 4150 6400 50  0001 L CNN "Manufacturer_Part_Number"
	1    3600 7050
	1    0    0    -1  
$EndComp
$Comp
L ESR03EZPJ220:ESR03EZPJ220 R2
U 1 1 6167AE01
P 3600 6000
F 0 "R2" H 3950 6225 50  0000 C CNN
F 1 "ESR03EZPJ220" H 3950 6134 50  0000 C CNN
F 2 "ESR03EZPJ220:RESC1608X55N" H 4150 6050 50  0001 L CNN
F 3 "https://componentsearchengine.com/Datasheets/2/ESR03EZPJ220.pdf" H 4150 5950 50  0001 L CNN
F 4 "ROHM - ESR03EZPJ220 - RES, AEC-Q200, THICK FILM, 22R, 5%, 0603" H 4150 5850 50  0001 L CNN "Description"
F 5 "0.55" H 4150 5750 50  0001 L CNN "Height"
F 6 "755-ESR03EZPJ220" H 4150 5650 50  0001 L CNN "Mouser Part Number"
F 7 "https://www.mouser.co.uk/ProductDetail/ROHM-Semiconductor/ESR03EZPJ220?qs=DyUWGjl%252BcVu91Z0We5GZng%3D%3D" H 4150 5550 50  0001 L CNN "Mouser Price/Stock"
F 8 "ROHM Semiconductor" H 4150 5450 50  0001 L CNN "Manufacturer_Name"
F 9 "ESR03EZPJ220" H 4150 5350 50  0001 L CNN "Manufacturer_Part_Number"
	1    3600 6000
	1    0    0    -1  
$EndComp
Text GLabel 3600 7050 0    50   Input ~ 0
GLS3
Text GLabel 3600 6000 0    50   Input ~ 0
GHS3
$Comp
L SIR500DP-T1-RE3:SIR500DP-T1-RE3 Q1
U 1 1 6167AE13
P 4950 5700
F 0 "Q1" H 5450 5965 50  0000 C CNN
F 1 "SIR500DP-T1-RE3" H 5450 5874 50  0000 C CNN
F 2 "SIR500DP-T1-RE3:SIR500DPT1RE3" H 5800 5800 50  0001 L CNN
F 3 "https://www.vishay.com/docs/66840/sir500dp.pdf" H 5800 5700 50  0001 L CNN
F 4 "MOSFET N-CHANNEL 30-V (D-S)" H 5800 5600 50  0001 L CNN "Description"
F 5 "1.17" H 5800 5500 50  0001 L CNN "Height"
F 6 "78-SIR500DP-T1-RE3" H 5800 5400 50  0001 L CNN "Mouser Part Number"
F 7 "https://www.mouser.co.uk/ProductDetail/Vishay-Siliconix/SIR500DP-T1-RE3?qs=CiayqK2gdcKgJcjAZin73w%3D%3D" H 5800 5300 50  0001 L CNN "Mouser Price/Stock"
F 8 "Vishay" H 5800 5200 50  0001 L CNN "Manufacturer_Name"
F 9 "SIR500DP-T1-RE3" H 5800 5100 50  0001 L CNN "Manufacturer_Part_Number"
	1    4950 5700
	1    0    0    -1  
$EndComp
Wire Wire Line
	4300 6000 4950 6000
$Comp
L power:+28V #PWR0114
U 1 1 6167AE1E
P 6450 5700
F 0 "#PWR0114" H 6450 5550 50  0001 C CNN
F 1 "+28V" H 6465 5873 50  0000 C CNN
F 2 "" H 6700 5750 50  0001 C CNN
F 3 "" H 6700 5750 50  0001 C CNN
	1    6450 5700
	1    0    0    -1  
$EndComp
Wire Wire Line
	4750 5700 4950 5700
Wire Wire Line
	4950 5900 4950 5800
Connection ~ 4950 5700
Connection ~ 4950 5800
Wire Wire Line
	4950 5800 4950 5700
Wire Wire Line
	4950 6100 4950 6200
Wire Wire Line
	4950 6200 4950 6350
Wire Wire Line
	4950 6350 5950 6350
Wire Wire Line
	5950 6350 5950 6100
Connection ~ 4950 6200
Wire Wire Line
	5950 6100 5950 6000
Connection ~ 5950 6100
Wire Wire Line
	5950 5900 5950 6000
Connection ~ 5950 6000
Wire Wire Line
	5950 5900 5950 5800
Connection ~ 5950 5900
Wire Wire Line
	5950 5800 5950 5700
Connection ~ 5950 5800
Text GLabel 4750 5700 0    50   Input ~ 0
MOTOR_W
Wire Wire Line
	5950 5700 6450 5700
Connection ~ 5950 5700
$Comp
L SIR500DP-T1-RE3:SIR500DP-T1-RE3 Q2
U 1 1 6167AE43
P 4950 6750
F 0 "Q2" H 5450 7015 50  0000 C CNN
F 1 "SIR500DP-T1-RE3" H 5450 6924 50  0000 C CNN
F 2 "SIR500DP-T1-RE3:SIR500DPT1RE3" H 5800 6850 50  0001 L CNN
F 3 "https://www.vishay.com/docs/66840/sir500dp.pdf" H 5800 6750 50  0001 L CNN
F 4 "MOSFET N-CHANNEL 30-V (D-S)" H 5800 6650 50  0001 L CNN "Description"
F 5 "1.17" H 5800 6550 50  0001 L CNN "Height"
F 6 "78-SIR500DP-T1-RE3" H 5800 6450 50  0001 L CNN "Mouser Part Number"
F 7 "https://www.mouser.co.uk/ProductDetail/Vishay-Siliconix/SIR500DP-T1-RE3?qs=CiayqK2gdcKgJcjAZin73w%3D%3D" H 5800 6350 50  0001 L CNN "Mouser Price/Stock"
F 8 "Vishay" H 5800 6250 50  0001 L CNN "Manufacturer_Name"
F 9 "SIR500DP-T1-RE3" H 5800 6150 50  0001 L CNN "Manufacturer_Part_Number"
	1    4950 6750
	1    0    0    -1  
$EndComp
Wire Wire Line
	4300 7050 4950 7050
Text GLabel 6450 6750 2    50   Input ~ 0
MOTOR_W
Wire Wire Line
	4600 6750 4950 6750
Wire Wire Line
	4950 6750 4950 6850
Connection ~ 4950 6750
Wire Wire Line
	4950 6850 4950 6950
Connection ~ 4950 6850
$Comp
L power:GND #PWR0115
U 1 1 6167AE54
P 4600 6750
F 0 "#PWR0115" H 4600 6500 50  0001 C CNN
F 1 "GND" H 4605 6577 50  0000 C CNN
F 2 "" H 4600 6750 50  0001 C CNN
F 3 "" H 4600 6750 50  0001 C CNN
	1    4600 6750
	1    0    0    -1  
$EndComp
Wire Wire Line
	4950 7150 4950 7250
Wire Wire Line
	4950 7250 4950 7400
Wire Wire Line
	4950 7400 5950 7400
Wire Wire Line
	5950 7400 5950 7150
Connection ~ 4950 7250
Wire Wire Line
	5950 7150 5950 7050
Connection ~ 5950 7150
Wire Wire Line
	5950 7050 5950 6950
Connection ~ 5950 7050
Wire Wire Line
	5950 6950 5950 6850
Connection ~ 5950 6950
Wire Wire Line
	5950 6850 5950 6750
Connection ~ 5950 6850
Wire Wire Line
	5950 6750 6450 6750
Connection ~ 5950 6750
$Comp
L GRM188R6YA225MA12D:GRM188R6YA225MA12D C6
U 1 1 6167AE73
P 4300 5500
F 0 "C6" H 4250 5750 50  0000 C CNN
F 1 "GRM188R6YA225MA12D" H 4250 5650 50  0000 C CNN
F 2 "GRM188R6YA225MA12D:CAPC1608X90N" H 4650 5550 50  0001 L CNN
F 3 "http://componentsearchengine.com/Datasheets/1/GRM188R6YA225MA12D.pdf" H 4650 5450 50  0001 L CNN
F 4 "Multilayer Ceramic Capacitors MLCC - SMD/SMT 0603 2.2uF 35volts *Derate Voltage/Temp" H 4650 5350 50  0001 L CNN "Description"
F 5 "0.9" H 4650 5250 50  0001 L CNN "Height"
F 6 "81-GRM188R6YA225MA2D" H 4650 5150 50  0001 L CNN "Mouser Part Number"
F 7 "https://www.mouser.co.uk/ProductDetail/Murata-Electronics/GRM188R6YA225MA12D?qs=eeBpzGFlv%252B%2FmnWIdXKs6Gw%3D%3D" H 4650 5050 50  0001 L CNN "Mouser Price/Stock"
F 8 "Murata Electronics" H 4650 4950 50  0001 L CNN "Manufacturer_Name"
F 9 "GRM188R6YA225MA12D" H 4650 4850 50  0001 L CNN "Manufacturer_Part_Number"
	1    4300 5500
	1    0    0    -1  
$EndComp
Text GLabel 4950 5450 1    50   Input ~ 0
OUT3
Text GLabel 4300 5500 0    50   Input ~ 0
BOOT3
Wire Wire Line
	4950 5700 4950 5500
Wire Wire Line
	4800 5500 4950 5500
Connection ~ 4950 5500
Wire Wire Line
	4950 5500 4950 5450
$Comp
L power:GND #PWR0116
U 1 1 616944B3
P 4750 2200
F 0 "#PWR0116" H 4750 1950 50  0001 C CNN
F 1 "GND" H 4900 2100 50  0000 C CNN
F 2 "" H 4750 2200 50  0001 C CNN
F 3 "" H 4750 2200 50  0001 C CNN
	1    4750 2200
	-1   0    0    1   
$EndComp
$Comp
L power:GND #PWR0117
U 1 1 61696BD9
P 3800 2900
F 0 "#PWR0117" H 3800 2650 50  0001 C CNN
F 1 "GND" V 3805 2772 50  0000 R CNN
F 2 "" H 3800 2900 50  0001 C CNN
F 3 "" H 3800 2900 50  0001 C CNN
	1    3800 2900
	-1   0    0    1   
$EndComp
Wire Wire Line
	4750 4200 4750 4550
Wire Wire Line
	4850 4200 4850 4550
Wire Wire Line
	4950 4200 4950 4550
Wire Wire Line
	5050 4200 5050 4550
Wire Wire Line
	5150 4200 5150 4550
Wire Wire Line
	5250 4200 5250 4550
$Comp
L Connector:Conn_01x01_Male J4
U 1 1 616B004C
P 3900 3100
F 0 "J4" H 4008 3281 50  0000 C CNN
F 1 "Conn_01x01_Male" H 4008 3190 50  0000 C CNN
F 2 "Connector_PinHeader_2.54mm:PinHeader_1x01_P2.54mm_Vertical" H 3900 3100 50  0001 C CNN
F 3 "~" H 3900 3100 50  0001 C CNN
	1    3900 3100
	1    0    0    -1  
$EndComp
$Comp
L Connector:Conn_01x01_Male J5
U 1 1 616B0D21
P 3900 3400
F 0 "J5" H 4008 3581 50  0000 C CNN
F 1 "Conn_01x01_Male" H 4008 3490 50  0000 C CNN
F 2 "Connector_PinHeader_2.54mm:PinHeader_1x01_P2.54mm_Vertical" H 3900 3400 50  0001 C CNN
F 3 "~" H 3900 3400 50  0001 C CNN
	1    3900 3400
	1    0    0    -1  
$EndComp
Wire Wire Line
	4100 3400 4350 3400
Wire Wire Line
	4350 3100 4100 3100
$Comp
L 1985975:1985975 J1
U 1 1 616BA74D
P 1700 4850
F 0 "J1" H 2328 4796 50  0000 L CNN
F 1 "1985975" H 2328 4705 50  0000 L CNN
F 2 "1985975:SHDR3W100P0X500_1X3_1500X1120X1820P" H 2350 4950 50  0001 L CNN
F 3 "https://componentsearchengine.com/Datasheets/1/1985975.pdf" H 2350 4850 50  0001 L CNN
F 4 "Fixed Terminal Blocks MKDS 3/ 3 HT BK" H 2350 4750 50  0001 L CNN "Description"
F 5 "18.2" H 2350 4650 50  0001 L CNN "Height"
F 6 "651-1985975" H 2350 4550 50  0001 L CNN "Mouser Part Number"
F 7 "https://www.mouser.com/Search/Refine.aspx?Keyword=651-1985975" H 2350 4450 50  0001 L CNN "Mouser Price/Stock"
F 8 "Phoenix Contact" H 2350 4350 50  0001 L CNN "Manufacturer_Name"
F 9 "1985975" H 2350 4250 50  0001 L CNN "Manufacturer_Part_Number"
	1    1700 4850
	1    0    0    -1  
$EndComp
Text GLabel 1700 4850 0    50   Input ~ 0
MOTOR_U
Text GLabel 1700 4950 0    50   Input ~ 0
MOTOR_V
Text GLabel 1700 5050 0    50   Input ~ 0
MOTOR_W
$Comp
L 1985975:1985975 J2
U 1 1 616BF5AC
P 1700 5450
F 0 "J2" H 2328 5396 50  0000 L CNN
F 1 "1985975" H 2328 5305 50  0000 L CNN
F 2 "1985975:SHDR3W100P0X500_1X3_1500X1120X1820P" H 2350 5550 50  0001 L CNN
F 3 "https://componentsearchengine.com/Datasheets/1/1985975.pdf" H 2350 5450 50  0001 L CNN
F 4 "Fixed Terminal Blocks MKDS 3/ 3 HT BK" H 2350 5350 50  0001 L CNN "Description"
F 5 "18.2" H 2350 5250 50  0001 L CNN "Height"
F 6 "651-1985975" H 2350 5150 50  0001 L CNN "Mouser Part Number"
F 7 "https://www.mouser.com/Search/Refine.aspx?Keyword=651-1985975" H 2350 5050 50  0001 L CNN "Mouser Price/Stock"
F 8 "Phoenix Contact" H 2350 4950 50  0001 L CNN "Manufacturer_Name"
F 9 "1985975" H 2350 4850 50  0001 L CNN "Manufacturer_Part_Number"
	1    1700 5450
	1    0    0    -1  
$EndComp
$Comp
L Connector:Conn_01x01_Male J3
U 1 1 6161D629
P 3200 2800
F 0 "J3" H 3308 2981 50  0000 C CNN
F 1 "Conn_01x01_Male" H 3308 2890 50  0000 C CNN
F 2 "Connector_PinHeader_2.54mm:PinHeader_1x01_P2.54mm_Vertical" H 3200 2800 50  0001 C CNN
F 3 "~" H 3200 2800 50  0001 C CNN
	1    3200 2800
	0    1    1    0   
$EndComp
Connection ~ 3200 3000
Wire Wire Line
	3200 3000 2650 3000
$Comp
L Connector:Conn_01x07_Male J7
U 1 1 616282EE
P 5050 4750
F 0 "J7" V 4977 4728 50  0000 C CNN
F 1 "Conn_01x07_Male" V 4886 4728 50  0000 C CNN
F 2 "Connector_PinHeader_2.54mm:PinHeader_1x07_P2.54mm_Vertical" H 5050 4750 50  0001 C CNN
F 3 "~" H 5050 4750 50  0001 C CNN
	1    5050 4750
	0    -1   -1   0   
$EndComp
$Comp
L power:GND #PWR0118
U 1 1 61630C7A
P 5350 4550
F 0 "#PWR0118" H 5350 4300 50  0001 C CNN
F 1 "GND" H 5355 4377 50  0000 C CNN
F 2 "" H 5350 4550 50  0001 C CNN
F 3 "" H 5350 4550 50  0001 C CNN
	1    5350 4550
	-1   0    0    1   
$EndComp
$Comp
L power:+28V #PWR0119
U 1 1 6163EFF5
P 1700 5450
F 0 "#PWR0119" H 1700 5300 50  0001 C CNN
F 1 "+28V" H 1715 5623 50  0000 C CNN
F 2 "" H 1950 5500 50  0001 C CNN
F 3 "" H 1950 5500 50  0001 C CNN
	1    1700 5450
	0    -1   -1   0   
$EndComp
$Comp
L power:GND #PWR0120
U 1 1 616438C4
P 1700 5550
F 0 "#PWR0120" H 1700 5300 50  0001 C CNN
F 1 "GND" H 1700 5200 50  0000 C CNN
F 2 "" H 1700 5550 50  0001 C CNN
F 3 "" H 1700 5550 50  0001 C CNN
	1    1700 5550
	0    1    1    0   
$EndComp
$Comp
L power:GND #PWR0121
U 1 1 6164EE56
P 1700 5650
F 0 "#PWR0121" H 1700 5400 50  0001 C CNN
F 1 "GND" H 1700 5300 50  0000 C CNN
F 2 "" H 1700 5650 50  0001 C CNN
F 3 "" H 1700 5650 50  0001 C CNN
	1    1700 5650
	1    0    0    -1  
$EndComp
$Comp
L Connector:Conn_01x01_Male J6
U 1 1 61668102
P 4050 2700
F 0 "J6" H 4158 2881 50  0000 C CNN
F 1 "Conn_01x01_Male" H 4158 2790 50  0000 C CNN
F 2 "Connector_PinHeader_2.54mm:PinHeader_1x01_P2.54mm_Vertical" H 4050 2700 50  0001 C CNN
F 3 "~" H 4050 2700 50  0001 C CNN
	1    4050 2700
	0    1    1    0   
$EndComp
Wire Wire Line
	4350 2900 4050 2900
Wire Wire Line
	3800 2900 4050 2900
Connection ~ 4050 2900
$EndSCHEMATC
