%FSLAX45Y45*%
G04 Gerber Fmt 4.5, Leading zero omitted, Abs format (unit mm)*
G04 Created by KiCad (PCBNEW 5.1.10) date 2021-10-09 13:14:20*
%MOMM*%
%LPD*%
G01*
G04 APERTURE LIST*
%TA.AperFunction,Profile*%
%ADD10C,0.050000*%
%TD*%
%ADD11C,0.200000*%
%ADD12C,0.300000*%
G04 APERTURE END LIST*
D10*
X16662400Y-3784600D02*
X12700000Y-3784600D01*
X16662400Y-3810000D02*
X16662400Y-3784600D01*
X16662400Y-14478000D02*
X16662400Y-3810000D01*
X12700000Y-14478000D02*
X16662400Y-14478000D01*
X12700000Y-3784600D02*
X12700000Y-14478000D01*
D11*
D12*
X12983928Y-14946214D02*
X12983928Y-14646214D01*
X13055357Y-14646214D01*
X13098214Y-14660500D01*
X13126786Y-14689071D01*
X13141071Y-14717643D01*
X13155357Y-14774786D01*
X13155357Y-14817643D01*
X13141071Y-14874786D01*
X13126786Y-14903357D01*
X13098214Y-14931929D01*
X13055357Y-14946214D01*
X12983928Y-14946214D01*
X13283928Y-14946214D02*
X13283928Y-14746214D01*
X13283928Y-14803357D02*
X13298214Y-14774786D01*
X13312500Y-14760500D01*
X13341071Y-14746214D01*
X13369643Y-14746214D01*
X13469643Y-14946214D02*
X13469643Y-14746214D01*
X13469643Y-14646214D02*
X13455357Y-14660500D01*
X13469643Y-14674786D01*
X13483928Y-14660500D01*
X13469643Y-14646214D01*
X13469643Y-14674786D01*
X13655357Y-14946214D02*
X13626786Y-14931929D01*
X13612500Y-14903357D01*
X13612500Y-14646214D01*
X13812500Y-14946214D02*
X13783928Y-14931929D01*
X13769643Y-14903357D01*
X13769643Y-14646214D01*
X14155357Y-14946214D02*
X14155357Y-14646214D01*
X14255357Y-14860500D01*
X14355357Y-14646214D01*
X14355357Y-14946214D01*
X14626786Y-14946214D02*
X14626786Y-14789071D01*
X14612500Y-14760500D01*
X14583928Y-14746214D01*
X14526786Y-14746214D01*
X14498214Y-14760500D01*
X14626786Y-14931929D02*
X14598214Y-14946214D01*
X14526786Y-14946214D01*
X14498214Y-14931929D01*
X14483928Y-14903357D01*
X14483928Y-14874786D01*
X14498214Y-14846214D01*
X14526786Y-14831929D01*
X14598214Y-14831929D01*
X14626786Y-14817643D01*
X14769643Y-14746214D02*
X14769643Y-15046214D01*
X14769643Y-14760500D02*
X14798214Y-14746214D01*
X14855357Y-14746214D01*
X14883928Y-14760500D01*
X14898214Y-14774786D01*
X14912500Y-14803357D01*
X14912500Y-14889071D01*
X14898214Y-14917643D01*
X14883928Y-14931929D01*
X14855357Y-14946214D01*
X14798214Y-14946214D01*
X14769643Y-14931929D01*
X15041071Y-14917643D02*
X15055357Y-14931929D01*
X15041071Y-14946214D01*
X15026786Y-14931929D01*
X15041071Y-14917643D01*
X15041071Y-14946214D01*
X15041071Y-14760500D02*
X15055357Y-14774786D01*
X15041071Y-14789071D01*
X15026786Y-14774786D01*
X15041071Y-14760500D01*
X15041071Y-14789071D01*
M02*
