%!PS-Adobe-3.0
%%Creator: PCBNEW
%%CreationDate: Sat Oct  9 13:14:16 2021
%%Title: /home/charlesrwest/cpp/hardware/pcbDesign/2021/STDrive101TestBoard/manufacturing/STDrive101TestBoard-NPTH-drl_map.ps
%%Pages: 1
%%PageOrder: Ascend
%%BoundingBox: 0 0 596 842
%%DocumentMedia: A4 595 842 0 () ()
%%Orientation: Landscape
%%EndComments
%%BeginProlog
/line { newpath moveto lineto stroke } bind def
/cir0 { newpath 0 360 arc stroke } bind def
/cir1 { newpath 0 360 arc gsave fill grestore stroke } bind def
/cir2 { newpath 0 360 arc gsave fill grestore stroke } bind def
/arc0 { newpath arc stroke } bind def
/arc1 { newpath 4 index 4 index moveto arc closepath gsave fill
    grestore stroke } bind def
/arc2 { newpath 4 index 4 index moveto arc closepath gsave fill
    grestore stroke } bind def
/poly0 { stroke } bind def
/poly1 { closepath gsave fill grestore stroke } bind def
/poly2 { closepath gsave fill grestore stroke } bind def
/rect0 { rectstroke } bind def
/rect1 { rectfill } bind def
/rect2 { rectfill } bind def
/linemode0 { 0 setlinecap 0 setlinejoin 0 setlinewidth } bind def
/linemode1 { 1 setlinecap 1 setlinejoin } bind def
/dashedline { [200] 100 setdash } bind def
/solidline { [] 0 setdash } bind def
/phantomshow { moveto
    /KicadFont findfont 0.000001 scalefont setfont
    show } bind def
/textshow { gsave
    findfont exch scalefont setfont concat 1 scale 0 0 moveto show
    } bind def
/reencodefont {
  findfont dup length dict begin
  { 1 index /FID ne
    { def }
    { pop pop } ifelse
  } forall
  /Encoding ISOLatin1Encoding def
  currentdict
  end } bind def
/KicadFont /Helvetica reencodefont definefont pop
/KicadFont-Bold /Helvetica-Bold reencodefont definefont pop
/KicadFont-Oblique /Helvetica-Oblique reencodefont definefont pop
/KicadFont-BoldOblique /Helvetica-BoldOblique reencodefont definefont pop
%%EndProlog
%%Page: 1 1
%%BeginPageSetup
gsave
0.0072 0.0072 scale
linemode1
82680 0 translate 90 rotate
49.5421 setlinewidth
%%EndPageSetup
0 0 0 setrgbcolor
19.5048 setlinewidth
newpath
66193.6 78733.2 moveto
50736.4 78733.2 lineto
stroke
0 0 0 setrgbcolor
newpath
66193.6 78634.2 moveto
66193.6 78733.2 lineto
stroke
0 0 0 setrgbcolor
newpath
66193.6 37018.8 moveto
66193.6 78634.2 lineto
stroke
0 0 0 setrgbcolor
newpath
50736.4 37018.8 moveto
66193.6 37018.8 lineto
stroke
0 0 0 setrgbcolor
newpath
50736.4 78733.2 moveto
50736.4 37018.8 lineto
stroke
78.74 setlinewidth
118.11 setlinewidth
0 0 0 setrgbcolor
0 0 0 setrgbcolor
newpath
51854.3 35175.5 moveto
51854.3 36356.6 lineto
52135.6 36356.6 lineto
52304.3 36300.3 lineto
52416.8 36187.9 lineto
52473 36075.4 lineto
52529.3 35850.4 lineto
52529.3 35681.7 lineto
52473 35456.7 lineto
52416.8 35344.2 lineto
52304.3 35231.7 lineto
52135.6 35175.5 lineto
51854.3 35175.5 lineto
stroke
newpath
53035.4 35175.5 moveto
53035.4 35962.9 lineto
stroke
newpath
53035.4 35737.9 moveto
53091.7 35850.4 lineto
53147.9 35906.6 lineto
53260.4 35962.9 lineto
53372.9 35962.9 lineto
stroke
newpath
53766.6 35175.5 moveto
53766.6 35962.9 lineto
stroke
newpath
53766.6 36356.6 moveto
53710.4 36300.3 lineto
53766.6 36244.1 lineto
53822.8 36300.3 lineto
53766.6 36356.6 lineto
53766.6 36244.1 lineto
stroke
newpath
54497.8 35175.5 moveto
54385.3 35231.7 lineto
54329 35344.2 lineto
54329 36356.6 lineto
stroke
newpath
55116.4 35175.5 moveto
55004 35231.7 lineto
54947.7 35344.2 lineto
54947.7 36356.6 lineto
stroke
newpath
56466.3 35175.5 moveto
56466.3 36356.6 lineto
56860 35512.9 lineto
57253.7 36356.6 lineto
57253.7 35175.5 lineto
stroke
newpath
58322.3 35175.5 moveto
58322.3 35794.2 lineto
58266 35906.6 lineto
58153.6 35962.9 lineto
57928.6 35962.9 lineto
57816.1 35906.6 lineto
stroke
newpath
58322.3 35231.7 moveto
58209.8 35175.5 lineto
57928.6 35175.5 lineto
57816.1 35231.7 lineto
57759.9 35344.2 lineto
57759.9 35456.7 lineto
57816.1 35569.2 lineto
57928.6 35625.4 lineto
58209.8 35625.4 lineto
58322.3 35681.7 lineto
stroke
newpath
58884.7 35962.9 moveto
58884.7 34781.8 lineto
stroke
newpath
58884.7 35906.6 moveto
58997.2 35962.9 lineto
59222.2 35962.9 lineto
59334.7 35906.6 lineto
59390.9 35850.4 lineto
59447.1 35737.9 lineto
59447.1 35400.5 lineto
59390.9 35288 lineto
59334.7 35231.7 lineto
59222.2 35175.5 lineto
58997.2 35175.5 lineto
58884.7 35231.7 lineto
stroke
newpath
59953.3 35288 moveto
60009.6 35231.7 lineto
59953.3 35175.5 lineto
59897.1 35231.7 lineto
59953.3 35288 lineto
59953.3 35175.5 lineto
stroke
newpath
59953.3 35906.6 moveto
60009.6 35850.4 lineto
59953.3 35794.2 lineto
59897.1 35850.4 lineto
59953.3 35906.6 lineto
59953.3 35794.2 lineto
stroke
showpage
grestore
%%EOF
