%!PS-Adobe-3.0
%%Creator: PCBNEW
%%CreationDate: Sat Oct  9 13:14:16 2021
%%Title: /home/charlesrwest/cpp/hardware/pcbDesign/2021/STDrive101TestBoard/manufacturing/STDrive101TestBoard-PTH-drl_map.ps
%%Pages: 1
%%PageOrder: Ascend
%%BoundingBox: 0 0 596 842
%%DocumentMedia: A4 595 842 0 () ()
%%Orientation: Landscape
%%EndComments
%%BeginProlog
/line { newpath moveto lineto stroke } bind def
/cir0 { newpath 0 360 arc stroke } bind def
/cir1 { newpath 0 360 arc gsave fill grestore stroke } bind def
/cir2 { newpath 0 360 arc gsave fill grestore stroke } bind def
/arc0 { newpath arc stroke } bind def
/arc1 { newpath 4 index 4 index moveto arc closepath gsave fill
    grestore stroke } bind def
/arc2 { newpath 4 index 4 index moveto arc closepath gsave fill
    grestore stroke } bind def
/poly0 { stroke } bind def
/poly1 { closepath gsave fill grestore stroke } bind def
/poly2 { closepath gsave fill grestore stroke } bind def
/rect0 { rectstroke } bind def
/rect1 { rectfill } bind def
/rect2 { rectfill } bind def
/linemode0 { 0 setlinecap 0 setlinejoin 0 setlinewidth } bind def
/linemode1 { 1 setlinecap 1 setlinejoin } bind def
/dashedline { [200] 100 setdash } bind def
/solidline { [] 0 setdash } bind def
/phantomshow { moveto
    /KicadFont findfont 0.000001 scalefont setfont
    show } bind def
/textshow { gsave
    findfont exch scalefont setfont concat 1 scale 0 0 moveto show
    } bind def
/reencodefont {
  findfont dup length dict begin
  { 1 index /FID ne
    { def }
    { pop pop } ifelse
  } forall
  /Encoding ISOLatin1Encoding def
  currentdict
  end } bind def
/KicadFont /Helvetica reencodefont definefont pop
/KicadFont-Bold /Helvetica-Bold reencodefont definefont pop
/KicadFont-Oblique /Helvetica-Oblique reencodefont definefont pop
/KicadFont-BoldOblique /Helvetica-BoldOblique reencodefont definefont pop
%%EndProlog
%%Page: 1 1
%%BeginPageSetup
gsave
0.0072 0.0072 scale
linemode1
82680 0 translate 90 rotate
49.5421 setlinewidth
%%EndPageSetup
0 0 0 setrgbcolor
19.5048 setlinewidth
newpath
66193.6 78733.2 moveto
50736.4 78733.2 lineto
stroke
0 0 0 setrgbcolor
newpath
66193.6 78634.2 moveto
66193.6 78733.2 lineto
stroke
0 0 0 setrgbcolor
newpath
66193.6 37018.8 moveto
66193.6 78634.2 lineto
stroke
0 0 0 setrgbcolor
newpath
50736.4 37018.8 moveto
66193.6 37018.8 lineto
stroke
0 0 0 setrgbcolor
newpath
50736.4 78733.2 moveto
50736.4 37018.8 lineto
stroke
78.74 setlinewidth
newpath
54621.8 45320.8 moveto
54777.8 45164.7 lineto
stroke
newpath
54777.8 45320.8 moveto
54621.8 45164.7 lineto
stroke
newpath
55216.3 48788.7 moveto
55372.3 48632.7 lineto
stroke
newpath
55372.3 48788.7 moveto
55216.3 48632.7 lineto
stroke
newpath
55810.8 52752.1 moveto
55966.8 52596.1 lineto
stroke
newpath
55966.8 52752.1 moveto
55810.8 52596.1 lineto
stroke
newpath
56405.3 55823.7 moveto
56561.3 55667.7 lineto
stroke
newpath
56561.3 55823.7 moveto
56405.3 55667.7 lineto
stroke
newpath
56534.6 47118.5 moveto
56690.6 46962.5 lineto
stroke
newpath
56690.6 47118.5 moveto
56534.6 46962.5 lineto
stroke
newpath
57106.9 47690.8 moveto
57262.9 47534.8 lineto
stroke
newpath
57262.9 47690.8 moveto
57106.9 47534.8 lineto
stroke
newpath
57198 42670.5 moveto
57354 42514.4 lineto
stroke
newpath
57354 42670.5 moveto
57198 42514.4 lineto
stroke
newpath
57594.3 41820.8 moveto
57750.3 41664.8 lineto
stroke
newpath
57750.3 41820.8 moveto
57594.3 41664.8 lineto
stroke
newpath
57602.3 48186.2 moveto
57758.3 48030.2 lineto
stroke
newpath
57758.3 48186.2 moveto
57602.3 48030.2 lineto
stroke
newpath
57693.4 42942.8 moveto
57849.4 42786.7 lineto
stroke
newpath
57849.4 42942.8 moveto
57693.4 42786.7 lineto
stroke
newpath
57919.7 42036 moveto
58075.7 41880 lineto
stroke
newpath
58075.7 42036 moveto
57919.7 41880 lineto
stroke
newpath
58089.7 40663.8 moveto
58245.8 40507.8 lineto
stroke
newpath
58245.8 40663.8 moveto
58089.7 40507.8 lineto
stroke
newpath
58188.8 42348.2 moveto
58344.9 42192.2 lineto
stroke
newpath
58344.9 42348.2 moveto
58188.8 42192.2 lineto
stroke
newpath
58486.1 44627.2 moveto
58642.1 44471.1 lineto
stroke
newpath
58642.1 44627.2 moveto
58486.1 44471.1 lineto
stroke
newpath
58486.1 39970.2 moveto
58642.1 39814.2 lineto
stroke
newpath
58642.1 39970.2 moveto
58486.1 39814.2 lineto
stroke
newpath
59252.2 43041.8 moveto
59408.3 42885.8 lineto
stroke
newpath
59408.3 43041.8 moveto
59252.2 42885.8 lineto
stroke
newpath
59345.4 44693.8 moveto
59501.4 44537.8 lineto
stroke
newpath
59501.4 44693.8 moveto
59345.4 44537.8 lineto
stroke
newpath
59586.1 47996 moveto
59742.2 47840 lineto
stroke
newpath
59742.2 47996 moveto
59586.1 47840 lineto
stroke
newpath
59675.1 45023.5 moveto
59831.1 44867.5 lineto
stroke
newpath
59831.1 45023.5 moveto
59675.1 44867.5 lineto
stroke
newpath
59873.2 41852.8 moveto
60029.3 41696.8 lineto
stroke
newpath
60029.3 41852.8 moveto
59873.2 41696.8 lineto
stroke
newpath
59990 44048.9 moveto
60146 43892.8 lineto
stroke
newpath
60146 44048.9 moveto
59990 43892.8 lineto
stroke
newpath
60368.7 50548.8 moveto
60524.7 50392.8 lineto
stroke
newpath
60524.7 50548.8 moveto
60368.7 50392.8 lineto
stroke
newpath
60375.3 46503.2 moveto
60531.3 46347.1 lineto
stroke
newpath
60531.3 46503.2 moveto
60375.3 46347.1 lineto
stroke
newpath
60467.8 49010.3 moveto
60623.8 48854.3 lineto
stroke
newpath
60623.8 49010.3 moveto
60467.8 48854.3 lineto
stroke
newpath
60467.8 46981.8 moveto
60623.8 46825.8 lineto
stroke
newpath
60623.8 46981.8 moveto
60467.8 46825.8 lineto
stroke
newpath
60765 42546.4 moveto
60921 42390.4 lineto
stroke
newpath
60921 42546.4 moveto
60765 42390.4 lineto
stroke
newpath
60864.1 53247.5 moveto
61020.1 53091.5 lineto
stroke
newpath
61020.1 53247.5 moveto
60864.1 53091.5 lineto
stroke
newpath
60864.1 49185.1 moveto
61020.1 49029 lineto
stroke
newpath
61020.1 49185.1 moveto
60864.1 49029 lineto
stroke
newpath
61161.3 46807 moveto
61317.4 46651 lineto
stroke
newpath
61317.4 46807 moveto
61161.3 46651 lineto
stroke
newpath
61260.4 49482.3 moveto
61416.5 49326.3 lineto
stroke
newpath
61416.5 49482.3 moveto
61260.4 49326.3 lineto
stroke
newpath
61755.8 56220 moveto
61911.9 56064 lineto
stroke
newpath
61911.9 56220 moveto
61755.8 56064 lineto
stroke
newpath
61854.9 46807 moveto
62011 46651 lineto
stroke
newpath
62011 46807 moveto
61854.9 46651 lineto
stroke
newpath
62251.3 53941.1 moveto
62407.3 53785.1 lineto
stroke
newpath
62407.3 53941.1 moveto
62251.3 53785.1 lineto
stroke
newpath
62251.3 46708 moveto
62407.3 46551.9 lineto
stroke
newpath
62407.3 46708 moveto
62251.3 46551.9 lineto
stroke
newpath
62449.4 41753.7 moveto
62605.5 41597.7 lineto
stroke
newpath
62605.5 41753.7 moveto
62449.4 41597.7 lineto
stroke
53808 42171.1 195.048 cir0
53907.1 44251.9 195.048 cir0
55987.9 44945.5 195.048 cir0
57077.8 37910.5 195.048 cir0
57276 40090.4 195.048 cir0
58068.7 37910.5 195.048 cir0
59059.5 37910.5 195.048 cir0
60050.3 37910.5 195.048 cir0
61041.2 37910.5 195.048 cir0
62032 37910.5 195.048 cir0
63022.9 37910.5 195.048 cir0
newpath
55920 76072.8 moveto
55920 75448.6 lineto
stroke
newpath
55607.9 75760.7 moveto
56232.1 75760.7 lineto
stroke
newpath
57870.5 76072.8 moveto
57870.5 75448.6 lineto
stroke
newpath
57558.4 75760.7 moveto
58182.6 75760.7 lineto
stroke
newpath
57969.6 54044.9 moveto
57969.6 53420.7 lineto
stroke
newpath
57657.5 53732.8 moveto
58281.7 53732.8 lineto
stroke
newpath
57969.6 52094.4 moveto
57969.6 51470.2 lineto
stroke
newpath
57657.5 51782.3 moveto
58281.7 51782.3 lineto
stroke
newpath
57969.6 50143.9 moveto
57969.6 49519.8 lineto
stroke
newpath
57657.5 49831.8 moveto
58281.7 49831.8 lineto
stroke
newpath
59821 76072.8 moveto
59821 75448.6 lineto
stroke
newpath
59508.9 75760.7 moveto
60133 75760.7 lineto
stroke
118.11 setlinewidth
0 0 0 setrgbcolor
0 0 0 setrgbcolor
newpath
51854.3 35175.5 moveto
51854.3 36356.6 lineto
52135.6 36356.6 lineto
52304.3 36300.3 lineto
52416.8 36187.9 lineto
52473 36075.4 lineto
52529.3 35850.4 lineto
52529.3 35681.7 lineto
52473 35456.7 lineto
52416.8 35344.2 lineto
52304.3 35231.7 lineto
52135.6 35175.5 lineto
51854.3 35175.5 lineto
stroke
newpath
53035.4 35175.5 moveto
53035.4 35962.9 lineto
stroke
newpath
53035.4 35737.9 moveto
53091.7 35850.4 lineto
53147.9 35906.6 lineto
53260.4 35962.9 lineto
53372.9 35962.9 lineto
stroke
newpath
53766.6 35175.5 moveto
53766.6 35962.9 lineto
stroke
newpath
53766.6 36356.6 moveto
53710.4 36300.3 lineto
53766.6 36244.1 lineto
53822.8 36300.3 lineto
53766.6 36356.6 lineto
53766.6 36244.1 lineto
stroke
newpath
54497.8 35175.5 moveto
54385.3 35231.7 lineto
54329 35344.2 lineto
54329 36356.6 lineto
stroke
newpath
55116.4 35175.5 moveto
55004 35231.7 lineto
54947.7 35344.2 lineto
54947.7 36356.6 lineto
stroke
newpath
56466.3 35175.5 moveto
56466.3 36356.6 lineto
56860 35512.9 lineto
57253.7 36356.6 lineto
57253.7 35175.5 lineto
stroke
newpath
58322.3 35175.5 moveto
58322.3 35794.2 lineto
58266 35906.6 lineto
58153.6 35962.9 lineto
57928.6 35962.9 lineto
57816.1 35906.6 lineto
stroke
newpath
58322.3 35231.7 moveto
58209.8 35175.5 lineto
57928.6 35175.5 lineto
57816.1 35231.7 lineto
57759.9 35344.2 lineto
57759.9 35456.7 lineto
57816.1 35569.2 lineto
57928.6 35625.4 lineto
58209.8 35625.4 lineto
58322.3 35681.7 lineto
stroke
newpath
58884.7 35962.9 moveto
58884.7 34781.8 lineto
stroke
newpath
58884.7 35906.6 moveto
58997.2 35962.9 lineto
59222.2 35962.9 lineto
59334.7 35906.6 lineto
59390.9 35850.4 lineto
59447.1 35737.9 lineto
59447.1 35400.5 lineto
59390.9 35288 lineto
59334.7 35231.7 lineto
59222.2 35175.5 lineto
58997.2 35175.5 lineto
58884.7 35231.7 lineto
stroke
newpath
59953.3 35288 moveto
60009.6 35231.7 lineto
59953.3 35175.5 lineto
59897.1 35231.7 lineto
59953.3 35288 lineto
59953.3 35175.5 lineto
stroke
newpath
59953.3 35906.6 moveto
60009.6 35850.4 lineto
59953.3 35794.2 lineto
59897.1 35850.4 lineto
59953.3 35906.6 lineto
59953.3 35794.2 lineto
stroke
newpath
50570.6 33307.5 moveto
50726.7 33151.5 lineto
stroke
newpath
50726.7 33307.5 moveto
50570.6 33151.5 lineto
stroke
0 0 0 setrgbcolor
0 0 0 setrgbcolor
newpath
52079.3 33876.3 moveto
52191.8 33876.3 lineto
52304.3 33820 lineto
52360.5 33763.8 lineto
52416.8 33651.3 lineto
52473 33426.3 lineto
52473 33145.1 lineto
52416.8 32920.1 lineto
52360.5 32807.7 lineto
52304.3 32751.4 lineto
52191.8 32695.2 lineto
52079.3 32695.2 lineto
51966.8 32751.4 lineto
51910.6 32807.7 lineto
51854.3 32920.1 lineto
51798.1 33145.1 lineto
51798.1 33426.3 lineto
51854.3 33651.3 lineto
51910.6 33763.8 lineto
51966.8 33820 lineto
52079.3 33876.3 lineto
stroke
newpath
52979.2 32807.7 moveto
53035.4 32751.4 lineto
52979.2 32695.2 lineto
52923 32751.4 lineto
52979.2 32807.7 lineto
52979.2 32695.2 lineto
stroke
newpath
54047.8 33482.6 moveto
54047.8 32695.2 lineto
stroke
newpath
53766.6 33932.5 moveto
53485.4 33088.9 lineto
54216.6 33088.9 lineto
stroke
newpath
54891.5 33876.3 moveto
55004 33876.3 lineto
55116.4 33820 lineto
55172.7 33763.8 lineto
55228.9 33651.3 lineto
55285.2 33426.3 lineto
55285.2 33145.1 lineto
55228.9 32920.1 lineto
55172.7 32807.7 lineto
55116.4 32751.4 lineto
55004 32695.2 lineto
54891.5 32695.2 lineto
54779 32751.4 lineto
54722.7 32807.7 lineto
54666.5 32920.1 lineto
54610.3 33145.1 lineto
54610.3 33426.3 lineto
54666.5 33651.3 lineto
54722.7 33763.8 lineto
54779 33820 lineto
54891.5 33876.3 lineto
stroke
newpath
56016.3 33876.3 moveto
56128.8 33876.3 lineto
56241.3 33820 lineto
56297.5 33763.8 lineto
56353.8 33651.3 lineto
56410 33426.3 lineto
56410 33145.1 lineto
56353.8 32920.1 lineto
56297.5 32807.7 lineto
56241.3 32751.4 lineto
56128.8 32695.2 lineto
56016.3 32695.2 lineto
55903.8 32751.4 lineto
55847.6 32807.7 lineto
55791.4 32920.1 lineto
55735.1 33145.1 lineto
55735.1 33426.3 lineto
55791.4 33651.3 lineto
55847.6 33763.8 lineto
55903.8 33820 lineto
56016.3 33876.3 lineto
stroke
newpath
56916.2 32695.2 moveto
56916.2 33482.6 lineto
stroke
newpath
56916.2 33370.1 moveto
56972.5 33426.3 lineto
57084.9 33482.6 lineto
57253.7 33482.6 lineto
57366.2 33426.3 lineto
57422.4 33313.8 lineto
57422.4 32695.2 lineto
stroke
newpath
57422.4 33313.8 moveto
57478.6 33426.3 lineto
57591.1 33482.6 lineto
57759.9 33482.6 lineto
57872.3 33426.3 lineto
57928.6 33313.8 lineto
57928.6 32695.2 lineto
stroke
newpath
58491 32695.2 moveto
58491 33482.6 lineto
stroke
newpath
58491 33370.1 moveto
58547.3 33426.3 lineto
58659.7 33482.6 lineto
58828.5 33482.6 lineto
58941 33426.3 lineto
58997.2 33313.8 lineto
58997.2 32695.2 lineto
stroke
newpath
58997.2 33313.8 moveto
59053.4 33426.3 lineto
59165.9 33482.6 lineto
59334.7 33482.6 lineto
59447.1 33426.3 lineto
59503.4 33313.8 lineto
59503.4 32695.2 lineto
stroke
newpath
61809.4 33932.5 moveto
60797 32414 lineto
stroke
newpath
63327.9 33876.3 moveto
63440.4 33876.3 lineto
63552.9 33820 lineto
63609.1 33763.8 lineto
63665.4 33651.3 lineto
63721.6 33426.3 lineto
63721.6 33145.1 lineto
63665.4 32920.1 lineto
63609.1 32807.7 lineto
63552.9 32751.4 lineto
63440.4 32695.2 lineto
63327.9 32695.2 lineto
63215.4 32751.4 lineto
63159.2 32807.7 lineto
63102.9 32920.1 lineto
63046.7 33145.1 lineto
63046.7 33426.3 lineto
63102.9 33651.3 lineto
63159.2 33763.8 lineto
63215.4 33820 lineto
63327.9 33876.3 lineto
stroke
newpath
64227.8 32807.7 moveto
64284 32751.4 lineto
64227.8 32695.2 lineto
64171.6 32751.4 lineto
64227.8 32807.7 lineto
64227.8 32695.2 lineto
stroke
newpath
65015.2 33876.3 moveto
65127.7 33876.3 lineto
65240.2 33820 lineto
65296.4 33763.8 lineto
65352.7 33651.3 lineto
65408.9 33426.3 lineto
65408.9 33145.1 lineto
65352.7 32920.1 lineto
65296.4 32807.7 lineto
65240.2 32751.4 lineto
65127.7 32695.2 lineto
65015.2 32695.2 lineto
64902.7 32751.4 lineto
64846.5 32807.7 lineto
64790.2 32920.1 lineto
64734 33145.1 lineto
64734 33426.3 lineto
64790.2 33651.3 lineto
64846.5 33763.8 lineto
64902.7 33820 lineto
65015.2 33876.3 lineto
stroke
newpath
66533.8 32695.2 moveto
65858.8 32695.2 lineto
stroke
newpath
66196.3 32695.2 moveto
66196.3 33876.3 lineto
66083.8 33707.5 lineto
65971.3 33595.1 lineto
65858.8 33538.8 lineto
stroke
newpath
67602.4 33876.3 moveto
67039.9 33876.3 lineto
66983.7 33313.8 lineto
67039.9 33370.1 lineto
67152.4 33426.3 lineto
67433.6 33426.3 lineto
67546.1 33370.1 lineto
67602.4 33313.8 lineto
67658.6 33201.4 lineto
67658.6 32920.1 lineto
67602.4 32807.7 lineto
67546.1 32751.4 lineto
67433.6 32695.2 lineto
67152.4 32695.2 lineto
67039.9 32751.4 lineto
66983.7 32807.7 lineto
stroke
newpath
68052.3 33876.3 moveto
68839.7 33876.3 lineto
68333.5 32695.2 lineto
stroke
newpath
69233.4 33876.3 moveto
69233.4 33651.3 lineto
stroke
newpath
69683.4 33876.3 moveto
69683.4 33651.3 lineto
stroke
newpath
71426.9 32245.2 moveto
71370.7 32301.5 lineto
71258.2 32470.2 lineto
71201.9 32582.7 lineto
71145.7 32751.4 lineto
71089.4 33032.6 lineto
71089.4 33257.6 lineto
71145.7 33538.8 lineto
71201.9 33707.5 lineto
71258.2 33820 lineto
71370.7 33988.8 lineto
71426.9 34045 lineto
stroke
newpath
71764.4 33876.3 moveto
72495.5 33876.3 lineto
72101.8 33426.3 lineto
72270.5 33426.3 lineto
72383 33370.1 lineto
72439.3 33313.8 lineto
72495.5 33201.4 lineto
72495.5 32920.1 lineto
72439.3 32807.7 lineto
72383 32751.4 lineto
72270.5 32695.2 lineto
71933.1 32695.2 lineto
71820.6 32751.4 lineto
71764.4 32807.7 lineto
stroke
newpath
73564.1 33876.3 moveto
73001.7 33876.3 lineto
72945.5 33313.8 lineto
73001.7 33370.1 lineto
73114.2 33426.3 lineto
73395.4 33426.3 lineto
73507.9 33370.1 lineto
73564.1 33313.8 lineto
73620.4 33201.4 lineto
73620.4 32920.1 lineto
73564.1 32807.7 lineto
73507.9 32751.4 lineto
73395.4 32695.2 lineto
73114.2 32695.2 lineto
73001.7 32751.4 lineto
72945.5 32807.7 lineto
stroke
newpath
75026.5 32695.2 moveto
75026.5 33876.3 lineto
stroke
newpath
75532.6 32695.2 moveto
75532.6 33313.8 lineto
75476.4 33426.3 lineto
75363.9 33482.6 lineto
75195.2 33482.6 lineto
75082.7 33426.3 lineto
75026.5 33370.1 lineto
stroke
newpath
76263.8 32695.2 moveto
76151.3 32751.4 lineto
76095.1 32807.7 lineto
76038.8 32920.1 lineto
76038.8 33257.6 lineto
76095.1 33370.1 lineto
76151.3 33426.3 lineto
76263.8 33482.6 lineto
76432.5 33482.6 lineto
76545 33426.3 lineto
76601.3 33370.1 lineto
76657.5 33257.6 lineto
76657.5 32920.1 lineto
76601.3 32807.7 lineto
76545 32751.4 lineto
76432.5 32695.2 lineto
76263.8 32695.2 lineto
stroke
newpath
77332.4 32695.2 moveto
77219.9 32751.4 lineto
77163.7 32863.9 lineto
77163.7 33876.3 lineto
stroke
newpath
78232.3 32751.4 moveto
78119.8 32695.2 lineto
77894.8 32695.2 lineto
77782.4 32751.4 lineto
77726.1 32863.9 lineto
77726.1 33313.8 lineto
77782.4 33426.3 lineto
77894.8 33482.6 lineto
78119.8 33482.6 lineto
78232.3 33426.3 lineto
78288.5 33313.8 lineto
78288.5 33201.4 lineto
77726.1 33088.9 lineto
stroke
newpath
78738.5 32751.4 moveto
78851 32695.2 lineto
79075.9 32695.2 lineto
79188.4 32751.4 lineto
79244.7 32863.9 lineto
79244.7 32920.1 lineto
79188.4 33032.6 lineto
79075.9 33088.9 lineto
78907.2 33088.9 lineto
78794.7 33145.1 lineto
78738.5 33257.6 lineto
78738.5 33313.8 lineto
78794.7 33426.3 lineto
78907.2 33482.6 lineto
79075.9 33482.6 lineto
79188.4 33426.3 lineto
stroke
newpath
79638.4 32245.2 moveto
79694.6 32301.5 lineto
79807.1 32470.2 lineto
79863.3 32582.7 lineto
79919.6 32751.4 lineto
79975.8 33032.6 lineto
79975.8 33257.6 lineto
79919.6 33538.8 lineto
79863.3 33707.5 lineto
79807.1 33820 lineto
79694.6 33988.8 lineto
79638.4 34045 lineto
stroke
50531.6 31670.4 195.048 cir0
0 0 0 setrgbcolor
0 0 0 setrgbcolor
newpath
52473 31136.1 moveto
51798.1 31136.1 lineto
stroke
newpath
52135.6 31136.1 moveto
52135.6 32317.2 lineto
52023.1 32148.5 lineto
51910.6 32036 lineto
51798.1 31979.8 lineto
stroke
newpath
52979.2 31248.6 moveto
53035.4 31192.4 lineto
52979.2 31136.1 lineto
52923 31192.4 lineto
52979.2 31248.6 lineto
52979.2 31136.1 lineto
stroke
newpath
53766.6 32317.2 moveto
53879.1 32317.2 lineto
53991.6 32261 lineto
54047.8 32204.7 lineto
54104.1 32092.2 lineto
54160.3 31867.3 lineto
54160.3 31586.1 lineto
54104.1 31361.1 lineto
54047.8 31248.6 lineto
53991.6 31192.4 lineto
53879.1 31136.1 lineto
53766.6 31136.1 lineto
53654.1 31192.4 lineto
53597.9 31248.6 lineto
53541.6 31361.1 lineto
53485.4 31586.1 lineto
53485.4 31867.3 lineto
53541.6 32092.2 lineto
53597.9 32204.7 lineto
53654.1 32261 lineto
53766.6 32317.2 lineto
stroke
newpath
54891.5 32317.2 moveto
55004 32317.2 lineto
55116.4 32261 lineto
55172.7 32204.7 lineto
55228.9 32092.2 lineto
55285.2 31867.3 lineto
55285.2 31586.1 lineto
55228.9 31361.1 lineto
55172.7 31248.6 lineto
55116.4 31192.4 lineto
55004 31136.1 lineto
54891.5 31136.1 lineto
54779 31192.4 lineto
54722.7 31248.6 lineto
54666.5 31361.1 lineto
54610.3 31586.1 lineto
54610.3 31867.3 lineto
54666.5 32092.2 lineto
54722.7 32204.7 lineto
54779 32261 lineto
54891.5 32317.2 lineto
stroke
newpath
56016.3 32317.2 moveto
56128.8 32317.2 lineto
56241.3 32261 lineto
56297.5 32204.7 lineto
56353.8 32092.2 lineto
56410 31867.3 lineto
56410 31586.1 lineto
56353.8 31361.1 lineto
56297.5 31248.6 lineto
56241.3 31192.4 lineto
56128.8 31136.1 lineto
56016.3 31136.1 lineto
55903.8 31192.4 lineto
55847.6 31248.6 lineto
55791.4 31361.1 lineto
55735.1 31586.1 lineto
55735.1 31867.3 lineto
55791.4 32092.2 lineto
55847.6 32204.7 lineto
55903.8 32261 lineto
56016.3 32317.2 lineto
stroke
newpath
56916.2 31136.1 moveto
56916.2 31923.5 lineto
stroke
newpath
56916.2 31811 moveto
56972.5 31867.3 lineto
57084.9 31923.5 lineto
57253.7 31923.5 lineto
57366.2 31867.3 lineto
57422.4 31754.8 lineto
57422.4 31136.1 lineto
stroke
newpath
57422.4 31754.8 moveto
57478.6 31867.3 lineto
57591.1 31923.5 lineto
57759.9 31923.5 lineto
57872.3 31867.3 lineto
57928.6 31754.8 lineto
57928.6 31136.1 lineto
stroke
newpath
58491 31136.1 moveto
58491 31923.5 lineto
stroke
newpath
58491 31811 moveto
58547.3 31867.3 lineto
58659.7 31923.5 lineto
58828.5 31923.5 lineto
58941 31867.3 lineto
58997.2 31754.8 lineto
58997.2 31136.1 lineto
stroke
newpath
58997.2 31754.8 moveto
59053.4 31867.3 lineto
59165.9 31923.5 lineto
59334.7 31923.5 lineto
59447.1 31867.3 lineto
59503.4 31754.8 lineto
59503.4 31136.1 lineto
stroke
newpath
61809.4 32373.5 moveto
60797 30854.9 lineto
stroke
newpath
63327.9 32317.2 moveto
63440.4 32317.2 lineto
63552.9 32261 lineto
63609.1 32204.7 lineto
63665.4 32092.2 lineto
63721.6 31867.3 lineto
63721.6 31586.1 lineto
63665.4 31361.1 lineto
63609.1 31248.6 lineto
63552.9 31192.4 lineto
63440.4 31136.1 lineto
63327.9 31136.1 lineto
63215.4 31192.4 lineto
63159.2 31248.6 lineto
63102.9 31361.1 lineto
63046.7 31586.1 lineto
63046.7 31867.3 lineto
63102.9 32092.2 lineto
63159.2 32204.7 lineto
63215.4 32261 lineto
63327.9 32317.2 lineto
stroke
newpath
64227.8 31248.6 moveto
64284 31192.4 lineto
64227.8 31136.1 lineto
64171.6 31192.4 lineto
64227.8 31248.6 lineto
64227.8 31136.1 lineto
stroke
newpath
65015.2 32317.2 moveto
65127.7 32317.2 lineto
65240.2 32261 lineto
65296.4 32204.7 lineto
65352.7 32092.2 lineto
65408.9 31867.3 lineto
65408.9 31586.1 lineto
65352.7 31361.1 lineto
65296.4 31248.6 lineto
65240.2 31192.4 lineto
65127.7 31136.1 lineto
65015.2 31136.1 lineto
64902.7 31192.4 lineto
64846.5 31248.6 lineto
64790.2 31361.1 lineto
64734 31586.1 lineto
64734 31867.3 lineto
64790.2 32092.2 lineto
64846.5 32204.7 lineto
64902.7 32261 lineto
65015.2 32317.2 lineto
stroke
newpath
65802.6 32317.2 moveto
66533.8 32317.2 lineto
66140.1 31867.3 lineto
66308.8 31867.3 lineto
66421.3 31811 lineto
66477.5 31754.8 lineto
66533.8 31642.3 lineto
66533.8 31361.1 lineto
66477.5 31248.6 lineto
66421.3 31192.4 lineto
66308.8 31136.1 lineto
65971.3 31136.1 lineto
65858.8 31192.4 lineto
65802.6 31248.6 lineto
stroke
newpath
67096.2 31136.1 moveto
67321.2 31136.1 lineto
67433.6 31192.4 lineto
67489.9 31248.6 lineto
67602.4 31417.3 lineto
67658.6 31642.3 lineto
67658.6 32092.2 lineto
67602.4 32204.7 lineto
67546.1 32261 lineto
67433.6 32317.2 lineto
67208.7 32317.2 lineto
67096.2 32261 lineto
67039.9 32204.7 lineto
66983.7 32092.2 lineto
66983.7 31811 lineto
67039.9 31698.5 lineto
67096.2 31642.3 lineto
67208.7 31586.1 lineto
67433.6 31586.1 lineto
67546.1 31642.3 lineto
67602.4 31698.5 lineto
67658.6 31811 lineto
stroke
newpath
68671 31923.5 moveto
68671 31136.1 lineto
stroke
newpath
68389.8 32373.5 moveto
68108.6 31529.8 lineto
68839.7 31529.8 lineto
stroke
newpath
69233.4 32317.2 moveto
69233.4 32092.2 lineto
stroke
newpath
69683.4 32317.2 moveto
69683.4 32092.2 lineto
stroke
newpath
71426.9 30686.2 moveto
71370.7 30742.4 lineto
71258.2 30911.1 lineto
71201.9 31023.6 lineto
71145.7 31192.4 lineto
71089.4 31473.6 lineto
71089.4 31698.5 lineto
71145.7 31979.8 lineto
71201.9 32148.5 lineto
71258.2 32261 lineto
71370.7 32429.7 lineto
71426.9 32485.9 lineto
stroke
newpath
72495.5 31136.1 moveto
71820.6 31136.1 lineto
stroke
newpath
72158.1 31136.1 moveto
72158.1 32317.2 lineto
72045.6 32148.5 lineto
71933.1 32036 lineto
71820.6 31979.8 lineto
stroke
newpath
73620.4 31136.1 moveto
72945.5 31136.1 lineto
stroke
newpath
73282.9 31136.1 moveto
73282.9 32317.2 lineto
73170.4 32148.5 lineto
73057.9 32036 lineto
72945.5 31979.8 lineto
stroke
newpath
75026.5 31136.1 moveto
75026.5 32317.2 lineto
stroke
newpath
75532.6 31136.1 moveto
75532.6 31754.8 lineto
75476.4 31867.3 lineto
75363.9 31923.5 lineto
75195.2 31923.5 lineto
75082.7 31867.3 lineto
75026.5 31811 lineto
stroke
newpath
76263.8 31136.1 moveto
76151.3 31192.4 lineto
76095.1 31248.6 lineto
76038.8 31361.1 lineto
76038.8 31698.5 lineto
76095.1 31811 lineto
76151.3 31867.3 lineto
76263.8 31923.5 lineto
76432.5 31923.5 lineto
76545 31867.3 lineto
76601.3 31811 lineto
76657.5 31698.5 lineto
76657.5 31361.1 lineto
76601.3 31248.6 lineto
76545 31192.4 lineto
76432.5 31136.1 lineto
76263.8 31136.1 lineto
stroke
newpath
77332.4 31136.1 moveto
77219.9 31192.4 lineto
77163.7 31304.8 lineto
77163.7 32317.2 lineto
stroke
newpath
78232.3 31192.4 moveto
78119.8 31136.1 lineto
77894.8 31136.1 lineto
77782.4 31192.4 lineto
77726.1 31304.8 lineto
77726.1 31754.8 lineto
77782.4 31867.3 lineto
77894.8 31923.5 lineto
78119.8 31923.5 lineto
78232.3 31867.3 lineto
78288.5 31754.8 lineto
78288.5 31642.3 lineto
77726.1 31529.8 lineto
stroke
newpath
78738.5 31192.4 moveto
78851 31136.1 lineto
79075.9 31136.1 lineto
79188.4 31192.4 lineto
79244.7 31304.8 lineto
79244.7 31361.1 lineto
79188.4 31473.6 lineto
79075.9 31529.8 lineto
78907.2 31529.8 lineto
78794.7 31586.1 lineto
78738.5 31698.5 lineto
78738.5 31754.8 lineto
78794.7 31867.3 lineto
78907.2 31923.5 lineto
79075.9 31923.5 lineto
79188.4 31867.3 lineto
stroke
newpath
79638.4 30686.2 moveto
79694.6 30742.4 lineto
79807.1 30911.1 lineto
79863.3 31023.6 lineto
79919.6 31192.4 lineto
79975.8 31473.6 lineto
79975.8 31698.5 lineto
79919.6 31979.8 lineto
79863.3 32148.5 lineto
79807.1 32261 lineto
79694.6 32429.7 lineto
79638.4 32485.9 lineto
stroke
newpath
50414.6 30423.4 moveto
50414.6 29799.3 lineto
stroke
newpath
50102.5 30111.4 moveto
50726.7 30111.4 lineto
stroke
0 0 0 setrgbcolor
0 0 0 setrgbcolor
newpath
52473 29577.1 moveto
51798.1 29577.1 lineto
stroke
newpath
52135.6 29577.1 moveto
52135.6 30758.2 lineto
52023.1 30589.4 lineto
51910.6 30476.9 lineto
51798.1 30420.7 lineto
stroke
newpath
52979.2 29689.5 moveto
53035.4 29633.3 lineto
52979.2 29577.1 lineto
52923 29633.3 lineto
52979.2 29689.5 lineto
52979.2 29577.1 lineto
stroke
newpath
54047.8 30758.2 moveto
53822.8 30758.2 lineto
53710.4 30701.9 lineto
53654.1 30645.7 lineto
53541.6 30476.9 lineto
53485.4 30252 lineto
53485.4 29802 lineto
53541.6 29689.5 lineto
53597.9 29633.3 lineto
53710.4 29577.1 lineto
53935.3 29577.1 lineto
54047.8 29633.3 lineto
54104.1 29689.5 lineto
54160.3 29802 lineto
54160.3 30083.2 lineto
54104.1 30195.7 lineto
54047.8 30252 lineto
53935.3 30308.2 lineto
53710.4 30308.2 lineto
53597.9 30252 lineto
53541.6 30195.7 lineto
53485.4 30083.2 lineto
stroke
newpath
54891.5 30758.2 moveto
55004 30758.2 lineto
55116.4 30701.9 lineto
55172.7 30645.7 lineto
55228.9 30533.2 lineto
55285.2 30308.2 lineto
55285.2 30027 lineto
55228.9 29802 lineto
55172.7 29689.5 lineto
55116.4 29633.3 lineto
55004 29577.1 lineto
54891.5 29577.1 lineto
54779 29633.3 lineto
54722.7 29689.5 lineto
54666.5 29802 lineto
54610.3 30027 lineto
54610.3 30308.2 lineto
54666.5 30533.2 lineto
54722.7 30645.7 lineto
54779 30701.9 lineto
54891.5 30758.2 lineto
stroke
newpath
56016.3 30758.2 moveto
56128.8 30758.2 lineto
56241.3 30701.9 lineto
56297.5 30645.7 lineto
56353.8 30533.2 lineto
56410 30308.2 lineto
56410 30027 lineto
56353.8 29802 lineto
56297.5 29689.5 lineto
56241.3 29633.3 lineto
56128.8 29577.1 lineto
56016.3 29577.1 lineto
55903.8 29633.3 lineto
55847.6 29689.5 lineto
55791.4 29802 lineto
55735.1 30027 lineto
55735.1 30308.2 lineto
55791.4 30533.2 lineto
55847.6 30645.7 lineto
55903.8 30701.9 lineto
56016.3 30758.2 lineto
stroke
newpath
56916.2 29577.1 moveto
56916.2 30364.5 lineto
stroke
newpath
56916.2 30252 moveto
56972.5 30308.2 lineto
57084.9 30364.5 lineto
57253.7 30364.5 lineto
57366.2 30308.2 lineto
57422.4 30195.7 lineto
57422.4 29577.1 lineto
stroke
newpath
57422.4 30195.7 moveto
57478.6 30308.2 lineto
57591.1 30364.5 lineto
57759.9 30364.5 lineto
57872.3 30308.2 lineto
57928.6 30195.7 lineto
57928.6 29577.1 lineto
stroke
newpath
58491 29577.1 moveto
58491 30364.5 lineto
stroke
newpath
58491 30252 moveto
58547.3 30308.2 lineto
58659.7 30364.5 lineto
58828.5 30364.5 lineto
58941 30308.2 lineto
58997.2 30195.7 lineto
58997.2 29577.1 lineto
stroke
newpath
58997.2 30195.7 moveto
59053.4 30308.2 lineto
59165.9 30364.5 lineto
59334.7 30364.5 lineto
59447.1 30308.2 lineto
59503.4 30195.7 lineto
59503.4 29577.1 lineto
stroke
newpath
61809.4 30814.4 moveto
60797 29295.8 lineto
stroke
newpath
63327.9 30758.2 moveto
63440.4 30758.2 lineto
63552.9 30701.9 lineto
63609.1 30645.7 lineto
63665.4 30533.2 lineto
63721.6 30308.2 lineto
63721.6 30027 lineto
63665.4 29802 lineto
63609.1 29689.5 lineto
63552.9 29633.3 lineto
63440.4 29577.1 lineto
63327.9 29577.1 lineto
63215.4 29633.3 lineto
63159.2 29689.5 lineto
63102.9 29802 lineto
63046.7 30027 lineto
63046.7 30308.2 lineto
63102.9 30533.2 lineto
63159.2 30645.7 lineto
63215.4 30701.9 lineto
63327.9 30758.2 lineto
stroke
newpath
64227.8 29689.5 moveto
64284 29633.3 lineto
64227.8 29577.1 lineto
64171.6 29633.3 lineto
64227.8 29689.5 lineto
64227.8 29577.1 lineto
stroke
newpath
65015.2 30758.2 moveto
65127.7 30758.2 lineto
65240.2 30701.9 lineto
65296.4 30645.7 lineto
65352.7 30533.2 lineto
65408.9 30308.2 lineto
65408.9 30027 lineto
65352.7 29802 lineto
65296.4 29689.5 lineto
65240.2 29633.3 lineto
65127.7 29577.1 lineto
65015.2 29577.1 lineto
64902.7 29633.3 lineto
64846.5 29689.5 lineto
64790.2 29802 lineto
64734 30027 lineto
64734 30308.2 lineto
64790.2 30533.2 lineto
64846.5 30645.7 lineto
64902.7 30701.9 lineto
65015.2 30758.2 lineto
stroke
newpath
66421.3 30758.2 moveto
66196.3 30758.2 lineto
66083.8 30701.9 lineto
66027.6 30645.7 lineto
65915.1 30476.9 lineto
65858.8 30252 lineto
65858.8 29802 lineto
65915.1 29689.5 lineto
65971.3 29633.3 lineto
66083.8 29577.1 lineto
66308.8 29577.1 lineto
66421.3 29633.3 lineto
66477.5 29689.5 lineto
66533.8 29802 lineto
66533.8 30083.2 lineto
66477.5 30195.7 lineto
66421.3 30252 lineto
66308.8 30308.2 lineto
66083.8 30308.2 lineto
65971.3 30252 lineto
65915.1 30195.7 lineto
65858.8 30083.2 lineto
stroke
newpath
66927.5 30758.2 moveto
67658.6 30758.2 lineto
67264.9 30308.2 lineto
67433.6 30308.2 lineto
67546.1 30252 lineto
67602.4 30195.7 lineto
67658.6 30083.2 lineto
67658.6 29802 lineto
67602.4 29689.5 lineto
67546.1 29633.3 lineto
67433.6 29577.1 lineto
67096.2 29577.1 lineto
66983.7 29633.3 lineto
66927.5 29689.5 lineto
stroke
newpath
68389.8 30758.2 moveto
68502.3 30758.2 lineto
68614.8 30701.9 lineto
68671 30645.7 lineto
68727.2 30533.2 lineto
68783.5 30308.2 lineto
68783.5 30027 lineto
68727.2 29802 lineto
68671 29689.5 lineto
68614.8 29633.3 lineto
68502.3 29577.1 lineto
68389.8 29577.1 lineto
68277.3 29633.3 lineto
68221.1 29689.5 lineto
68164.8 29802 lineto
68108.6 30027 lineto
68108.6 30308.2 lineto
68164.8 30533.2 lineto
68221.1 30645.7 lineto
68277.3 30701.9 lineto
68389.8 30758.2 lineto
stroke
newpath
69233.4 30758.2 moveto
69233.4 30533.2 lineto
stroke
newpath
69683.4 30758.2 moveto
69683.4 30533.2 lineto
stroke
newpath
71426.9 29127.1 moveto
71370.7 29183.4 lineto
71258.2 29352.1 lineto
71201.9 29464.6 lineto
71145.7 29633.3 lineto
71089.4 29914.5 lineto
71089.4 30139.5 lineto
71145.7 30420.7 lineto
71201.9 30589.4 lineto
71258.2 30701.9 lineto
71370.7 30870.6 lineto
71426.9 30926.9 lineto
stroke
newpath
72383 30758.2 moveto
72158.1 30758.2 lineto
72045.6 30701.9 lineto
71989.3 30645.7 lineto
71876.8 30476.9 lineto
71820.6 30252 lineto
71820.6 29802 lineto
71876.8 29689.5 lineto
71933.1 29633.3 lineto
72045.6 29577.1 lineto
72270.5 29577.1 lineto
72383 29633.3 lineto
72439.3 29689.5 lineto
72495.5 29802 lineto
72495.5 30083.2 lineto
72439.3 30195.7 lineto
72383 30252 lineto
72270.5 30308.2 lineto
72045.6 30308.2 lineto
71933.1 30252 lineto
71876.8 30195.7 lineto
71820.6 30083.2 lineto
stroke
newpath
73901.6 29577.1 moveto
73901.6 30758.2 lineto
stroke
newpath
74407.8 29577.1 moveto
74407.8 30195.7 lineto
74351.5 30308.2 lineto
74239 30364.5 lineto
74070.3 30364.5 lineto
73957.8 30308.2 lineto
73901.6 30252 lineto
stroke
newpath
75138.9 29577.1 moveto
75026.5 29633.3 lineto
74970.2 29689.5 lineto
74914 29802 lineto
74914 30139.5 lineto
74970.2 30252 lineto
75026.5 30308.2 lineto
75138.9 30364.5 lineto
75307.7 30364.5 lineto
75420.2 30308.2 lineto
75476.4 30252 lineto
75532.6 30139.5 lineto
75532.6 29802 lineto
75476.4 29689.5 lineto
75420.2 29633.3 lineto
75307.7 29577.1 lineto
75138.9 29577.1 lineto
stroke
newpath
76207.6 29577.1 moveto
76095.1 29633.3 lineto
76038.8 29745.8 lineto
76038.8 30758.2 lineto
stroke
newpath
77107.4 29633.3 moveto
76995 29577.1 lineto
76770 29577.1 lineto
76657.5 29633.3 lineto
76601.3 29745.8 lineto
76601.3 30195.7 lineto
76657.5 30308.2 lineto
76770 30364.5 lineto
76995 30364.5 lineto
77107.4 30308.2 lineto
77163.7 30195.7 lineto
77163.7 30083.2 lineto
76601.3 29970.8 lineto
stroke
newpath
77613.6 29633.3 moveto
77726.1 29577.1 lineto
77951.1 29577.1 lineto
78063.6 29633.3 lineto
78119.8 29745.8 lineto
78119.8 29802 lineto
78063.6 29914.5 lineto
77951.1 29970.8 lineto
77782.4 29970.8 lineto
77669.9 30027 lineto
77613.6 30139.5 lineto
77613.6 30195.7 lineto
77669.9 30308.2 lineto
77782.4 30364.5 lineto
77951.1 30364.5 lineto
78063.6 30308.2 lineto
stroke
newpath
78513.5 29127.1 moveto
78569.8 29183.4 lineto
78682.2 29352.1 lineto
78738.5 29464.6 lineto
78794.7 29633.3 lineto
78851 29914.5 lineto
78851 30139.5 lineto
78794.7 30420.7 lineto
78738.5 30589.4 lineto
78682.2 30701.9 lineto
78569.8 30870.6 lineto
78513.5 30926.9 lineto
stroke
showpage
grestore
%%EOF
