G04 #@! TF.GenerationSoftware,KiCad,Pcbnew,5.1.10*
G04 #@! TF.CreationDate,2021-10-09T13:14:36-04:00*
G04 #@! TF.ProjectId,STDrive101TestBoard,53544472-6976-4653-9130-315465737442,rev?*
G04 #@! TF.SameCoordinates,Original*
G04 #@! TF.FileFunction,Legend,Top*
G04 #@! TF.FilePolarity,Positive*
%FSLAX46Y46*%
G04 Gerber Fmt 4.6, Leading zero omitted, Abs format (unit mm)*
G04 Created by KiCad (PCBNEW 5.1.10) date 2021-10-09 13:14:36*
%MOMM*%
%LPD*%
G01*
G04 APERTURE LIST*
%ADD10C,0.200000*%
%ADD11C,0.100000*%
%ADD12C,0.120000*%
%ADD13C,0.254000*%
%ADD14C,0.150000*%
G04 APERTURE END LIST*
D10*
G04 #@! TO.C,R7*
X157442000Y-102824000D02*
X157442000Y-103424000D01*
G04 #@! TO.C,R6*
X137122000Y-103170000D02*
X137122000Y-102570000D01*
G04 #@! TO.C,R5*
X157696000Y-111968000D02*
X157696000Y-112568000D01*
G04 #@! TO.C,R4*
X136944000Y-112568000D02*
X136944000Y-111968000D01*
G04 #@! TO.C,R3*
X158458000Y-94280000D02*
X158458000Y-93680000D01*
G04 #@! TO.C,R2*
X139738000Y-97074000D02*
X139738000Y-96474000D01*
G04 #@! TO.C,R1*
X140170000Y-121366000D02*
X140170000Y-121966000D01*
D11*
G04 #@! TO.C,Q6*
X160518000Y-109601000D02*
X160518000Y-109601000D01*
X160618000Y-109601000D02*
X160618000Y-109601000D01*
X160518000Y-109601000D02*
G75*
G02*
X160618000Y-109601000I50000J0D01*
G01*
X160618000Y-109601000D02*
G75*
G02*
X160518000Y-109601000I-50000J0D01*
G01*
G04 #@! TO.C,Q5*
X137150000Y-109601000D02*
X137150000Y-109601000D01*
X137250000Y-109601000D02*
X137250000Y-109601000D01*
X137150000Y-109601000D02*
G75*
G02*
X137250000Y-109601000I50000J0D01*
G01*
X137250000Y-109601000D02*
G75*
G02*
X137150000Y-109601000I-50000J0D01*
G01*
G04 #@! TO.C,Q4*
X160560000Y-118745000D02*
X160560000Y-118745000D01*
X160660000Y-118745000D02*
X160660000Y-118745000D01*
X160560000Y-118745000D02*
G75*
G02*
X160660000Y-118745000I50000J0D01*
G01*
X160660000Y-118745000D02*
G75*
G02*
X160560000Y-118745000I-50000J0D01*
G01*
G04 #@! TO.C,Q3*
X137192000Y-118999000D02*
X137192000Y-118999000D01*
X137292000Y-118999000D02*
X137292000Y-118999000D01*
X137192000Y-118999000D02*
G75*
G02*
X137292000Y-118999000I50000J0D01*
G01*
X137292000Y-118999000D02*
G75*
G02*
X137192000Y-118999000I-50000J0D01*
G01*
G04 #@! TO.C,Q2*
X160518000Y-100457000D02*
X160518000Y-100457000D01*
X160618000Y-100457000D02*
X160618000Y-100457000D01*
X160518000Y-100457000D02*
G75*
G02*
X160618000Y-100457000I50000J0D01*
G01*
X160618000Y-100457000D02*
G75*
G02*
X160518000Y-100457000I-50000J0D01*
G01*
G04 #@! TO.C,Q1*
X137150000Y-100203000D02*
X137150000Y-100203000D01*
X137250000Y-100203000D02*
X137250000Y-100203000D01*
X137150000Y-100203000D02*
G75*
G02*
X137250000Y-100203000I50000J0D01*
G01*
X137250000Y-100203000D02*
G75*
G02*
X137150000Y-100203000I-50000J0D01*
G01*
D12*
G04 #@! TO.C,J7*
X141926000Y-143824000D02*
X141926000Y-142494000D01*
X143256000Y-143824000D02*
X141926000Y-143824000D01*
X144526000Y-143824000D02*
X144526000Y-141164000D01*
X144526000Y-141164000D02*
X159826000Y-141164000D01*
X144526000Y-143824000D02*
X159826000Y-143824000D01*
X159826000Y-143824000D02*
X159826000Y-141164000D01*
G04 #@! TO.C,J6*
X133544000Y-130242000D02*
X134874000Y-130242000D01*
X133544000Y-131572000D02*
X133544000Y-130242000D01*
X133544000Y-132842000D02*
X136204000Y-132842000D01*
X136204000Y-132842000D02*
X136204000Y-132902000D01*
X133544000Y-132842000D02*
X133544000Y-132902000D01*
X133544000Y-132902000D02*
X136204000Y-132902000D01*
G04 #@! TO.C,J5*
X142434000Y-135576000D02*
X143764000Y-135576000D01*
X142434000Y-136906000D02*
X142434000Y-135576000D01*
X142434000Y-138176000D02*
X145094000Y-138176000D01*
X145094000Y-138176000D02*
X145094000Y-138236000D01*
X142434000Y-138176000D02*
X142434000Y-138236000D01*
X142434000Y-138236000D02*
X145094000Y-138236000D01*
G04 #@! TO.C,J4*
X133798000Y-124908000D02*
X135128000Y-124908000D01*
X133798000Y-126238000D02*
X133798000Y-124908000D01*
X133798000Y-127508000D02*
X136458000Y-127508000D01*
X136458000Y-127508000D02*
X136458000Y-127568000D01*
X133798000Y-127508000D02*
X133798000Y-127568000D01*
X133798000Y-127568000D02*
X136458000Y-127568000D01*
G04 #@! TO.C,J3*
X139132000Y-123130000D02*
X140462000Y-123130000D01*
X139132000Y-124460000D02*
X139132000Y-123130000D01*
X139132000Y-125730000D02*
X141792000Y-125730000D01*
X141792000Y-125730000D02*
X141792000Y-125790000D01*
X139132000Y-125730000D02*
X139132000Y-125790000D01*
X139132000Y-125790000D02*
X141792000Y-125790000D01*
D10*
G04 #@! TO.C,J2*
X140288000Y-50866000D02*
X152838000Y-50866000D01*
X152838000Y-50866000D02*
X152838000Y-39516000D01*
X152838000Y-39516000D02*
X137688000Y-39516000D01*
X137688000Y-39516000D02*
X137688000Y-45466000D01*
G04 #@! TO.C,J1*
X150942000Y-111934000D02*
X150942000Y-99384000D01*
X150942000Y-99384000D02*
X139592000Y-99384000D01*
X139592000Y-99384000D02*
X139592000Y-114534000D01*
X139592000Y-114534000D02*
X145542000Y-114534000D01*
D13*
G04 #@! TO.C,IC1*
X148248000Y-130620000D02*
G75*
G03*
X148248000Y-130620000I-125000J0D01*
G01*
D10*
G04 #@! TO.C,C5*
X134505000Y-73762000D02*
X154930000Y-73762000D01*
X140605000Y-92862000D02*
X154930000Y-92862000D01*
G04 #@! TO.C,C3*
X134575000Y-52172000D02*
X155000000Y-52172000D01*
X140675000Y-71272000D02*
X155000000Y-71272000D01*
D13*
G04 #@! TO.C,C2*
X139496000Y-135206000D02*
G75*
G03*
X139496000Y-135206000I-50000J0D01*
G01*
G04 #@! TO.C,R7*
X160570333Y-103698523D02*
X160147000Y-103093761D01*
X159844619Y-103698523D02*
X159844619Y-102428523D01*
X160328428Y-102428523D01*
X160449380Y-102489000D01*
X160509857Y-102549476D01*
X160570333Y-102670428D01*
X160570333Y-102851857D01*
X160509857Y-102972809D01*
X160449380Y-103033285D01*
X160328428Y-103093761D01*
X159844619Y-103093761D01*
X160993666Y-102428523D02*
X161840333Y-102428523D01*
X161296047Y-103698523D01*
G04 #@! TO.C,R6*
X133900333Y-103444523D02*
X133477000Y-102839761D01*
X133174619Y-103444523D02*
X133174619Y-102174523D01*
X133658428Y-102174523D01*
X133779380Y-102235000D01*
X133839857Y-102295476D01*
X133900333Y-102416428D01*
X133900333Y-102597857D01*
X133839857Y-102718809D01*
X133779380Y-102779285D01*
X133658428Y-102839761D01*
X133174619Y-102839761D01*
X134988904Y-102174523D02*
X134747000Y-102174523D01*
X134626047Y-102235000D01*
X134565571Y-102295476D01*
X134444619Y-102476904D01*
X134384142Y-102718809D01*
X134384142Y-103202619D01*
X134444619Y-103323571D01*
X134505095Y-103384047D01*
X134626047Y-103444523D01*
X134867952Y-103444523D01*
X134988904Y-103384047D01*
X135049380Y-103323571D01*
X135109857Y-103202619D01*
X135109857Y-102900238D01*
X135049380Y-102779285D01*
X134988904Y-102718809D01*
X134867952Y-102658333D01*
X134626047Y-102658333D01*
X134505095Y-102718809D01*
X134444619Y-102779285D01*
X134384142Y-102900238D01*
G04 #@! TO.C,R5*
X160570333Y-112842523D02*
X160147000Y-112237761D01*
X159844619Y-112842523D02*
X159844619Y-111572523D01*
X160328428Y-111572523D01*
X160449380Y-111633000D01*
X160509857Y-111693476D01*
X160570333Y-111814428D01*
X160570333Y-111995857D01*
X160509857Y-112116809D01*
X160449380Y-112177285D01*
X160328428Y-112237761D01*
X159844619Y-112237761D01*
X161719380Y-111572523D02*
X161114619Y-111572523D01*
X161054142Y-112177285D01*
X161114619Y-112116809D01*
X161235571Y-112056333D01*
X161537952Y-112056333D01*
X161658904Y-112116809D01*
X161719380Y-112177285D01*
X161779857Y-112298238D01*
X161779857Y-112600619D01*
X161719380Y-112721571D01*
X161658904Y-112782047D01*
X161537952Y-112842523D01*
X161235571Y-112842523D01*
X161114619Y-112782047D01*
X161054142Y-112721571D01*
G04 #@! TO.C,R4*
X133900333Y-112842523D02*
X133477000Y-112237761D01*
X133174619Y-112842523D02*
X133174619Y-111572523D01*
X133658428Y-111572523D01*
X133779380Y-111633000D01*
X133839857Y-111693476D01*
X133900333Y-111814428D01*
X133900333Y-111995857D01*
X133839857Y-112116809D01*
X133779380Y-112177285D01*
X133658428Y-112237761D01*
X133174619Y-112237761D01*
X134988904Y-111995857D02*
X134988904Y-112842523D01*
X134686523Y-111512047D02*
X134384142Y-112419190D01*
X135170333Y-112419190D01*
G04 #@! TO.C,R3*
X161332333Y-94554523D02*
X160909000Y-93949761D01*
X160606619Y-94554523D02*
X160606619Y-93284523D01*
X161090428Y-93284523D01*
X161211380Y-93345000D01*
X161271857Y-93405476D01*
X161332333Y-93526428D01*
X161332333Y-93707857D01*
X161271857Y-93828809D01*
X161211380Y-93889285D01*
X161090428Y-93949761D01*
X160606619Y-93949761D01*
X161755666Y-93284523D02*
X162541857Y-93284523D01*
X162118523Y-93768333D01*
X162299952Y-93768333D01*
X162420904Y-93828809D01*
X162481380Y-93889285D01*
X162541857Y-94010238D01*
X162541857Y-94312619D01*
X162481380Y-94433571D01*
X162420904Y-94494047D01*
X162299952Y-94554523D01*
X161937095Y-94554523D01*
X161816142Y-94494047D01*
X161755666Y-94433571D01*
G04 #@! TO.C,R2*
X138980333Y-99126523D02*
X138557000Y-98521761D01*
X138254619Y-99126523D02*
X138254619Y-97856523D01*
X138738428Y-97856523D01*
X138859380Y-97917000D01*
X138919857Y-97977476D01*
X138980333Y-98098428D01*
X138980333Y-98279857D01*
X138919857Y-98400809D01*
X138859380Y-98461285D01*
X138738428Y-98521761D01*
X138254619Y-98521761D01*
X139464142Y-97977476D02*
X139524619Y-97917000D01*
X139645571Y-97856523D01*
X139947952Y-97856523D01*
X140068904Y-97917000D01*
X140129380Y-97977476D01*
X140189857Y-98098428D01*
X140189857Y-98219380D01*
X140129380Y-98400809D01*
X139403666Y-99126523D01*
X140189857Y-99126523D01*
G04 #@! TO.C,R1*
X143044333Y-122240523D02*
X142621000Y-121635761D01*
X142318619Y-122240523D02*
X142318619Y-120970523D01*
X142802428Y-120970523D01*
X142923380Y-121031000D01*
X142983857Y-121091476D01*
X143044333Y-121212428D01*
X143044333Y-121393857D01*
X142983857Y-121514809D01*
X142923380Y-121575285D01*
X142802428Y-121635761D01*
X142318619Y-121635761D01*
X144253857Y-122240523D02*
X143528142Y-122240523D01*
X143891000Y-122240523D02*
X143891000Y-120970523D01*
X143770047Y-121151952D01*
X143649095Y-121272904D01*
X143528142Y-121333380D01*
G04 #@! TO.C,Q6*
X162693047Y-108391476D02*
X162572095Y-108331000D01*
X162451142Y-108210047D01*
X162269714Y-108028619D01*
X162148761Y-107968142D01*
X162027809Y-107968142D01*
X162088285Y-108270523D02*
X161967333Y-108210047D01*
X161846380Y-108089095D01*
X161785904Y-107847190D01*
X161785904Y-107423857D01*
X161846380Y-107181952D01*
X161967333Y-107061000D01*
X162088285Y-107000523D01*
X162330190Y-107000523D01*
X162451142Y-107061000D01*
X162572095Y-107181952D01*
X162632571Y-107423857D01*
X162632571Y-107847190D01*
X162572095Y-108089095D01*
X162451142Y-108210047D01*
X162330190Y-108270523D01*
X162088285Y-108270523D01*
X163721142Y-107000523D02*
X163479238Y-107000523D01*
X163358285Y-107061000D01*
X163297809Y-107121476D01*
X163176857Y-107302904D01*
X163116380Y-107544809D01*
X163116380Y-108028619D01*
X163176857Y-108149571D01*
X163237333Y-108210047D01*
X163358285Y-108270523D01*
X163600190Y-108270523D01*
X163721142Y-108210047D01*
X163781619Y-108149571D01*
X163842095Y-108028619D01*
X163842095Y-107726238D01*
X163781619Y-107605285D01*
X163721142Y-107544809D01*
X163600190Y-107484333D01*
X163358285Y-107484333D01*
X163237333Y-107544809D01*
X163176857Y-107605285D01*
X163116380Y-107726238D01*
G04 #@! TO.C,Q5*
X130689047Y-112963476D02*
X130568095Y-112903000D01*
X130447142Y-112782047D01*
X130265714Y-112600619D01*
X130144761Y-112540142D01*
X130023809Y-112540142D01*
X130084285Y-112842523D02*
X129963333Y-112782047D01*
X129842380Y-112661095D01*
X129781904Y-112419190D01*
X129781904Y-111995857D01*
X129842380Y-111753952D01*
X129963333Y-111633000D01*
X130084285Y-111572523D01*
X130326190Y-111572523D01*
X130447142Y-111633000D01*
X130568095Y-111753952D01*
X130628571Y-111995857D01*
X130628571Y-112419190D01*
X130568095Y-112661095D01*
X130447142Y-112782047D01*
X130326190Y-112842523D01*
X130084285Y-112842523D01*
X131777619Y-111572523D02*
X131172857Y-111572523D01*
X131112380Y-112177285D01*
X131172857Y-112116809D01*
X131293809Y-112056333D01*
X131596190Y-112056333D01*
X131717142Y-112116809D01*
X131777619Y-112177285D01*
X131838095Y-112298238D01*
X131838095Y-112600619D01*
X131777619Y-112721571D01*
X131717142Y-112782047D01*
X131596190Y-112842523D01*
X131293809Y-112842523D01*
X131172857Y-112782047D01*
X131112380Y-112721571D01*
G04 #@! TO.C,Q4*
X162439047Y-117535476D02*
X162318095Y-117475000D01*
X162197142Y-117354047D01*
X162015714Y-117172619D01*
X161894761Y-117112142D01*
X161773809Y-117112142D01*
X161834285Y-117414523D02*
X161713333Y-117354047D01*
X161592380Y-117233095D01*
X161531904Y-116991190D01*
X161531904Y-116567857D01*
X161592380Y-116325952D01*
X161713333Y-116205000D01*
X161834285Y-116144523D01*
X162076190Y-116144523D01*
X162197142Y-116205000D01*
X162318095Y-116325952D01*
X162378571Y-116567857D01*
X162378571Y-116991190D01*
X162318095Y-117233095D01*
X162197142Y-117354047D01*
X162076190Y-117414523D01*
X161834285Y-117414523D01*
X163467142Y-116567857D02*
X163467142Y-117414523D01*
X163164761Y-116084047D02*
X162862380Y-116991190D01*
X163648571Y-116991190D01*
G04 #@! TO.C,Q3*
X130689047Y-122361476D02*
X130568095Y-122301000D01*
X130447142Y-122180047D01*
X130265714Y-121998619D01*
X130144761Y-121938142D01*
X130023809Y-121938142D01*
X130084285Y-122240523D02*
X129963333Y-122180047D01*
X129842380Y-122059095D01*
X129781904Y-121817190D01*
X129781904Y-121393857D01*
X129842380Y-121151952D01*
X129963333Y-121031000D01*
X130084285Y-120970523D01*
X130326190Y-120970523D01*
X130447142Y-121031000D01*
X130568095Y-121151952D01*
X130628571Y-121393857D01*
X130628571Y-121817190D01*
X130568095Y-122059095D01*
X130447142Y-122180047D01*
X130326190Y-122240523D01*
X130084285Y-122240523D01*
X131051904Y-120970523D02*
X131838095Y-120970523D01*
X131414761Y-121454333D01*
X131596190Y-121454333D01*
X131717142Y-121514809D01*
X131777619Y-121575285D01*
X131838095Y-121696238D01*
X131838095Y-121998619D01*
X131777619Y-122119571D01*
X131717142Y-122180047D01*
X131596190Y-122240523D01*
X131233333Y-122240523D01*
X131112380Y-122180047D01*
X131051904Y-122119571D01*
G04 #@! TO.C,Q2*
X162439047Y-99501476D02*
X162318095Y-99441000D01*
X162197142Y-99320047D01*
X162015714Y-99138619D01*
X161894761Y-99078142D01*
X161773809Y-99078142D01*
X161834285Y-99380523D02*
X161713333Y-99320047D01*
X161592380Y-99199095D01*
X161531904Y-98957190D01*
X161531904Y-98533857D01*
X161592380Y-98291952D01*
X161713333Y-98171000D01*
X161834285Y-98110523D01*
X162076190Y-98110523D01*
X162197142Y-98171000D01*
X162318095Y-98291952D01*
X162378571Y-98533857D01*
X162378571Y-98957190D01*
X162318095Y-99199095D01*
X162197142Y-99320047D01*
X162076190Y-99380523D01*
X161834285Y-99380523D01*
X162862380Y-98231476D02*
X162922857Y-98171000D01*
X163043809Y-98110523D01*
X163346190Y-98110523D01*
X163467142Y-98171000D01*
X163527619Y-98231476D01*
X163588095Y-98352428D01*
X163588095Y-98473380D01*
X163527619Y-98654809D01*
X162801904Y-99380523D01*
X163588095Y-99380523D01*
G04 #@! TO.C,Q1*
X130435047Y-103565476D02*
X130314095Y-103505000D01*
X130193142Y-103384047D01*
X130011714Y-103202619D01*
X129890761Y-103142142D01*
X129769809Y-103142142D01*
X129830285Y-103444523D02*
X129709333Y-103384047D01*
X129588380Y-103263095D01*
X129527904Y-103021190D01*
X129527904Y-102597857D01*
X129588380Y-102355952D01*
X129709333Y-102235000D01*
X129830285Y-102174523D01*
X130072190Y-102174523D01*
X130193142Y-102235000D01*
X130314095Y-102355952D01*
X130374571Y-102597857D01*
X130374571Y-103021190D01*
X130314095Y-103263095D01*
X130193142Y-103384047D01*
X130072190Y-103444523D01*
X129830285Y-103444523D01*
X131584095Y-103444523D02*
X130858380Y-103444523D01*
X131221238Y-103444523D02*
X131221238Y-102174523D01*
X131100285Y-102355952D01*
X130979333Y-102476904D01*
X130858380Y-102537380D01*
G04 #@! TO.C,J7*
D14*
X140378380Y-142827333D02*
X141092666Y-142827333D01*
X141235523Y-142874952D01*
X141330761Y-142970190D01*
X141378380Y-143113047D01*
X141378380Y-143208285D01*
X140378380Y-142446380D02*
X140378380Y-141779714D01*
X141378380Y-142208285D01*
G04 #@! TO.C,J6*
X131746666Y-131024380D02*
X131746666Y-131738666D01*
X131699047Y-131881523D01*
X131603809Y-131976761D01*
X131460952Y-132024380D01*
X131365714Y-132024380D01*
X132651428Y-131024380D02*
X132460952Y-131024380D01*
X132365714Y-131072000D01*
X132318095Y-131119619D01*
X132222857Y-131262476D01*
X132175238Y-131452952D01*
X132175238Y-131833904D01*
X132222857Y-131929142D01*
X132270476Y-131976761D01*
X132365714Y-132024380D01*
X132556190Y-132024380D01*
X132651428Y-131976761D01*
X132699047Y-131929142D01*
X132746666Y-131833904D01*
X132746666Y-131595809D01*
X132699047Y-131500571D01*
X132651428Y-131452952D01*
X132556190Y-131405333D01*
X132365714Y-131405333D01*
X132270476Y-131452952D01*
X132222857Y-131500571D01*
X132175238Y-131595809D01*
G04 #@! TO.C,J5*
X143430666Y-134028380D02*
X143430666Y-134742666D01*
X143383047Y-134885523D01*
X143287809Y-134980761D01*
X143144952Y-135028380D01*
X143049714Y-135028380D01*
X144383047Y-134028380D02*
X143906857Y-134028380D01*
X143859238Y-134504571D01*
X143906857Y-134456952D01*
X144002095Y-134409333D01*
X144240190Y-134409333D01*
X144335428Y-134456952D01*
X144383047Y-134504571D01*
X144430666Y-134599809D01*
X144430666Y-134837904D01*
X144383047Y-134933142D01*
X144335428Y-134980761D01*
X144240190Y-135028380D01*
X144002095Y-135028380D01*
X143906857Y-134980761D01*
X143859238Y-134933142D01*
G04 #@! TO.C,J4*
X132000666Y-125944380D02*
X132000666Y-126658666D01*
X131953047Y-126801523D01*
X131857809Y-126896761D01*
X131714952Y-126944380D01*
X131619714Y-126944380D01*
X132905428Y-126277714D02*
X132905428Y-126944380D01*
X132667333Y-125896761D02*
X132429238Y-126611047D01*
X133048285Y-126611047D01*
G04 #@! TO.C,J3*
X143176666Y-124166380D02*
X143176666Y-124880666D01*
X143129047Y-125023523D01*
X143033809Y-125118761D01*
X142890952Y-125166380D01*
X142795714Y-125166380D01*
X143557619Y-124166380D02*
X144176666Y-124166380D01*
X143843333Y-124547333D01*
X143986190Y-124547333D01*
X144081428Y-124594952D01*
X144129047Y-124642571D01*
X144176666Y-124737809D01*
X144176666Y-124975904D01*
X144129047Y-125071142D01*
X144081428Y-125118761D01*
X143986190Y-125166380D01*
X143700476Y-125166380D01*
X143605238Y-125118761D01*
X143557619Y-125071142D01*
G04 #@! TO.C,J2*
D13*
X139864666Y-44770523D02*
X139864666Y-45677666D01*
X139804190Y-45859095D01*
X139683238Y-45980047D01*
X139501809Y-46040523D01*
X139380857Y-46040523D01*
X140408952Y-44891476D02*
X140469428Y-44831000D01*
X140590380Y-44770523D01*
X140892761Y-44770523D01*
X141013714Y-44831000D01*
X141074190Y-44891476D01*
X141134666Y-45012428D01*
X141134666Y-45133380D01*
X141074190Y-45314809D01*
X140348476Y-46040523D01*
X141134666Y-46040523D01*
G04 #@! TO.C,J1*
X144846523Y-112357333D02*
X145753666Y-112357333D01*
X145935095Y-112417809D01*
X146056047Y-112538761D01*
X146116523Y-112720190D01*
X146116523Y-112841142D01*
X146116523Y-111087333D02*
X146116523Y-111813047D01*
X146116523Y-111450190D02*
X144846523Y-111450190D01*
X145027952Y-111571142D01*
X145148904Y-111692095D01*
X145209380Y-111813047D01*
G04 #@! TO.C,IC1*
X149636238Y-136972523D02*
X149636238Y-135702523D01*
X150966714Y-136851571D02*
X150906238Y-136912047D01*
X150724809Y-136972523D01*
X150603857Y-136972523D01*
X150422428Y-136912047D01*
X150301476Y-136791095D01*
X150241000Y-136670142D01*
X150180523Y-136428238D01*
X150180523Y-136246809D01*
X150241000Y-136004904D01*
X150301476Y-135883952D01*
X150422428Y-135763000D01*
X150603857Y-135702523D01*
X150724809Y-135702523D01*
X150906238Y-135763000D01*
X150966714Y-135823476D01*
X152176238Y-136972523D02*
X151450523Y-136972523D01*
X151813380Y-136972523D02*
X151813380Y-135702523D01*
X151692428Y-135883952D01*
X151571476Y-136004904D01*
X151450523Y-136065380D01*
G04 #@! TO.C,C8*
X154885571Y-127465666D02*
X154946047Y-127526142D01*
X155006523Y-127707571D01*
X155006523Y-127828523D01*
X154946047Y-128009952D01*
X154825095Y-128130904D01*
X154704142Y-128191380D01*
X154462238Y-128251857D01*
X154280809Y-128251857D01*
X154038904Y-128191380D01*
X153917952Y-128130904D01*
X153797000Y-128009952D01*
X153736523Y-127828523D01*
X153736523Y-127707571D01*
X153797000Y-127526142D01*
X153857476Y-127465666D01*
X154280809Y-126739952D02*
X154220333Y-126860904D01*
X154159857Y-126921380D01*
X154038904Y-126981857D01*
X153978428Y-126981857D01*
X153857476Y-126921380D01*
X153797000Y-126860904D01*
X153736523Y-126739952D01*
X153736523Y-126498047D01*
X153797000Y-126377095D01*
X153857476Y-126316619D01*
X153978428Y-126256142D01*
X154038904Y-126256142D01*
X154159857Y-126316619D01*
X154220333Y-126377095D01*
X154280809Y-126498047D01*
X154280809Y-126739952D01*
X154341285Y-126860904D01*
X154401761Y-126921380D01*
X154522714Y-126981857D01*
X154764619Y-126981857D01*
X154885571Y-126921380D01*
X154946047Y-126860904D01*
X155006523Y-126739952D01*
X155006523Y-126498047D01*
X154946047Y-126377095D01*
X154885571Y-126316619D01*
X154764619Y-126256142D01*
X154522714Y-126256142D01*
X154401761Y-126316619D01*
X154341285Y-126377095D01*
X154280809Y-126498047D01*
G04 #@! TO.C,C7*
X150218333Y-127199571D02*
X150157857Y-127260047D01*
X149976428Y-127320523D01*
X149855476Y-127320523D01*
X149674047Y-127260047D01*
X149553095Y-127139095D01*
X149492619Y-127018142D01*
X149432142Y-126776238D01*
X149432142Y-126594809D01*
X149492619Y-126352904D01*
X149553095Y-126231952D01*
X149674047Y-126111000D01*
X149855476Y-126050523D01*
X149976428Y-126050523D01*
X150157857Y-126111000D01*
X150218333Y-126171476D01*
X150641666Y-126050523D02*
X151488333Y-126050523D01*
X150944047Y-127320523D01*
G04 #@! TO.C,C6*
X156409571Y-136355666D02*
X156470047Y-136416142D01*
X156530523Y-136597571D01*
X156530523Y-136718523D01*
X156470047Y-136899952D01*
X156349095Y-137020904D01*
X156228142Y-137081380D01*
X155986238Y-137141857D01*
X155804809Y-137141857D01*
X155562904Y-137081380D01*
X155441952Y-137020904D01*
X155321000Y-136899952D01*
X155260523Y-136718523D01*
X155260523Y-136597571D01*
X155321000Y-136416142D01*
X155381476Y-136355666D01*
X155260523Y-135267095D02*
X155260523Y-135509000D01*
X155321000Y-135629952D01*
X155381476Y-135690428D01*
X155562904Y-135811380D01*
X155804809Y-135871857D01*
X156288619Y-135871857D01*
X156409571Y-135811380D01*
X156470047Y-135750904D01*
X156530523Y-135629952D01*
X156530523Y-135388047D01*
X156470047Y-135267095D01*
X156409571Y-135206619D01*
X156288619Y-135146142D01*
X155986238Y-135146142D01*
X155865285Y-135206619D01*
X155804809Y-135267095D01*
X155744333Y-135388047D01*
X155744333Y-135629952D01*
X155804809Y-135750904D01*
X155865285Y-135811380D01*
X155986238Y-135871857D01*
G04 #@! TO.C,C5*
X131360333Y-83765571D02*
X131299857Y-83826047D01*
X131118428Y-83886523D01*
X130997476Y-83886523D01*
X130816047Y-83826047D01*
X130695095Y-83705095D01*
X130634619Y-83584142D01*
X130574142Y-83342238D01*
X130574142Y-83160809D01*
X130634619Y-82918904D01*
X130695095Y-82797952D01*
X130816047Y-82677000D01*
X130997476Y-82616523D01*
X131118428Y-82616523D01*
X131299857Y-82677000D01*
X131360333Y-82737476D01*
X132509380Y-82616523D02*
X131904619Y-82616523D01*
X131844142Y-83221285D01*
X131904619Y-83160809D01*
X132025571Y-83100333D01*
X132327952Y-83100333D01*
X132448904Y-83160809D01*
X132509380Y-83221285D01*
X132569857Y-83342238D01*
X132569857Y-83644619D01*
X132509380Y-83765571D01*
X132448904Y-83826047D01*
X132327952Y-83886523D01*
X132025571Y-83886523D01*
X131904619Y-83826047D01*
X131844142Y-83765571D01*
G04 #@! TO.C,C4*
X143709571Y-129497666D02*
X143770047Y-129558142D01*
X143830523Y-129739571D01*
X143830523Y-129860523D01*
X143770047Y-130041952D01*
X143649095Y-130162904D01*
X143528142Y-130223380D01*
X143286238Y-130283857D01*
X143104809Y-130283857D01*
X142862904Y-130223380D01*
X142741952Y-130162904D01*
X142621000Y-130041952D01*
X142560523Y-129860523D01*
X142560523Y-129739571D01*
X142621000Y-129558142D01*
X142681476Y-129497666D01*
X142983857Y-128409095D02*
X143830523Y-128409095D01*
X142500047Y-128711476D02*
X143407190Y-129013857D01*
X143407190Y-128227666D01*
G04 #@! TO.C,C3*
X131868333Y-62429571D02*
X131807857Y-62490047D01*
X131626428Y-62550523D01*
X131505476Y-62550523D01*
X131324047Y-62490047D01*
X131203095Y-62369095D01*
X131142619Y-62248142D01*
X131082142Y-62006238D01*
X131082142Y-61824809D01*
X131142619Y-61582904D01*
X131203095Y-61461952D01*
X131324047Y-61341000D01*
X131505476Y-61280523D01*
X131626428Y-61280523D01*
X131807857Y-61341000D01*
X131868333Y-61401476D01*
X132291666Y-61280523D02*
X133077857Y-61280523D01*
X132654523Y-61764333D01*
X132835952Y-61764333D01*
X132956904Y-61824809D01*
X133017380Y-61885285D01*
X133077857Y-62006238D01*
X133077857Y-62308619D01*
X133017380Y-62429571D01*
X132956904Y-62490047D01*
X132835952Y-62550523D01*
X132473095Y-62550523D01*
X132352142Y-62490047D01*
X132291666Y-62429571D01*
G04 #@! TO.C,C2*
X140153571Y-137879666D02*
X140214047Y-137940142D01*
X140274523Y-138121571D01*
X140274523Y-138242523D01*
X140214047Y-138423952D01*
X140093095Y-138544904D01*
X139972142Y-138605380D01*
X139730238Y-138665857D01*
X139548809Y-138665857D01*
X139306904Y-138605380D01*
X139185952Y-138544904D01*
X139065000Y-138423952D01*
X139004523Y-138242523D01*
X139004523Y-138121571D01*
X139065000Y-137940142D01*
X139125476Y-137879666D01*
X139125476Y-137395857D02*
X139065000Y-137335380D01*
X139004523Y-137214428D01*
X139004523Y-136912047D01*
X139065000Y-136791095D01*
X139125476Y-136730619D01*
X139246428Y-136670142D01*
X139367380Y-136670142D01*
X139548809Y-136730619D01*
X140274523Y-137456333D01*
X140274523Y-136670142D01*
G04 #@! TO.C,C1*
X147773571Y-138133666D02*
X147834047Y-138194142D01*
X147894523Y-138375571D01*
X147894523Y-138496523D01*
X147834047Y-138677952D01*
X147713095Y-138798904D01*
X147592142Y-138859380D01*
X147350238Y-138919857D01*
X147168809Y-138919857D01*
X146926904Y-138859380D01*
X146805952Y-138798904D01*
X146685000Y-138677952D01*
X146624523Y-138496523D01*
X146624523Y-138375571D01*
X146685000Y-138194142D01*
X146745476Y-138133666D01*
X147894523Y-136924142D02*
X147894523Y-137649857D01*
X147894523Y-137287000D02*
X146624523Y-137287000D01*
X146805952Y-137407952D01*
X146926904Y-137528904D01*
X146987380Y-137649857D01*
G04 #@! TD*
M02*
