PCBNEW-LibModule-V1  2020-03-29 16:50:24
# encoding utf-8
Units mm
$INDEX
RESC6434X90N
$EndINDEX
$MODULE RESC6434X90N
Po 0 0 0 15 5e80c3c0 00000000 ~~
Li RESC6434X90N
Cd CRA 2512
Kw Resistor
Sc 0
At SMD
AR 
Op 0 0 0
T0 0 0 1.27 1.27 0 0.254 N V 21 N "R**"
T1 0 0 1.27 1.27 0 0.254 N I 21 N "RESC6434X90N"
DS -3.925 -2.05 3.925 -2.05 0.05 24
DS 3.925 -2.05 3.925 2.05 0.05 24
DS 3.925 2.05 -3.925 2.05 0.05 24
DS -3.925 2.05 -3.925 -2.05 0.05 24
DS -3.225 -1.675 3.225 -1.675 0.1 24
DS 3.225 -1.675 3.225 1.675 0.1 24
DS 3.225 1.675 -3.225 1.675 0.1 24
DS -3.225 1.675 -3.225 -1.675 0.1 24
DS 0 -1.575 0 1.575 0.2 21
$PAD
Po -2.9 0
Sh "1" R 1.55 3.55 0 0 0
At SMD N 00888000
Ne 0 ""
$EndPAD
$PAD
Po 2.9 0
Sh "2" R 1.55 3.55 0 0 0
At SMD N 00888000
Ne 0 ""
$EndPAD
$EndMODULE RESC6434X90N
$EndLIBRARY
