PCBNEW-LibModule-V1  2021-10-05 03:48:39
# encoding utf-8
Units mm
$INDEX
CAPC1005X55N
$EndINDEX
$MODULE CAPC1005X55N
Po 0 0 0 15 615bbd07 00000000 ~~
Li CAPC1005X55N
Cd GCM15 L=1.0mm W=0.5mm T=0.5mm
Kw Capacitor
Sc 0
At SMD
AR 
Op 0 0 0
T0 0 0 1.27 1.27 0 0.254 N V 21 N "C**"
T1 0 0 1.27 1.27 0 0.254 N I 21 N "CAPC1005X55N"
DS -0.91 -0.46 0.91 -0.46 0.05 24
DS 0.91 -0.46 0.91 0.46 0.05 24
DS 0.91 0.46 -0.91 0.46 0.05 24
DS -0.91 0.46 -0.91 -0.46 0.05 24
DS -0.5 -0.25 0.5 -0.25 0.1 24
DS 0.5 -0.25 0.5 0.25 0.1 24
DS 0.5 0.25 -0.5 0.25 0.1 24
DS -0.5 0.25 -0.5 -0.25 0.1 24
$PAD
Po -0.46 0
Sh "1" R 0.6 0.62 0 0 0
At SMD N 00888000
Ne 0 ""
$EndPAD
$PAD
Po 0.46 0
Sh "2" R 0.6 0.62 0 0 0
At SMD N 00888000
Ne 0 ""
$EndPAD
$EndMODULE CAPC1005X55N
$EndLIBRARY
