PCBNEW-LibModule-V1  2020-03-03 17:08:01
# encoding utf-8
Units mm
$INDEX
NTMFS4C022N
$EndINDEX
$MODULE NTMFS4C022N
Po 0 0 0 15 5e5e8ef1 00000000 ~~
Li NTMFS4C022N
Cd DFN5 5x6, 1.27P (SO−8FL) CASE 488AA ISSUE N_2
Kw MOSFET (N-Channel)
Sc 0
At SMD
AR 
Op 0 0 0
T0 1.905 -2.509 1.27 1.27 0 0.254 N V 21 N "Q**"
T1 1.905 -2.509 1.27 1.27 0 0.254 N I 21 N "NTMFS4C022N"
DS -0.545 -5.85 4.355 -5.85 0.2 24
DS 4.355 -5.85 4.355 0.05 0.2 24
DS 4.355 0.05 -0.545 0.05 0.2 24
DS -0.545 0.05 -0.545 -5.85 0.2 24
DS -1.87 -7.017 5.68 -7.017 0.1 24
DS 5.68 -7.017 5.68 2 0.1 24
DS 5.68 2 -1.87 2 0.1 24
DS -1.87 2 -1.87 -7.017 0.1 24
DS -0.545 -5.4 -0.545 -3.4 0.1 21
DS 4.355 -5.4 4.355 -3.4 0.1 21
DS 0.905 -5.85 2.905 -5.85 0.1 21
DS -0.545 -1.4 -0.545 -0.9 0.1 21
DS 4.355 -1.4 4.355 -0.9 0.1 21
DS -0.095 0.9 -0.095 0.9 0.2 21
DS 0.105 0.9 0.105 0.9 0.2 21
DA 0.005 0.9 -0.095 0.9 -1800 0.2 21
DA 0.005 0.9 0.105 0.9 -1800 0.2 21
$PAD
Po 0.000 -0.021
Sh "1" R 0.750 1.000 0 0 0
At SMD N 00888000
Ne 0 ""
$EndPAD
$PAD
Po 1.270 -0.021
Sh "2" R 0.750 1.000 0 0 0
At SMD N 00888000
Ne 0 ""
$EndPAD
$PAD
Po 2.540 -0.021
Sh "3" R 0.750 1.000 0 0 0
At SMD N 00888000
Ne 0 ""
$EndPAD
$PAD
Po 3.810 -0.021
Sh "4" R 0.750 1.000 0 0 0
At SMD N 00888000
Ne 0 ""
$EndPAD
$PAD
Po 3.810 -5.779
Sh "5" R 0.475 0.750 0 0 900
At SMD N 00888000
Ne 0 ""
$EndPAD
$PAD
Po 0.000 -5.779
Sh "6" R 0.475 0.750 0 0 900
At SMD N 00888000
Ne 0 ""
$EndPAD
$PAD
Po 1.905 -4.179
Sh "7" R 2.730 4.560 0 0 900
At SMD N 00888000
Ne 0 ""
$EndPAD
$PAD
Po 1.905 -2.36
Sh "8" R 0.910 5.550 0 0 900
At SMD N 00888000
Ne 0 ""
$EndPAD
$PAD
Po 1.905 -1.69
Sh "9" R 0.430 4.560 0 0 900
At SMD N 00888000
Ne 0 ""
$EndPAD
$EndMODULE NTMFS4C022N
$EndLIBRARY
