PCBNEW-LibModule-V1  2021-06-08 20:17:29
# encoding utf-8
Units mm
$INDEX
RESC3216X89N
$EndINDEX
$MODULE RESC3216X89N
Po 0 0 0 15 60bfc249 00000000 ~~
Li RESC3216X89N
Cd 1206_2021
Kw Resistor
Sc 0
At SMD
AR 
Op 0 0 0
T0 0 0 1.27 1.27 0 0.254 N V 21 N "R**"
T1 0 0 1.27 1.27 0 0.254 N I 21 N "RESC3216X89N"
DS -2.325 -1.2 2.325 -1.2 0.05 24
DS 2.325 -1.2 2.325 1.2 0.05 24
DS 2.325 1.2 -2.325 1.2 0.05 24
DS -2.325 1.2 -2.325 -1.2 0.05 24
DS -1.6 -0.8 1.6 -0.8 0.1 24
DS 1.6 -0.8 1.6 0.8 0.1 24
DS 1.6 0.8 -1.6 0.8 0.1 24
DS -1.6 0.8 -1.6 -0.8 0.1 24
DS 0 -0.7 0 0.7 0.2 21
$PAD
Po -1.4 0
Sh "1" R 1.35 1.85 0 0 0
At SMD N 00888000
Ne 0 ""
$EndPAD
$PAD
Po 1.4 0
Sh "2" R 1.35 1.85 0 0 0
At SMD N 00888000
Ne 0 ""
$EndPAD
$EndMODULE RESC3216X89N
$EndLIBRARY
