PCBNEW-LibModule-V1  2020-03-03 16:21:29
# encoding utf-8
Units mm
$INDEX
PTS810SJG250SMTRLFS
$EndINDEX
$MODULE PTS810SJG250SMTRLFS
Po 0 0 0 15 5e5e8409 00000000 ~~
Li PTS810SJG250SMTRLFS
Cd pts810
Kw Switch
Sc 0
At SMD
AR 
Op 0 0 0
T0 -0.250 -0 1.27 1.27 0 0.254 N V 21 N "S**"
T1 -0.250 -0 1.27 1.27 0 0.254 N I 21 N "PTS810SJG250SMTRLFS"
DS -2.1 -1.6 2.1 -1.6 0.2 24
DS 2.1 -1.6 2.1 1.6 0.2 24
DS 2.1 1.6 -2.1 1.6 0.2 24
DS -2.1 1.6 -2.1 -1.6 0.2 24
DS -4.1 -2.6 3.6 -2.6 0.1 24
DS 3.6 -2.6 3.6 2.6 0.1 24
DS 3.6 2.6 -4.1 2.6 0.1 24
DS -4.1 2.6 -4.1 -2.6 0.1 24
DS -2.1 -1.6 2.075 -1.6 0.1 21
DS -2.1 1.6 2.075 1.6 0.1 21
DS -3 -1.2 -3 -1.2 0.2 21
DS -3 -1 -3 -1 0.2 21
DA -3 -1.1 -3.000 -1.2 1800 0.2 21
DA -3 -1.1 -3.000 -1 1800 0.2 21
$PAD
Po -2.075 -1.075
Sh "1" R 0.650 1.050 0 0 900
At SMD N 00888000
Ne 0 ""
$EndPAD
$PAD
Po 2.075 -1.075
Sh "2" R 0.650 1.050 0 0 900
At SMD N 00888000
Ne 0 ""
$EndPAD
$PAD
Po -2.075 1.075
Sh "3" R 0.650 1.050 0 0 900
At SMD N 00888000
Ne 0 ""
$EndPAD
$PAD
Po 2.075 1.075
Sh "4" R 0.650 1.050 0 0 900
At SMD N 00888000
Ne 0 ""
$EndPAD
$EndMODULE PTS810SJG250SMTRLFS
$EndLIBRARY
