PCBNEW-LibModule-V1  2020-03-03 18:16:53
# encoding utf-8
Units mm
$INDEX
RESC0603X26N
$EndINDEX
$MODULE RESC0603X26N
Po 0 0 0 15 5e5e9f15 00000000 ~~
Li RESC0603X26N
Cd 1H 0201
Kw Resistor
Sc 0
At SMD
AR 
Op 0 0 0
T0 0 0 1.27 1.27 0 0.254 N V 21 N "R**"
T1 0 0 1.27 1.27 0 0.254 N I 21 N "RESC0603X26N"
DS -0.975 -0.45 0.975 -0.45 0.05 24
DS 0.975 -0.45 0.975 0.45 0.05 24
DS 0.975 0.45 -0.975 0.45 0.05 24
DS -0.975 0.45 -0.975 -0.45 0.05 24
DS -0.3 -0.15 0.3 -0.15 0.1 24
DS 0.3 -0.15 0.3 0.15 0.1 24
DS 0.3 0.15 -0.3 0.15 0.1 24
DS -0.3 0.15 -0.3 -0.15 0.1 24
$PAD
Po -0.412 0
Sh "1" R 0.4 0.625 0 0 900
At SMD N 00888000
Ne 0 ""
$EndPAD
$PAD
Po 0.412 0
Sh "2" R 0.4 0.625 0 0 900
At SMD N 00888000
Ne 0 ""
$EndPAD
$EndMODULE RESC0603X26N
$EndLIBRARY
