PCBNEW-LibModule-V1  2021-10-06 16:52:39
# encoding utf-8
Units mm
$INDEX
SIR500DPT1RE3
$EndINDEX
$MODULE SIR500DPT1RE3
Po 0 0 0 15 615dc647 00000000 ~~
Li SIR500DPT1RE3
Cd PowerPAK SO-8L Single_2021
Kw MOSFET (N-Channel)
Sc 0
At SMD
AR 
Op 0 0 0
T0 -0.140 -0 1.27 1.27 0 0.254 N V 21 N "Q**"
T1 -0.140 -0 1.27 1.27 0 0.254 N I 21 N "SIR500DPT1RE3"
DS -2.945 -2.45 2.945 -2.45 0.1 24
DS 2.945 -2.45 2.945 2.45 0.1 24
DS 2.945 2.45 -2.945 2.45 0.1 24
DS -2.945 2.45 -2.945 -2.45 0.1 24
DS -4.445 -3.45 4.165 -3.45 0.1 24
DS 4.165 -3.45 4.165 3.45 0.1 24
DS 4.165 3.45 -4.445 3.45 0.1 24
DS -4.445 3.45 -4.445 -3.45 0.1 24
DS -3.8 -1.905 -3.8 -1.905 0.1 21
DS -3.9 -1.905 -3.9 -1.905 0.1 21
DA -3.85 -1.905 -3.800 -1.905 -1800 0.1 21
DA -3.85 -1.905 -3.900 -1.905 -1800 0.1 21
$PAD
Po -2.810 -1.905
Sh "1" R 0.610 1.270 0 0 900
At SMD N 00888000
Ne 0 ""
$EndPAD
$PAD
Po -2.810 -0.635
Sh "2" R 0.610 1.270 0 0 900
At SMD N 00888000
Ne 0 ""
$EndPAD
$PAD
Po -2.810 0.635
Sh "3" R 0.610 1.270 0 0 900
At SMD N 00888000
Ne 0 ""
$EndPAD
$PAD
Po -2.810 1.905
Sh "4" R 0.610 1.270 0 0 900
At SMD N 00888000
Ne 0 ""
$EndPAD
$PAD
Po 2.810 1.905
Sh "5" R 0.610 0.710 0 0 900
At SMD N 00888000
Ne 0 ""
$EndPAD
$PAD
Po 2.810 0.635
Sh "6" R 0.610 0.710 0 0 900
At SMD N 00888000
Ne 0 ""
$EndPAD
$PAD
Po 2.810 -0.635
Sh "7" R 0.610 0.710 0 0 900
At SMD N 00888000
Ne 0 ""
$EndPAD
$PAD
Po 2.810 -1.905
Sh "8" R 0.610 0.710 0 0 900
At SMD N 00888000
Ne 0 ""
$EndPAD
$PAD
Po 0.550 -0
Sh "9" R 3.810 3.910 0 0 0
At SMD N 00888000
Ne 0 ""
$EndPAD
$PAD
Po 2.300 2.083
Sh "10" R 0.255 0.310 0 0 900
At SMD N 00888000
Ne 0 ""
$EndPAD
$PAD
Po 2.300 -2.083
Sh "11" R 0.255 0.310 0 0 900
At SMD N 00888000
Ne 0 ""
$EndPAD
$EndMODULE SIR500DPT1RE3
$EndLIBRARY
