PCBNEW-LibModule-V1  2021-06-08 20:14:50
# encoding utf-8
Units mm
$INDEX
SI7141DPT1GE3
$EndINDEX
$MODULE SI7141DPT1GE3
Po 0 0 0 15 60bfc1aa 00000000 ~~
Li SI7141DPT1GE3
Cd PowerPAK® SO-8 Single_1
Kw MOSFET (N-Channel)
Sc 0
At SMD
AR 
Op 0 0 0
T0 -0.417 -0 1.27 1.27 0 0.254 N V 21 N "Q**"
T1 -0.417 -0 1.27 1.27 0 0.254 N I 21 N "SI7141DPT1GE3"
DS -2.945 -2.45 2.945 -2.45 0.2 24
DS 2.945 -2.45 2.945 2.45 0.2 24
DS 2.945 2.45 -2.945 2.45 0.2 24
DS -2.945 2.45 -2.945 -2.45 0.2 24
DS -5 -3.45 4.165 -3.45 0.1 24
DS 4.165 -3.45 4.165 3.45 0.1 24
DS 4.165 3.45 -5 3.45 0.1 24
DS -5 3.45 -5 -3.45 0.1 24
DS -2.945 -2.45 2.945 -2.45 0.1 21
DS -2.945 2.45 2.945 2.45 0.1 21
DS -3.9 -1.8 -3.9 -1.8 0.2 21
DS -3.9 -2 -3.9 -2 0.2 21
DA -3.9 -1.9 -3.900 -1.8 1800 0.2 21
DA -3.9 -1.9 -3.900 -2 1800 0.2 21
$PAD
Po -2.810 -1.905
Sh "1" R 0.610 1.270 0 0 900
At SMD N 00888000
Ne 0 ""
$EndPAD
$PAD
Po -2.810 -0.635
Sh "2" R 0.610 1.270 0 0 900
At SMD N 00888000
Ne 0 ""
$EndPAD
$PAD
Po -2.810 0.635
Sh "3" R 0.610 1.270 0 0 900
At SMD N 00888000
Ne 0 ""
$EndPAD
$PAD
Po -2.810 1.905
Sh "4" R 0.610 1.270 0 0 900
At SMD N 00888000
Ne 0 ""
$EndPAD
$PAD
Po 2.810 1.905
Sh "5" R 0.610 0.710 0 0 900
At SMD N 00888000
Ne 0 ""
$EndPAD
$PAD
Po 2.810 0.635
Sh "6" R 0.610 0.710 0 0 900
At SMD N 00888000
Ne 0 ""
$EndPAD
$PAD
Po 2.810 -0.635
Sh "7" R 0.610 0.710 0 0 900
At SMD N 00888000
Ne 0 ""
$EndPAD
$PAD
Po 2.810 -1.905
Sh "8" R 0.610 0.710 0 0 900
At SMD N 00888000
Ne 0 ""
$EndPAD
$PAD
Po 0.550 -0
Sh "9" R 3.810 3.910 0 0 0
At SMD N 00888000
Ne 0 ""
$EndPAD
$PAD
Po 2.300 -2.083
Sh "10" R 0.255 0.320 0 0 900
At SMD N 00888000
Ne 0 ""
$EndPAD
$PAD
Po 2.300 2.083
Sh "11" R 0.255 0.320 0 0 900
At SMD N 00888000
Ne 0 ""
$EndPAD
$EndMODULE SI7141DPT1GE3
$EndLIBRARY
