PCBNEW-LibModule-V1  2021-10-05 03:18:32
# encoding utf-8
Units mm
$INDEX
QFN50P400X400X100-25N-D
$EndINDEX
$MODULE QFN50P400X400X100-25N-D
Po 0 0 0 15 615bb5f8 00000000 ~~
Li QFN50P400X400X100-25N-D
Cd VFQFPN 4x4x1.0 24 PITCH 0.5
Kw Integrated Circuit
Sc 0
At SMD
AR 
Op 0 0 0
T0 0 0 1.27 1.27 0 0.254 N V 21 N "IC**"
T1 0 0 1.27 1.27 0 0.254 N I 21 N "QFN50P400X400X100-25N-D"
DS -2.65 -2.65 2.65 -2.65 0.05 24
DS 2.65 -2.65 2.65 2.65 0.05 24
DS 2.65 2.65 -2.65 2.65 0.05 24
DS -2.65 2.65 -2.65 -2.65 0.05 24
DS -2 -2 2 -2 0.1 24
DS 2 -2 2 2 0.1 24
DS 2 2 -2 2 0.1 24
DS -2 2 -2 -2 0.1 24
DS -2 -1.5 -1.5 -2 0.1 24
DC -2.4 -2 -2.275 -2 0.254 21
$PAD
Po -1.95 -1.25
Sh "1" R 0.3 0.9 0 0 900
At SMD N 00888000
Ne 0 ""
$EndPAD
$PAD
Po -1.95 -0.75
Sh "2" R 0.3 0.9 0 0 900
At SMD N 00888000
Ne 0 ""
$EndPAD
$PAD
Po -1.95 -0.25
Sh "3" R 0.3 0.9 0 0 900
At SMD N 00888000
Ne 0 ""
$EndPAD
$PAD
Po -1.95 0.25
Sh "4" R 0.3 0.9 0 0 900
At SMD N 00888000
Ne 0 ""
$EndPAD
$PAD
Po -1.95 0.75
Sh "5" R 0.3 0.9 0 0 900
At SMD N 00888000
Ne 0 ""
$EndPAD
$PAD
Po -1.95 1.25
Sh "6" R 0.3 0.9 0 0 900
At SMD N 00888000
Ne 0 ""
$EndPAD
$PAD
Po -1.25 1.95
Sh "7" R 0.3 0.9 0 0 0
At SMD N 00888000
Ne 0 ""
$EndPAD
$PAD
Po -0.75 1.95
Sh "8" R 0.3 0.9 0 0 0
At SMD N 00888000
Ne 0 ""
$EndPAD
$PAD
Po -0.25 1.95
Sh "9" R 0.3 0.9 0 0 0
At SMD N 00888000
Ne 0 ""
$EndPAD
$PAD
Po 0.25 1.95
Sh "10" R 0.3 0.9 0 0 0
At SMD N 00888000
Ne 0 ""
$EndPAD
$PAD
Po 0.75 1.95
Sh "11" R 0.3 0.9 0 0 0
At SMD N 00888000
Ne 0 ""
$EndPAD
$PAD
Po 1.25 1.95
Sh "12" R 0.3 0.9 0 0 0
At SMD N 00888000
Ne 0 ""
$EndPAD
$PAD
Po 1.95 1.25
Sh "13" R 0.3 0.9 0 0 900
At SMD N 00888000
Ne 0 ""
$EndPAD
$PAD
Po 1.95 0.75
Sh "14" R 0.3 0.9 0 0 900
At SMD N 00888000
Ne 0 ""
$EndPAD
$PAD
Po 1.95 0.25
Sh "15" R 0.3 0.9 0 0 900
At SMD N 00888000
Ne 0 ""
$EndPAD
$PAD
Po 1.95 -0.25
Sh "16" R 0.3 0.9 0 0 900
At SMD N 00888000
Ne 0 ""
$EndPAD
$PAD
Po 1.95 -0.75
Sh "17" R 0.3 0.9 0 0 900
At SMD N 00888000
Ne 0 ""
$EndPAD
$PAD
Po 1.95 -1.25
Sh "18" R 0.3 0.9 0 0 900
At SMD N 00888000
Ne 0 ""
$EndPAD
$PAD
Po 1.25 -1.95
Sh "19" R 0.3 0.9 0 0 0
At SMD N 00888000
Ne 0 ""
$EndPAD
$PAD
Po 0.75 -1.95
Sh "20" R 0.3 0.9 0 0 0
At SMD N 00888000
Ne 0 ""
$EndPAD
$PAD
Po 0.25 -1.95
Sh "21" R 0.3 0.9 0 0 0
At SMD N 00888000
Ne 0 ""
$EndPAD
$PAD
Po -0.25 -1.95
Sh "22" R 0.3 0.9 0 0 0
At SMD N 00888000
Ne 0 ""
$EndPAD
$PAD
Po -0.75 -1.95
Sh "23" R 0.3 0.9 0 0 0
At SMD N 00888000
Ne 0 ""
$EndPAD
$PAD
Po -1.25 -1.95
Sh "24" R 0.3 0.9 0 0 0
At SMD N 00888000
Ne 0 ""
$EndPAD
$PAD
Po 0 0
Sh "25" R 2.6 2.6 0 0 0
At SMD N 00888000
Ne 0 ""
$EndPAD
$EndMODULE QFN50P400X400X100-25N-D
$EndLIBRARY
