PCBNEW-LibModule-V1  2021-06-08 20:24:11
# encoding utf-8
Units mm
$INDEX
CAPC3225X270N
$EndINDEX
$MODULE CAPC3225X270N
Po 0 0 0 15 60bfc3db 00000000 ~~
Li CAPC3225X270N
Cd UMK325B7475MM-P
Kw Capacitor
Sc 0
At SMD
AR 
Op 0 0 0
T0 0 0 1.27 1.27 0 0.254 N V 21 N "C**"
T1 0 0 1.27 1.27 0 0.254 N I 21 N "CAPC3225X270N"
DS -2.11 -1.51 2.11 -1.51 0.05 24
DS 2.11 -1.51 2.11 1.51 0.05 24
DS 2.11 1.51 -2.11 1.51 0.05 24
DS -2.11 1.51 -2.11 -1.51 0.05 24
DS -1.6 -1.25 1.6 -1.25 0.1 24
DS 1.6 -1.25 1.6 1.25 0.1 24
DS 1.6 1.25 -1.6 1.25 0.1 24
DS -1.6 1.25 -1.6 -1.25 0.1 24
DS 0 -1.15 0 1.15 0.2 21
$PAD
Po -1.35 0
Sh "1" R 1.22 2.72 0 0 0
At SMD N 00888000
Ne 0 ""
$EndPAD
$PAD
Po 1.35 0
Sh "2" R 1.22 2.72 0 0 0
At SMD N 00888000
Ne 0 ""
$EndPAD
$EndMODULE CAPC3225X270N
$EndLIBRARY
