PCBNEW-LibModule-V1  2021-06-14 19:21:29
# encoding utf-8
Units mm
$INDEX
CAPAE1910X2250N
$EndINDEX
$MODULE CAPAE1910X2250N
Po 0 0 0 15 60c79e29 00000000 ~~
Li CAPAE1910X2250N
Cd 18*21.5mm
Kw Capacitor Polarised
Sc 0
At SMD
AR 
Op 0 0 0
T0 0 0 1.27 1.27 0 0.254 N V 21 N "C**"
T1 0 0 1.27 1.27 0 0.254 N I 21 N "CAPAE1910X2250N"
DS -11.375 -10.15 11.375 -10.15 0.05 24
DS 11.375 -10.15 11.375 10.15 0.05 24
DS 11.375 10.15 -11.375 10.15 0.05 24
DS -11.375 10.15 -11.375 -10.15 0.05 24
DS 9.55 -9.55 -4.775 -9.55 0.1 24
DS -4.775 -9.55 -9.55 -4.775 0.1 24
DS -9.55 -4.775 -9.55 4.775 0.1 24
DS -9.55 4.775 -4.775 9.55 0.1 24
DS -4.775 9.55 9.55 9.55 0.1 24
DS 9.55 9.55 9.55 -9.55 0.1 24
DS -10.875 -9.55 9.55 -9.55 0.2 21
DS -4.775 9.55 9.55 9.55 0.2 21
$PAD
Po -6.95 0
Sh "1" R 2.4 7.85 0 0 900
At SMD N 00888000
Ne 0 ""
$EndPAD
$PAD
Po 6.95 0
Sh "2" R 2.4 7.85 0 0 900
At SMD N 00888000
Ne 0 ""
$EndPAD
$EndMODULE CAPAE1910X2250N
$EndLIBRARY
