PCBNEW-LibModule-V1  2021-06-08 20:16:39
# encoding utf-8
Units mm
$INDEX
RESC7146X175N
$EndINDEX
$MODULE RESC7146X175N
Po 0 0 0 15 60bfc217 00000000 ~~
Li RESC7146X175N
Cd WSHP28185L000FEA+
Kw Resistor
Sc 0
At SMD
AR 
Op 0 0 0
T0 0 0 1.27 1.27 0 0.254 N V 21 N "R**"
T1 0 0 1.27 1.27 0 0.254 N I 21 N "RESC7146X175N"
DS -4.3 -2.7 4.3 -2.7 0.05 24
DS 4.3 -2.7 4.3 2.7 0.05 24
DS 4.3 2.7 -4.3 2.7 0.05 24
DS -4.3 2.7 -4.3 -2.7 0.05 24
DS -3.55 -2.3 3.55 -2.3 0.1 24
DS 3.55 -2.3 3.55 2.3 0.1 24
DS 3.55 2.3 -3.55 2.3 0.1 24
DS -3.55 2.3 -3.55 -2.3 0.1 24
$PAD
Po -2.1 0
Sh "1" R 3.9 4.85 0 0 0
At SMD N 00888000
Ne 0 ""
$EndPAD
$PAD
Po 2.1 0
Sh "2" R 3.9 4.85 0 0 0
At SMD N 00888000
Ne 0 ""
$EndPAD
$EndMODULE RESC7146X175N
$EndLIBRARY
